(footprint "Arduino_Pro_Mini_328"
	(version 20240108)
	(generator "pcbnew")
	(generator_version "8.0")
	(layer "F.Cu")
	(descr "Arduino Pro-Mini328P, https://github.com/sparkfun/Arduino_Pro_Mini_328")
	(tags "Atmega328P")
	(property "Reference" "REF**"
		(at 6.35 13.335 90)
		(layer "F.SilkS")
		(uuid "2bbdeb11-9af2-4e85-871b-f33278c7ab37")
		(effects
			(font
				(size 1 1)
				(thickness 0.15)
			)
		)
	)
	(property "Value" "Arduino_Pro_Mini_328"
		(at 8.89 13.335 90)
		(layer "F.Fab")
		(uuid "d52bb500-f14a-4169-bedf-a85482a9d6b3")
		(effects
			(font
				(size 1 1)
				(thickness 0.15)
			)
		)
	)
	(property "Footprint" ""
		(at 0 0 0)
		(layer "F.Fab")
		(hide yes)
		(uuid "f328e9bb-ab17-4f7f-9e3e-6afbd6724bf4")
		(effects
			(font
				(size 1.27 1.27)
				(thickness 0.15)
			)
		)
	)
	(property "Datasheet" ""
		(at 0 0 0)
		(layer "F.Fab")
		(hide yes)
		(uuid "2f459e87-4428-438b-990d-3bd14b80b486")
		(effects
			(font
				(size 1.27 1.27)
				(thickness 0.15)
			)
		)
	)
	(property "Description" ""
		(at 0 0 0)
		(layer "F.Fab")
		(hide yes)
		(uuid "6fb64920-18db-410f-a75a-ee13b00180e7")
		(effects
			(font
				(size 1.27 1.27)
				(thickness 0.15)
			)
		)
	)
	(attr through_hole)
	(fp_line
		(start -1.524 -4.064)
		(end -1.524 -1.27)
		(stroke
			(width 0.12)
			(type solid)
		)
		(layer "F.SilkS")
		(uuid "f747e121-d667-4a98-9652-759d1b678597")
	)
	(fp_line
		(start -1.524 -1.27)
		(end 1.524 -1.27)
		(stroke
			(width 0.12)
			(type solid)
		)
		(layer "F.SilkS")
		(uuid "74638035-ea50-47a7-9831-2dd789abb243")
	)
	(fp_line
		(start -1.524 0.762)
		(end -1.524 -0.762)
		(stroke
			(width 0.12)
			(type solid)
		)
		(layer "F.SilkS")
		(uuid "3689fa47-8e1b-4916-93b9-385384a63259")
	)
	(fp_line
		(start -1.524 1.27)
		(end -1.524 29.464)
		(stroke
			(width 0.12)
			(type solid)
		)
		(layer "F.SilkS")
		(uuid "cecfa2ef-ffa2-45d4-809c-53979b068d85")
	)
	(fp_line
		(start 1.524 -1.27)
		(end 1.524 1.27)
		(stroke
			(width 0.12)
			(type solid)
		)
		(layer "F.SilkS")
		(uuid "e237e155-82bc-49c9-b965-c5d6a9b132e9")
	)
	(fp_line
		(start 1.524 1.27)
		(end -1.524 1.27)
		(stroke
			(width 0.12)
			(type solid)
		)
		(layer "F.SilkS")
		(uuid "18c56e0e-1991-46a2-b02b-a790f2ff866a")
	)
	(fp_line
		(start 11.049 7.493)
		(end 13.589 7.493)
		(stroke
			(width 0.12)
			(type solid)
		)
		(layer "F.SilkS")
		(uuid "5d410c29-2fa6-421b-8410-df28152f2432")
	)
	(fp_line
		(start 11.049 12.573)
		(end 11.049 7.493)
		(stroke
			(width 0.12)
			(type solid)
		)
		(layer "F.SilkS")
		(uuid "6d62965e-0242-4104-80b9-578dce7bc424")
	)
	(fp_line
		(start 11.049 17.907)
		(end 13.589 17.907)
		(stroke
			(width 0.12)
			(type solid)
		)
		(layer "F.SilkS")
		(uuid "840168f5-7f08-42db-b9d4-a3533a4dfb57")
	)
	(fp_line
		(start 11.049 22.987)
		(end 11.049 17.907)
		(stroke
			(width 0.12)
			(type solid)
		)
		(layer "F.SilkS")
		(uuid "4452e48d-af53-43e8-a58b-2ebd92868caf")
	)
	(fp_line
		(start 13.589 7.493)
		(end 13.589 12.573)
		(stroke
			(width 0.12)
			(type solid)
		)
		(layer "F.SilkS")
		(uuid "92de3c2d-e8ce-4826-9d34-f772aebf916c")
	)
	(fp_line
		(start 13.589 12.573)
		(end 11.049 12.573)
		(stroke
			(width 0.12)
			(type solid)
		)
		(layer "F.SilkS")
		(uuid "996fa47a-61ea-4f47-8b0a-5b5bf3742e47")
	)
	(fp_line
		(start 13.589 17.907)
		(end 13.589 22.987)
		(stroke
			(width 0.12)
			(type solid)
		)
		(layer "F.SilkS")
		(uuid "da170bf6-8b19-4675-83ba-b8335df4a209")
	)
	(fp_line
		(start 13.589 22.987)
		(end 11.049 22.987)
		(stroke
			(width 0.12)
			(type solid)
		)
		(layer "F.SilkS")
		(uuid "b42a2248-410b-48c1-8fd1-8e9a0a844b2e")
	)
	(fp_line
		(start 16.764 -4.064)
		(end -1.524 -4.064)
		(stroke
			(width 0.12)
			(type solid)
		)
		(layer "F.SilkS")
		(uuid "61f34ef3-1204-4a83-981c-c80324b4446b")
	)
	(fp_line
		(start 16.764 29.464)
		(end -1.524 29.464)
		(stroke
			(width 0.12)
			(type solid)
		)
		(layer "F.SilkS")
		(uuid "5b44edb7-2f01-47d5-ad78-ab23d2499efe")
	)
	(fp_line
		(start 16.764 29.464)
		(end 16.764 -4.064)
		(stroke
			(width 0.12)
			(type solid)
		)
		(layer "F.SilkS")
		(uuid "efc98515-2e6c-4331-bfee-2efdb264ff74")
	)
	(fp_line
		(start -1.7 -4.3)
		(end -1.7 29.7)
		(stroke
			(width 0.05)
			(type solid)
		)
		(layer "F.CrtYd")
		(uuid "4e596efa-b40b-46cd-b3c1-194a9aee318b")
	)
	(fp_line
		(start -1.7 29.7)
		(end 17 29.7)
		(stroke
			(width 0.05)
			(type solid)
		)
		(layer "F.CrtYd")
		(uuid "64d383dc-e70e-49cd-9279-262c401d095b")
	)
	(fp_line
		(start 17 -4.3)
		(end -1.7 -4.3)
		(stroke
			(width 0.05)
			(type solid)
		)
		(layer "F.CrtYd")
		(uuid "ff06236d-e343-4e81-aeb5-015d44c153ae")
	)
	(fp_line
		(start 17 29.7)
		(end 17 -4.3)
		(stroke
			(width 0.05)
			(type solid)
		)
		(layer "F.CrtYd")
		(uuid "f6743bb6-6bb5-404a-97c3-0840a6232265")
	)
	(fp_line
		(start -1.524 -4.064)
		(end -1.524 29.464)
		(stroke
			(width 0.1)
			(type solid)
		)
		(layer "F.Fab")
		(uuid "6bb3015a-fe87-407d-a7d6-ed48745a0f5e")
	)
	(fp_line
		(start -1.524 29.464)
		(end 16.764 29.464)
		(stroke
			(width 0.1)
			(type solid)
		)
		(layer "F.Fab")
		(uuid "a3d2b36b-7138-40e5-8298-6b40cf48fd26")
	)
	(fp_line
		(start 16.764 -4.064)
		(end -1.524 -4.064)
		(stroke
			(width 0.1)
			(type solid)
		)
		(layer "F.Fab")
		(uuid "1dc94ffa-54e5-4c24-bcd6-61ea4da3a972")
	)
	(fp_line
		(start 16.764 29.464)
		(end 16.764 -4.064)
		(stroke
			(width 0.1)
			(type solid)
		)
		(layer "F.Fab")
		(uuid "0f8e3975-69b4-4c66-8581-614dd202f9c0")
	)
	(fp_text user "${REFERENCE}"
		(at 6.35 13.33 90)
		(layer "F.Fab")
		(uuid "1e7f8c44-0ccf-496a-8158-6f83362830f5")
		(effects
			(font
				(size 1 1)
				(thickness 0.15)
			)
		)
	)
	(pad "1" thru_hole rect
		(at 0 0 270)
		(size 1.6 1.8)
		(drill 1)
		(layers "*.Cu" "*.Mask")
		(remove_unused_layers no)
		(uuid "ef6b4ed0-26e7-4827-a8de-aca0eb91f584")
	)
	(pad "2" thru_hole oval
		(at 0 2.54 270)
		(size 1.6 1.8)
		(drill 1)
		(layers "*.Cu" "*.Mask")
		(remove_unused_layers no)
		(uuid "dc0287c2-8814-4c23-8e5f-e7c17bd41c67")
	)
	(pad "3" thru_hole oval
		(at 0 5.08 270)
		(size 1.6 1.8)
		(drill 1)
		(layers "*.Cu" "*.Mask")
		(remove_unused_layers no)
		(uuid "5aeeabe4-a097-4de3-8bf8-1db18950ad12")
	)
	(pad "4" thru_hole oval
		(at 0 7.62 270)
		(size 1.6 1.8)
		(drill 1)
		(layers "*.Cu" "*.Mask")
		(remove_unused_layers no)
		(uuid "d999fb9a-4670-499e-a606-8ccbc9ce8e96")
	)
	(pad "5" thru_hole oval
		(at 0 10.16 270)
		(size 1.6 1.8)
		(drill 1)
		(layers "*.Cu" "*.Mask")
		(remove_unused_layers no)
		(uuid "bcb2058f-eeb6-46dc-8b0a-66cab145ed81")
	)
	(pad "6" thru_hole oval
		(at 0 12.7 270)
		(size 1.6 1.8)
		(drill 1)
		(layers "*.Cu" "*.Mask")
		(remove_unused_layers no)
		(uuid "b04bcf63-0d4b-4f3a-bd85-219e5d6a6180")
	)
	(pad "7" thru_hole oval
		(at 0 15.24 270)
		(size 1.6 1.8)
		(drill 1)
		(layers "*.Cu" "*.Mask")
		(remove_unused_layers no)
		(uuid "59cda3e5-fffb-42aa-8160-540a945c1751")
	)
	(pad "8" thru_hole oval
		(at 0 17.78 270)
		(size 1.6 1.8)
		(drill 1)
		(layers "*.Cu" "*.Mask")
		(remove_unused_layers no)
		(uuid "2f103f70-9b71-4366-8a87-8005e98c4550")
	)
	(pad "9" thru_hole oval
		(at 0 20.32 270)
		(size 1.6 1.8)
		(drill 1)
		(layers "*.Cu" "*.Mask")
		(remove_unused_layers no)
		(uuid "1024a8a7-f835-4bc8-b8a5-24533e326d15")
	)
	(pad "10" thru_hole oval
		(at 0 22.86 270)
		(size 1.6 1.8)
		(drill 1)
		(layers "*.Cu" "*.Mask")
		(remove_unused_layers no)
		(uuid "90de1ca6-b137-4d44-99e5-a6ec423bdf29")
	)
	(pad "11" thru_hole oval
		(at 0 25.4 270)
		(size 1.6 1.8)
		(drill 1)
		(layers "*.Cu" "*.Mask")
		(remove_unused_layers no)
		(uuid "3a8e8bdc-3c9c-473b-bc44-c8f1474a13a3")
	)
	(pad "12" thru_hole oval
		(at 0 27.94 270)
		(size 1.6 1.8)
		(drill 1)
		(layers "*.Cu" "*.Mask")
		(remove_unused_layers no)
		(uuid "bfd8243d-a5e6-4074-a40b-08fb74bb802c")
	)
	(pad "13" thru_hole oval
		(at 15.24 27.94 270)
		(size 1.6 1.8)
		(drill 1)
		(layers "*.Cu" "*.Mask")
		(remove_unused_layers no)
		(uuid "c522e87a-e9b3-49c5-99fc-bc40de5ac07c")
	)
	(pad "14" thru_hole oval
		(at 15.24 25.4 270)
		(size 1.6 1.8)
		(drill 1)
		(layers "*.Cu" "*.Mask")
		(remove_unused_layers no)
		(uuid "cfac1b4a-c373-4bb7-becd-7719db7d76a6")
	)
	(pad "15" thru_hole oval
		(at 15.24 22.86 270)
		(size 1.6 1.8)
		(drill 1)
		(layers "*.Cu" "*.Mask")
		(remove_unused_layers no)
		(uuid "6f8bcc6f-d077-4cce-90fa-9012f2ba80e7")
	)
	(pad "16" thru_hole oval
		(at 15.24 20.32 270)
		(size 1.6 1.8)
		(drill 1)
		(layers "*.Cu" "*.Mask")
		(remove_unused_layers no)
		(uuid "48b9fe57-eba4-49d4-bf04-ef978c34bdc1")
	)
	(pad "17" thru_hole oval
		(at 12.319 21.717 270)
		(size 1.6 1.8)
		(drill 1)
		(layers "*.Cu" "*.Mask")
		(remove_unused_layers no)
		(uuid "08a737cf-857c-4cf1-b083-f8149623981a")
	)
	(pad "18" thru_hole oval
		(at 12.319 19.177 270)
		(size 1.6 1.8)
		(drill 1)
		(layers "*.Cu" "*.Mask")
		(remove_unused_layers no)
		(uuid "e15cb920-731c-458b-accd-f72e317e659a")
	)
	(pad "19" thru_hole oval
		(at 15.24 17.78 270)
		(size 1.6 1.8)
		(drill 1)
		(layers "*.Cu" "*.Mask")
		(remove_unused_layers no)
		(uuid "f6536c79-df28-4f07-90c7-094d4a96ef9a")
	)
	(pad "20" thru_hole oval
		(at 15.24 15.24 270)
		(size 1.6 1.8)
		(drill 1)
		(layers "*.Cu" "*.Mask")
		(remove_unused_layers no)
		(uuid "5a94b5db-9c09-4c8c-aa73-bd76f14015d0")
	)
	(pad "21" thru_hole oval
		(at 15.24 12.7 270)
		(size 1.6 1.8)
		(drill 1)
		(layers "*.Cu" "*.Mask")
		(remove_unused_layers no)
		(uuid "6a8e0908-7e09-4ed4-b11c-b3ad11cb6e12")
	)
	(pad "22" thru_hole oval
		(at 15.24 10.16 270)
		(size 1.6 1.8)
		(drill 1)
		(layers "*.Cu" "*.Mask")
		(remove_unused_layers no)
		(uuid "ea615bb7-6f19-4b29-a735-073952005730")
	)
	(pad "23" thru_hole oval
		(at 12.319 11.303 270)
		(size 1.6 1.8)
		(drill 1)
		(layers "*.Cu" "*.Mask")
		(remove_unused_layers no)
		(uuid "3e6c6d8b-d8f4-4bf4-9ea2-19d5ba5707ca")
	)
	(pad "24" thru_hole oval
		(at 12.319 8.763 270)
		(size 1.6 1.8)
		(drill 1)
		(layers "*.Cu" "*.Mask")
		(remove_unused_layers no)
		(uuid "52491f92-2bbd-4725-8d1b-c7b9090750d3")
	)
	(pad "25" thru_hole oval
		(at 15.24 7.62 270)
		(size 1.6 1.8)
		(drill 1)
		(layers "*.Cu" "*.Mask")
		(remove_unused_layers no)
		(uuid "f1619e78-8b04-46df-829b-685f8514aed5")
	)
	(pad "26" thru_hole oval
		(at 15.24 5.08 270)
		(size 1.6 1.8)
		(drill 1)
		(layers "*.Cu" "*.Mask")
		(remove_unused_layers no)
		(uuid "84a94ba1-d83a-4901-bd15-802424662669")
	)
	(pad "27" thru_hole oval
		(at 15.24 2.54 270)
		(size 1.6 1.8)
		(drill 1)
		(layers "*.Cu" "*.Mask")
		(remove_unused_layers no)
		(uuid "ee843331-6b2e-429b-9a96-6a31f146446b")
	)
	(pad "28" thru_hole oval
		(at 15.24 0 270)
		(size 1.6 1.8)
		(drill 1)
		(layers "*.Cu" "*.Mask")
		(remove_unused_layers no)
		(uuid "c7f66708-3a9f-453a-bd86-5b9d872bac08")
	)
	(model "${LSF_KICAD_LIB}/lsf-kicad-lib.3dshapes/Arduino_Pro_Mini_328.wrl"
		(offset
			(xyz 0 0 0)
		)
		(scale
			(xyz 1 1 1)
		)
		(rotate
			(xyz 0 0 0)
		)
	)
)
