(footprint "BGA-96_8.0x14.0mm_Layout2x3x16_P0.8mm" (version 20211014) (generator pcbnew)
  (layer "F.Cu")
  (tedit 61E821A2)
  (descr "BGA-96, http://www.mouser.com/ds/2/198/43-46TR16640B-81280BL-706483.pdf")
  (tags "BGA-96")
  (attr smd)
  (fp_text reference "REF**" (at 0 -9.05) (layer "F.SilkS")
    (effects (font (size 1 1) (thickness 0.15)))
    (tstamp 50612e1f-5c68-4000-938f-007ff6cf57c2)
  )
  (fp_text value "BGA-96_8.0x14.0mm_Layout2x3x16_P0.8mm" (at 0 8.9) (layer "F.Fab")
    (effects (font (size 1 1) (thickness 0.15)))
    (tstamp 6c0b53bc-9671-43f6-b9f3-75037520f602)
  )
  (fp_text user "${REFERENCE}" (at 0 0) (layer "F.Fab")
    (effects (font (size 1 1) (thickness 0.15)))
    (tstamp 4b189088-af04-4d26-96d5-4abe168d14e2)
  )
  (fp_line (start 4.6 -7.1) (end -4.6 -7.1) (layer "F.SilkS") (width 0.12) (tstamp 0ab9f6a7-82f2-4bec-8d16-09309b36b01d))
  (fp_line (start -4.8 -7.3) (end -4.8 -6.6) (layer "F.SilkS") (width 0.12) (tstamp 1a405498-426e-4dde-9907-dc1626bae137))
  (fp_line (start 4.6 7.1) (end 4.6 -7.1) (layer "F.SilkS") (width 0.12) (tstamp 2c131403-8763-406b-ae85-87eeda6a6a43))
  (fp_line (start -4.1 -7.3) (end -4.8 -7.3) (layer "F.SilkS") (width 0.12) (tstamp 3511dfd9-45f8-4391-9a0e-8ea36a39b35c))
  (fp_line (start -4.6 7.1) (end 4.6 7.1) (layer "F.SilkS") (width 0.12) (tstamp 46df35db-30fb-4b2e-b6c2-5989553ec683))
  (fp_line (start -4.6 -7.1) (end -4.6 7.1) (layer "F.SilkS") (width 0.12) (tstamp f13d92ba-fe19-4a01-8903-c611a47a7fee))
  (fp_line (start -5.5 -8) (end -5.5 8) (layer "F.CrtYd") (width 0.05) (tstamp 01ef8742-6977-4f0e-847b-def53754a17d))
  (fp_line (start -5.5 -8) (end 5.5 -8) (layer "F.CrtYd") (width 0.05) (tstamp 17ac1064-741d-430c-9556-99cab6472bcb))
  (fp_line (start 5.5 8) (end -5.5 8) (layer "F.CrtYd") (width 0.05) (tstamp 34bc52b3-b871-453c-9d6e-f370db673bf1))
  (fp_line (start 5.5 8) (end 5.5 -8) (layer "F.CrtYd") (width 0.05) (tstamp 957c1b7f-c1ac-426b-9e73-a9c8375a89a0))
  (fp_line (start 4.5 -7) (end -4 -7) (layer "F.Fab") (width 0.1) (tstamp 1cc3d5ea-5bb9-487c-8d0e-ea91dc49888c))
  (fp_line (start -4.5 -6.5) (end -4.5 7) (layer "F.Fab") (width 0.1) (tstamp 4b2b3207-4dda-4b83-a11b-55b92242cef3))
  (fp_line (start -4 -7) (end -4.5 -6.5) (layer "F.Fab") (width 0.1) (tstamp 62c23210-7c6c-4d16-b1e5-c76d3758ca9f))
  (fp_line (start 4.5 7) (end 4.5 -7) (layer "F.Fab") (width 0.1) (tstamp 75041761-b776-4355-86b4-da1217079183))
  (fp_line (start -4.5 7) (end 4.5 7) (layer "F.Fab") (width 0.1) (tstamp eee00be4-370e-4d75-81a4-9e77b7c81bda))
  (pad "A1" smd circle (at -3.2 -6) (size 0.4 0.4) (layers "F.Cu" "F.Paste" "F.Mask") (tstamp b9f86325-013e-4ebb-b66a-7516dc966740))
  (pad "A2" smd circle (at -2.4 -6) (size 0.4 0.4) (layers "F.Cu" "F.Paste" "F.Mask") (tstamp ab0d200b-dbf0-44b1-9a66-158323360093))
  (pad "A3" smd circle (at -1.6 -6) (size 0.4 0.4) (layers "F.Cu" "F.Paste" "F.Mask") (tstamp 1440c710-b7fd-4aac-af2a-747084d8fd9b))
  (pad "A7" smd circle (at 1.6 -6) (size 0.4 0.4) (layers "F.Cu" "F.Paste" "F.Mask") (tstamp 69a92a7b-87f0-43b0-b2b1-a306fade6afb))
  (pad "A8" smd circle (at 2.4 -6) (size 0.4 0.4) (layers "F.Cu" "F.Paste" "F.Mask") (tstamp 24ff28e6-60fa-4b15-a45e-49083a7bee54))
  (pad "A9" smd circle (at 3.2 -6) (size 0.4 0.4) (layers "F.Cu" "F.Paste" "F.Mask") (tstamp d776f49c-a8e2-4ca3-a918-1e27544661c8))
  (pad "B1" smd circle (at -3.2 -5.2) (size 0.4 0.4) (layers "F.Cu" "F.Paste" "F.Mask") (tstamp e9ad7c62-46e4-45d0-b70c-efd7732c8305))
  (pad "B2" smd circle (at -2.4 -5.2) (size 0.4 0.4) (layers "F.Cu" "F.Paste" "F.Mask") (tstamp 9db6e744-bb99-4d56-9dd3-31bbf7a6d0a3))
  (pad "B3" smd circle (at -1.6 -5.2) (size 0.4 0.4) (layers "F.Cu" "F.Paste" "F.Mask") (tstamp 307ffb6d-32d3-4040-8f47-179f7005a908))
  (pad "B7" smd circle (at 1.6 -5.2) (size 0.4 0.4) (layers "F.Cu" "F.Paste" "F.Mask") (tstamp 759f4073-c393-442f-9148-2eb1c845a2b7))
  (pad "B8" smd circle (at 2.4 -5.2) (size 0.4 0.4) (layers "F.Cu" "F.Paste" "F.Mask") (tstamp 9d9c49be-7d77-46f8-ae8a-62de3f2b3265))
  (pad "B9" smd circle (at 3.2 -5.2) (size 0.4 0.4) (layers "F.Cu" "F.Paste" "F.Mask") (tstamp b43a76e4-d412-43c6-b2e4-cd770a3a169f))
  (pad "C1" smd circle (at -3.2 -4.4) (size 0.4 0.4) (layers "F.Cu" "F.Paste" "F.Mask") (tstamp def11517-b0a8-4858-94bf-bb424ee5babd))
  (pad "C2" smd circle (at -2.4 -4.4) (size 0.4 0.4) (layers "F.Cu" "F.Paste" "F.Mask") (tstamp 0439955b-7593-4a29-a95e-933825982c8c))
  (pad "C3" smd circle (at -1.6 -4.4) (size 0.4 0.4) (layers "F.Cu" "F.Paste" "F.Mask") (tstamp b4a6b940-66e5-4150-8801-1de9bdfee0a1))
  (pad "C7" smd circle (at 1.6 -4.4) (size 0.4 0.4) (layers "F.Cu" "F.Paste" "F.Mask") (tstamp 9b500ce3-be79-4163-b2ee-8638d911c7a8))
  (pad "C8" smd circle (at 2.4 -4.4) (size 0.4 0.4) (layers "F.Cu" "F.Paste" "F.Mask") (tstamp a4df4d87-d1f6-4c99-a265-f160ef4da2d8))
  (pad "C9" smd circle (at 3.2 -4.4) (size 0.4 0.4) (layers "F.Cu" "F.Paste" "F.Mask") (tstamp 9801e888-e05b-41f8-8df5-efdbab0bc59b))
  (pad "D1" smd circle (at -3.2 -3.6) (size 0.4 0.4) (layers "F.Cu" "F.Paste" "F.Mask") (tstamp 225957a2-3991-423b-a37e-70480d725404))
  (pad "D2" smd circle (at -2.4 -3.6) (size 0.4 0.4) (layers "F.Cu" "F.Paste" "F.Mask") (tstamp ef291999-77c3-418f-b29e-48eddb367bbb))
  (pad "D3" smd circle (at -1.6 -3.6) (size 0.4 0.4) (layers "F.Cu" "F.Paste" "F.Mask") (tstamp 02402090-ebab-4bbd-9e26-29d384883d26))
  (pad "D7" smd circle (at 1.6 -3.6) (size 0.4 0.4) (layers "F.Cu" "F.Paste" "F.Mask") (tstamp 6f8e7716-166e-4527-baa7-59b5d99313f4))
  (pad "D8" smd circle (at 2.4 -3.6) (size 0.4 0.4) (layers "F.Cu" "F.Paste" "F.Mask") (tstamp 1e6dcc5c-5d38-4bce-8979-6b401d7186ef))
  (pad "D9" smd circle (at 3.2 -3.6) (size 0.4 0.4) (layers "F.Cu" "F.Paste" "F.Mask") (tstamp bf3c8eb6-e714-4ae8-8670-e40c048b9b11))
  (pad "E1" smd circle (at -3.2 -2.8) (size 0.4 0.4) (layers "F.Cu" "F.Paste" "F.Mask") (tstamp 0d4435fe-92df-4be2-9fff-6b2a227d8459))
  (pad "E2" smd circle (at -2.4 -2.8) (size 0.4 0.4) (layers "F.Cu" "F.Paste" "F.Mask") (tstamp 52ff487e-fbf2-46a5-89d2-2bb97f3c4f68))
  (pad "E3" smd circle (at -1.6 -2.8) (size 0.4 0.4) (layers "F.Cu" "F.Paste" "F.Mask") (tstamp 36b81a25-2346-4c75-9d37-b940299219af))
  (pad "E7" smd circle (at 1.6 -2.8) (size 0.4 0.4) (layers "F.Cu" "F.Paste" "F.Mask") (tstamp 232843b7-97ec-4a56-8f3c-3bb637a51316))
  (pad "E8" smd circle (at 2.4 -2.8) (size 0.4 0.4) (layers "F.Cu" "F.Paste" "F.Mask") (tstamp d2e63397-ef06-48bd-861a-e50f84e4680e))
  (pad "E9" smd circle (at 3.2 -2.8) (size 0.4 0.4) (layers "F.Cu" "F.Paste" "F.Mask") (tstamp 06386d38-2bb2-4aeb-9f00-9e4a18c3cbe6))
  (pad "F1" smd circle (at -3.2 -2) (size 0.4 0.4) (layers "F.Cu" "F.Paste" "F.Mask") (tstamp 64082c13-f49a-4aa7-98cd-b6fd41fffc0c))
  (pad "F2" smd circle (at -2.4 -2) (size 0.4 0.4) (layers "F.Cu" "F.Paste" "F.Mask") (tstamp 1ee5d9ef-18df-4c64-b102-1484b8c0deb7))
  (pad "F3" smd circle (at -1.6 -2) (size 0.4 0.4) (layers "F.Cu" "F.Paste" "F.Mask") (tstamp 118ab684-dee6-4706-bbdf-bb686c99cfda))
  (pad "F7" smd circle (at 1.6 -2) (size 0.4 0.4) (layers "F.Cu" "F.Paste" "F.Mask") (tstamp 9ab83243-7bab-4338-adcd-619af5b8f390))
  (pad "F8" smd circle (at 2.4 -2) (size 0.4 0.4) (layers "F.Cu" "F.Paste" "F.Mask") (tstamp aab248f4-6cf2-4264-84d9-db6c49dbd3bd))
  (pad "F9" smd circle (at 3.2 -2) (size 0.4 0.4) (layers "F.Cu" "F.Paste" "F.Mask") (tstamp 5532a43b-95f2-4dda-bb86-f11bb6843258))
  (pad "G1" smd circle (at -3.2 -1.2) (size 0.4 0.4) (layers "F.Cu" "F.Paste" "F.Mask") (tstamp f047178a-e157-468c-8ec7-2421e9d57e27))
  (pad "G2" smd circle (at -2.4 -1.2) (size 0.4 0.4) (layers "F.Cu" "F.Paste" "F.Mask") (tstamp 891c991e-8ac4-4727-a729-bb9524aeabb3))
  (pad "G3" smd circle (at -1.6 -1.2) (size 0.4 0.4) (layers "F.Cu" "F.Paste" "F.Mask") (tstamp 44415eb0-344b-47c7-bb52-3b9628dec307))
  (pad "G7" smd circle (at 1.6 -1.2) (size 0.4 0.4) (layers "F.Cu" "F.Paste" "F.Mask") (tstamp dd2e9a58-85ea-4130-90ce-713920d3f62f))
  (pad "G8" smd circle (at 2.4 -1.2) (size 0.4 0.4) (layers "F.Cu" "F.Paste" "F.Mask") (tstamp 2734ac95-9a6d-48ba-bf74-5d35339a7c45))
  (pad "G9" smd circle (at 3.2 -1.2) (size 0.4 0.4) (layers "F.Cu" "F.Paste" "F.Mask") (tstamp 93c0b0a6-a354-4f7c-b05e-7a76d1b2d17f))
  (pad "H1" smd circle (at -3.2 -0.4) (size 0.4 0.4) (layers "F.Cu" "F.Paste" "F.Mask") (tstamp 10678030-a3dd-4c15-9302-7cc9e3ee0932))
  (pad "H2" smd circle (at -2.4 -0.4) (size 0.4 0.4) (layers "F.Cu" "F.Paste" "F.Mask") (tstamp 133aff07-6465-4a43-b7f5-5f916198aa79))
  (pad "H3" smd circle (at -1.6 -0.4) (size 0.4 0.4) (layers "F.Cu" "F.Paste" "F.Mask") (tstamp 3ad9e242-3293-49dd-9a86-c609234e3bcf))
  (pad "H7" smd circle (at 1.6 -0.4) (size 0.4 0.4) (layers "F.Cu" "F.Paste" "F.Mask") (tstamp 20a5147f-991d-4cad-a899-76566da2d775))
  (pad "H8" smd circle (at 2.4 -0.4) (size 0.4 0.4) (layers "F.Cu" "F.Paste" "F.Mask") (tstamp 47d94586-f33d-448b-92d9-94c551635b41))
  (pad "H9" smd circle (at 3.2 -0.4) (size 0.4 0.4) (layers "F.Cu" "F.Paste" "F.Mask") (tstamp ed3a3347-cc18-489d-842b-532818fe119b))
  (pad "J1" smd circle (at -3.2 0.4) (size 0.4 0.4) (layers "F.Cu" "F.Paste" "F.Mask") (tstamp 773b65fa-ec59-4408-b17a-69f1aa8f9add))
  (pad "J2" smd circle (at -2.4 0.4) (size 0.4 0.4) (layers "F.Cu" "F.Paste" "F.Mask") (tstamp 6ee8ec86-7b7c-4d46-8410-79dc520e47e4))
  (pad "J3" smd circle (at -1.6 0.4) (size 0.4 0.4) (layers "F.Cu" "F.Paste" "F.Mask") (tstamp facc24cf-eaf8-40ef-8137-e90d18b4d70b))
  (pad "J7" smd circle (at 1.6 0.4) (size 0.4 0.4) (layers "F.Cu" "F.Paste" "F.Mask") (tstamp 09155cf2-7c75-41f0-97b4-543876ebb677))
  (pad "J8" smd circle (at 2.4 0.4) (size 0.4 0.4) (layers "F.Cu" "F.Paste" "F.Mask") (tstamp b7fecd0a-4702-4ac9-858a-61ccd46ad798))
  (pad "J9" smd circle (at 3.2 0.4) (size 0.4 0.4) (layers "F.Cu" "F.Paste" "F.Mask") (tstamp 9fac9197-d34b-4f6a-be1b-29ef3d4edd30))
  (pad "K1" smd circle (at -3.2 1.2) (size 0.4 0.4) (layers "F.Cu" "F.Paste" "F.Mask") (tstamp 309b9f16-c567-43e5-a593-11d3e2540564))
  (pad "K2" smd circle (at -2.4 1.2) (size 0.4 0.4) (layers "F.Cu" "F.Paste" "F.Mask") (tstamp f16ab85d-0588-477b-a03d-c519c283bb8d))
  (pad "K3" smd circle (at -1.6 1.2) (size 0.4 0.4) (layers "F.Cu" "F.Paste" "F.Mask") (tstamp 393a2229-0ca2-4671-b780-0b22847f937a))
  (pad "K7" smd circle (at 1.6 1.2) (size 0.4 0.4) (layers "F.Cu" "F.Paste" "F.Mask") (tstamp eb5fbbb6-bdf2-4799-b51c-5428ad1be892))
  (pad "K8" smd circle (at 2.4 1.2) (size 0.4 0.4) (layers "F.Cu" "F.Paste" "F.Mask") (tstamp 0ff92981-413d-4ec7-aa70-6fc7bd4f9084))
  (pad "K9" smd circle (at 3.2 1.2) (size 0.4 0.4) (layers "F.Cu" "F.Paste" "F.Mask") (tstamp 68af23fe-54c5-4e85-bc40-36609b901432))
  (pad "L1" smd circle (at -3.2 2) (size 0.4 0.4) (layers "F.Cu" "F.Paste" "F.Mask") (tstamp 6caf8810-a072-402e-a510-5c757a07b690))
  (pad "L2" smd circle (at -2.4 2) (size 0.4 0.4) (layers "F.Cu" "F.Paste" "F.Mask") (tstamp c07456ee-c818-4b8c-96cf-4cdb1910785e))
  (pad "L3" smd circle (at -1.6 2) (size 0.4 0.4) (layers "F.Cu" "F.Paste" "F.Mask") (tstamp ed9778bd-5adf-4788-b112-866943f1a29f))
  (pad "L7" smd circle (at 1.6 2) (size 0.4 0.4) (layers "F.Cu" "F.Paste" "F.Mask") (tstamp 5ed97d5a-ac0a-4372-b5a5-8d42a437b3b6))
  (pad "L8" smd circle (at 2.4 2) (size 0.4 0.4) (layers "F.Cu" "F.Paste" "F.Mask") (tstamp fd04fa76-d45d-45fe-99c9-dccf0ad88516))
  (pad "L9" smd circle (at 3.2 2) (size 0.4 0.4) (layers "F.Cu" "F.Paste" "F.Mask") (tstamp f062a2b6-b8ab-4b54-8cf4-ac6a47445a89))
  (pad "M1" smd circle (at -3.2 2.8) (size 0.4 0.4) (layers "F.Cu" "F.Paste" "F.Mask") (tstamp cdfe2e84-31fe-428e-8b82-078c14de2bf1))
  (pad "M2" smd circle (at -2.4 2.8) (size 0.4 0.4) (layers "F.Cu" "F.Paste" "F.Mask") (tstamp c5da560e-4b56-4f39-b196-3c4d3962c38d))
  (pad "M3" smd circle (at -1.6 2.8) (size 0.4 0.4) (layers "F.Cu" "F.Paste" "F.Mask") (tstamp d3234bee-c083-4021-9a46-ed367c42a8cb))
  (pad "M7" smd circle (at 1.6 2.8) (size 0.4 0.4) (layers "F.Cu" "F.Paste" "F.Mask") (tstamp 49907ab9-0e59-4f2c-9360-a9bd477707dd))
  (pad "M8" smd circle (at 2.4 2.8) (size 0.4 0.4) (layers "F.Cu" "F.Paste" "F.Mask") (tstamp 0d358abb-029c-41d7-a924-7cff55f1b5ce))
  (pad "M9" smd circle (at 3.2 2.8) (size 0.4 0.4) (layers "F.Cu" "F.Paste" "F.Mask") (tstamp 76360c3d-bb06-4fb3-bd06-9966bd65e336))
  (pad "N1" smd circle (at -3.2 3.6) (size 0.4 0.4) (layers "F.Cu" "F.Paste" "F.Mask") (tstamp 77a6ed88-d76e-4917-b8a5-48656ce0fac9))
  (pad "N2" smd circle (at -2.4 3.6) (size 0.4 0.4) (layers "F.Cu" "F.Paste" "F.Mask") (tstamp 7897c90b-bf71-45fd-a2c1-cbe3d2b68938))
  (pad "N3" smd circle (at -1.6 3.6) (size 0.4 0.4) (layers "F.Cu" "F.Paste" "F.Mask") (tstamp c54f8968-3366-4c62-b39a-82544da9c4df))
  (pad "N7" smd circle (at 1.6 3.6) (size 0.4 0.4) (layers "F.Cu" "F.Paste" "F.Mask") (tstamp 14b46b43-9a01-4170-b413-652ee50625c5))
  (pad "N8" smd circle (at 2.4 3.6) (size 0.4 0.4) (layers "F.Cu" "F.Paste" "F.Mask") (tstamp 71adf2d7-a06e-48d0-b484-f3d786938d44))
  (pad "N9" smd circle (at 3.2 3.6) (size 0.4 0.4) (layers "F.Cu" "F.Paste" "F.Mask") (tstamp b92411c5-8bb1-434b-a678-1f573ffd136a))
  (pad "P1" smd circle (at -3.2 4.4) (size 0.4 0.4) (layers "F.Cu" "F.Paste" "F.Mask") (tstamp 5b1342b5-00a2-436f-949c-0cd862d0b96a))
  (pad "P2" smd circle (at -2.4 4.4) (size 0.4 0.4) (layers "F.Cu" "F.Paste" "F.Mask") (tstamp c6298d7c-a9db-4165-8b99-2ecad1606849))
  (pad "P3" smd circle (at -1.6 4.4) (size 0.4 0.4) (layers "F.Cu" "F.Paste" "F.Mask") (tstamp 7fb76cad-1bb2-4ac0-8566-3f4097fe2d4e))
  (pad "P7" smd circle (at 1.6 4.4) (size 0.4 0.4) (layers "F.Cu" "F.Paste" "F.Mask") (tstamp c9dc1e1d-e6b9-4ec0-8a2c-633ec47967e8))
  (pad "P8" smd circle (at 2.4 4.4) (size 0.4 0.4) (layers "F.Cu" "F.Paste" "F.Mask") (tstamp 4b703aed-2186-40f5-affd-15ead885e548))
  (pad "P9" smd circle (at 3.2 4.4) (size 0.4 0.4) (layers "F.Cu" "F.Paste" "F.Mask") (tstamp f1339ffc-7901-4e56-83d7-60d6013c027d))
  (pad "R1" smd circle (at -3.2 5.2) (size 0.4 0.4) (layers "F.Cu" "F.Paste" "F.Mask") (tstamp e5751b2c-63c1-486c-9166-c07e4812d254))
  (pad "R2" smd circle (at -2.4 5.2) (size 0.4 0.4) (layers "F.Cu" "F.Paste" "F.Mask") (tstamp c841833c-f4ec-4b63-8e03-97b65a202a81))
  (pad "R3" smd circle (at -1.6 5.2) (size 0.4 0.4) (layers "F.Cu" "F.Paste" "F.Mask") (tstamp 951b5af6-5a05-4629-920b-83ca6955b37d))
  (pad "R7" smd circle (at 1.6 5.2) (size 0.4 0.4) (layers "F.Cu" "F.Paste" "F.Mask") (tstamp cd4edb03-233f-44a6-b71a-e17f8a584840))
  (pad "R8" smd circle (at 2.4 5.2) (size 0.4 0.4) (layers "F.Cu" "F.Paste" "F.Mask") (tstamp e76f5c68-e748-40bc-8870-99983437d242))
  (pad "R9" smd circle (at 3.2 5.2) (size 0.4 0.4) (layers "F.Cu" "F.Paste" "F.Mask") (tstamp 323d2573-cea7-4fd0-8734-1ae808acd0e3))
  (pad "T1" smd circle (at -3.2 6) (size 0.4 0.4) (layers "F.Cu" "F.Paste" "F.Mask") (tstamp 6a2af03e-e63f-4297-afe6-cfdce01e5944))
  (pad "T2" smd circle (at -2.4 6) (size 0.4 0.4) (layers "F.Cu" "F.Paste" "F.Mask") (tstamp 1ff9758a-bc3d-4faf-bbb9-4b619fec93cd))
  (pad "T3" smd circle (at -1.6 6) (size 0.4 0.4) (layers "F.Cu" "F.Paste" "F.Mask") (tstamp 684d94ba-d809-4a38-8b7e-4570e40f0398))
  (pad "T7" smd circle (at 1.6 6) (size 0.4 0.4) (layers "F.Cu" "F.Paste" "F.Mask") (tstamp eaaeaa06-590e-401e-b30c-8fe8606c291f))
  (pad "T8" smd circle (at 2.4 6) (size 0.4 0.4) (layers "F.Cu" "F.Paste" "F.Mask") (tstamp 88e8aaa1-47f6-40e5-bfae-552d648c61c8))
  (pad "T9" smd circle (at 3.2 6) (size 0.4 0.4) (layers "F.Cu" "F.Paste" "F.Mask") (tstamp 80997b6c-09f3-49a2-b968-54cfa7cd5e52))
  (model "${LSF_KICAD_LIB}/lsf-kicad-lib.3dshapes/BGA-96_8.0x14.0mm_Layout2x3x16_P0.8mm.wrl"
    (offset (xyz 0 0 0))
    (scale (xyz 1 1 1))
    (rotate (xyz 0 0 0))
  )
)
