(footprint "Bosch_LGA-20_4.5x3.0mm_P0.5mm"
	(version 20240108)
	(generator "pcbnew")
	(generator_version "8.0")
	(layer "F.Cu")
	(descr "Bosch LGA-20, https://www.bosch-sensortec.com/media/boschsensortec/downloads/datasheets/bst-bmx055-ds000.pdf")
	(tags "IMU 9DoF")
	(property "Reference" "REF**"
		(at -0.46 -3.5 0)
		(layer "F.SilkS")
		(uuid "4f81fe48-bdf5-426e-a776-c7e83698f627")
		(effects
			(font
				(size 1 1)
				(thickness 0.15)
			)
		)
	)
	(property "Value" "Bosch_LGA-20_4.5x3.0mm_P0.5mm"
		(at 0.178 3.265 0)
		(layer "F.Fab")
		(uuid "9fec12ac-a6c1-4f10-bd7c-589ff173194c")
		(effects
			(font
				(size 1 1)
				(thickness 0.15)
			)
		)
	)
	(property "Footprint" ""
		(at 0 0 0)
		(layer "F.Fab")
		(hide yes)
		(uuid "e71c63ab-939b-4323-9a8d-eb4e0d0b5dc9")
		(effects
			(font
				(size 1.27 1.27)
				(thickness 0.15)
			)
		)
	)
	(property "Datasheet" ""
		(at 0 0 0)
		(layer "F.Fab")
		(hide yes)
		(uuid "c71d3284-9389-4884-89cd-c8c080792db7")
		(effects
			(font
				(size 1.27 1.27)
				(thickness 0.15)
			)
		)
	)
	(property "Description" ""
		(at 0 0 0)
		(layer "F.Fab")
		(hide yes)
		(uuid "03ca198f-7056-4a97-a008-10abf29fad00")
		(effects
			(font
				(size 1.27 1.27)
				(thickness 0.15)
			)
		)
	)
	(attr smd)
	(fp_line
		(start -2.28 -1.53)
		(end -1.79 -1.53)
		(stroke
			(width 0.12)
			(type solid)
		)
		(layer "F.SilkS")
		(uuid "b5df4377-12df-4fd0-bef7-013a32263c72")
	)
	(fp_line
		(start -2.28 -0.82)
		(end -2.28 -1.53)
		(stroke
			(width 0.12)
			(type solid)
		)
		(layer "F.SilkS")
		(uuid "73b7a52e-1484-4c0b-a0c7-98aed9802feb")
	)
	(fp_line
		(start -2.28 1.53)
		(end -2.28 1.18)
		(stroke
			(width 0.12)
			(type solid)
		)
		(layer "F.SilkS")
		(uuid "03c8a088-f22a-4008-941f-b1ecec1bd671")
	)
	(fp_line
		(start -2 1.53)
		(end -2.28 1.53)
		(stroke
			(width 0.12)
			(type solid)
		)
		(layer "F.SilkS")
		(uuid "9763de8d-0f81-4d24-870b-fc6611878a95")
	)
	(fp_line
		(start 2.28 -1.53)
		(end 2 -1.53)
		(stroke
			(width 0.12)
			(type solid)
		)
		(layer "F.SilkS")
		(uuid "be009a91-8829-4f08-a69b-65c12fb7af35")
	)
	(fp_line
		(start 2.28 -1.18)
		(end 2.28 -1.53)
		(stroke
			(width 0.12)
			(type solid)
		)
		(layer "F.SilkS")
		(uuid "2c4c3d85-8e5a-40de-8836-a4d0139f4029")
	)
	(fp_line
		(start 2.28 1.18)
		(end 2.28 1.53)
		(stroke
			(width 0.12)
			(type solid)
		)
		(layer "F.SilkS")
		(uuid "f2d5bba2-4e45-412d-b0be-a4b58c7ba757")
	)
	(fp_line
		(start 2.28 1.53)
		(end 2 1.53)
		(stroke
			(width 0.12)
			(type solid)
		)
		(layer "F.SilkS")
		(uuid "2fcd8235-e6bf-4f49-82ac-7dec6129c683")
	)
	(fp_line
		(start -2.4 -1.6)
		(end 2.4 -1.6)
		(stroke
			(width 0.05)
			(type solid)
		)
		(layer "F.CrtYd")
		(uuid "88ffe3d3-aa24-415d-90bf-1480583165b4")
	)
	(fp_line
		(start -2.4 1.6)
		(end -2.4 -1.6)
		(stroke
			(width 0.05)
			(type solid)
		)
		(layer "F.CrtYd")
		(uuid "282ace7b-4d92-4870-8f7f-301e305fcaef")
	)
	(fp_line
		(start 2.4 -1.6)
		(end 2.4 1.6)
		(stroke
			(width 0.05)
			(type solid)
		)
		(layer "F.CrtYd")
		(uuid "8b0a9dd7-a953-4b69-b08b-7c3519d04fe8")
	)
	(fp_line
		(start 2.4 1.6)
		(end -2.4 1.6)
		(stroke
			(width 0.05)
			(type solid)
		)
		(layer "F.CrtYd")
		(uuid "2d128ecf-c68b-4df6-aa6b-2f1c5ad3ca77")
	)
	(fp_line
		(start -2.25 -1.5)
		(end 2.25 -1.5)
		(stroke
			(width 0.1)
			(type solid)
		)
		(layer "F.Fab")
		(uuid "1825f961-838d-47e9-96fe-b9091176dd10")
	)
	(fp_line
		(start -2.25 1.5)
		(end -2.25 -1.5)
		(stroke
			(width 0.1)
			(type solid)
		)
		(layer "F.Fab")
		(uuid "de542628-6495-4fdd-af4d-3d2758c66e5d")
	)
	(fp_line
		(start -2.25 1.5)
		(end 2.25 1.5)
		(stroke
			(width 0.1)
			(type solid)
		)
		(layer "F.Fab")
		(uuid "86781be3-e0f2-4f1e-bfe6-c941537bb5ea")
	)
	(fp_line
		(start 2.25 -1.5)
		(end 2.25 1.5)
		(stroke
			(width 0.1)
			(type solid)
		)
		(layer "F.Fab")
		(uuid "2925f791-62cb-450e-8fad-1e080fdc9cd7")
	)
	(fp_text user "${REFERENCE}"
		(at -0.46 -3.5 0)
		(layer "F.Fab")
		(uuid "7304a468-ecef-48c4-9e21-61b740d5afdc")
		(effects
			(font
				(size 1 1)
				(thickness 0.15)
			)
		)
	)
	(pad "1" smd rect
		(at -1.5 -1.2625 270)
		(size 0.675 0.25)
		(layers "F.Cu" "F.Paste" "F.Mask")
		(uuid "c4e257da-be5f-4509-b8c2-e9aeb146088d")
	)
	(pad "2" smd rect
		(at -1 -1.2625 270)
		(size 0.675 0.25)
		(layers "F.Cu" "F.Paste" "F.Mask")
		(uuid "c2707c14-f18c-46c5-a8e1-7061ea7bd7f4")
	)
	(pad "3" smd rect
		(at -0.5 -1.2625 270)
		(size 0.675 0.25)
		(layers "F.Cu" "F.Paste" "F.Mask")
		(uuid "5ce4de37-2105-4382-9ea0-2fb824a296c2")
	)
	(pad "4" smd rect
		(at 0 -1.2625 270)
		(size 0.675 0.25)
		(layers "F.Cu" "F.Paste" "F.Mask")
		(uuid "9383adf0-593b-4e59-8898-18837705145a")
	)
	(pad "5" smd rect
		(at 0.5 -1.2625 270)
		(size 0.675 0.25)
		(layers "F.Cu" "F.Paste" "F.Mask")
		(uuid "42662ddf-a439-4f41-83dd-a246968942d6")
	)
	(pad "6" smd rect
		(at 1 -1.2625 270)
		(size 0.675 0.25)
		(layers "F.Cu" "F.Paste" "F.Mask")
		(uuid "aa7856c7-5289-43da-9b32-df3d30501eef")
	)
	(pad "7" smd rect
		(at 1.5 -1.2625 270)
		(size 0.675 0.25)
		(layers "F.Cu" "F.Paste" "F.Mask")
		(uuid "fc7e16bb-0fd7-4445-a5ea-5cb9c2ffe7fa")
	)
	(pad "8" smd rect
		(at 2.05 -0.5)
		(size 0.55 0.25)
		(layers "F.Cu" "F.Paste" "F.Mask")
		(uuid "366bdb3a-857f-4885-9c52-59366e902b6d")
	)
	(pad "9" smd rect
		(at 2.05 0 180)
		(size 0.55 0.25)
		(layers "F.Cu" "F.Paste" "F.Mask")
		(uuid "a1930157-d6a1-442a-842f-155ef12023cc")
	)
	(pad "10" smd rect
		(at 2.05 0.5)
		(size 0.55 0.25)
		(layers "F.Cu" "F.Paste" "F.Mask")
		(uuid "7bd78642-322c-4be3-9d39-22d21db86efa")
	)
	(pad "11" smd rect
		(at 1.5 1.2625 90)
		(size 0.675 0.25)
		(layers "F.Cu" "F.Paste" "F.Mask")
		(uuid "5cc94dcd-2b8d-4318-a047-39fa23d3de10")
	)
	(pad "12" smd rect
		(at 1 1.2625 90)
		(size 0.675 0.25)
		(layers "F.Cu" "F.Paste" "F.Mask")
		(uuid "abb7f787-95ea-40b9-88e2-e5f784ba42eb")
	)
	(pad "13" smd rect
		(at 0.5 1.2625 90)
		(size 0.675 0.25)
		(layers "F.Cu" "F.Paste" "F.Mask")
		(uuid "85be8de3-6fd5-4d6f-b80c-9142b7bee142")
	)
	(pad "14" smd rect
		(at 0 1.2625 90)
		(size 0.675 0.25)
		(layers "F.Cu" "F.Paste" "F.Mask")
		(uuid "b84fadad-e769-4d6d-9460-d50e8ecbfd8b")
	)
	(pad "15" smd rect
		(at -0.5 1.2625 90)
		(size 0.675 0.25)
		(layers "F.Cu" "F.Paste" "F.Mask")
		(uuid "42175822-2d1b-4cee-abcb-5dfde27b104d")
	)
	(pad "16" smd rect
		(at -1 1.2625 90)
		(size 0.675 0.25)
		(layers "F.Cu" "F.Paste" "F.Mask")
		(uuid "e4ad51c9-0195-40b9-87c5-e6e14d93d471")
	)
	(pad "17" smd rect
		(at -1.5 1.2625 90)
		(size 0.675 0.25)
		(layers "F.Cu" "F.Paste" "F.Mask")
		(uuid "a355a6f8-7e7c-49b3-9bf0-504368967095")
	)
	(pad "18" smd rect
		(at -2.05 0.5)
		(size 0.55 0.25)
		(layers "F.Cu" "F.Paste" "F.Mask")
		(uuid "6ed2463a-ed42-4c6d-8160-0621340ea1a0")
	)
	(pad "19" smd rect
		(at -2.05 0)
		(size 0.55 0.25)
		(layers "F.Cu" "F.Paste" "F.Mask")
		(uuid "33f7fe0f-6348-41a0-ae2b-5b590acd7fbc")
	)
	(pad "20" smd rect
		(at -2.05 -0.5)
		(size 0.55 0.25)
		(layers "F.Cu" "F.Paste" "F.Mask")
		(uuid "f9b79c65-43f4-4e92-a978-662855b2ac82")
	)
	(model "${LSF_KICAD_LIB}/lsf-kicad-lib.3dshapes/Bosch_LGA-20_4.5x3.0mm_P0.5mm.wrl"
		(offset
			(xyz 0 0 0)
		)
		(scale
			(xyz 1 1 1)
		)
		(rotate
			(xyz 0 0 0)
		)
	)
)
