(footprint "CONMCX001"
	(version 20240108)
	(generator "pcbnew")
	(generator_version "8.0")
	(layer "F.Cu")
	(descr "MCX Female Through-hole Vertical, https://linxtechnologies.com/wp/wp-content/uploads/conmcx001.pdf")
	(tags "MCX Female Through-hole Vertical")
	(property "Reference" "REF**"
		(at 0 4.5 180)
		(layer "F.SilkS")
		(uuid "f8c2bae5-571a-41f3-b377-7734746cbb3b")
		(effects
			(font
				(size 1 1)
				(thickness 0.15)
			)
		)
	)
	(property "Value" "CONMCX001"
		(at 0 -4.4 0)
		(layer "F.Fab")
		(uuid "9b293ac3-0640-44f3-ae20-49234eac86c5")
		(effects
			(font
				(size 1 1)
				(thickness 0.15)
			)
		)
	)
	(property "Footprint" ""
		(at 0 0 0)
		(layer "F.Fab")
		(hide yes)
		(uuid "3cf136c4-eeb1-41f6-9ef4-91e9e393f63d")
		(effects
			(font
				(size 1.27 1.27)
				(thickness 0.15)
			)
		)
	)
	(property "Datasheet" ""
		(at 0 0 0)
		(layer "F.Fab")
		(hide yes)
		(uuid "941c7d33-f73c-48be-97ab-3e2e007ace79")
		(effects
			(font
				(size 1.27 1.27)
				(thickness 0.15)
			)
		)
	)
	(property "Description" ""
		(at 0 0 0)
		(layer "F.Fab")
		(hide yes)
		(uuid "73b61e10-e1a8-4728-84e8-7ad1bf48a2f7")
		(effects
			(font
				(size 1.27 1.27)
				(thickness 0.15)
			)
		)
	)
	(attr through_hole)
	(fp_line
		(start -3 -1.3)
		(end -3 1.3)
		(stroke
			(width 0.12)
			(type solid)
		)
		(layer "F.SilkS")
		(uuid "dcd428da-19f6-46c9-9db0-42477f12caae")
	)
	(fp_line
		(start -1.3 3)
		(end 1.3 3)
		(stroke
			(width 0.12)
			(type solid)
		)
		(layer "F.SilkS")
		(uuid "11869c6c-621b-4433-b1f0-18ef49a08f66")
	)
	(fp_line
		(start 1.3 -3)
		(end -1.3 -3)
		(stroke
			(width 0.12)
			(type solid)
		)
		(layer "F.SilkS")
		(uuid "73399ddf-2ab8-4434-afb5-462f77147fc1")
	)
	(fp_line
		(start 3 1.3)
		(end 3 -1.3)
		(stroke
			(width 0.12)
			(type solid)
		)
		(layer "F.SilkS")
		(uuid "266de1c8-ea1f-4d88-abcd-692b442afc6a")
	)
	(fp_line
		(start -3.7 -3.7)
		(end -3.7 3.7)
		(stroke
			(width 0.05)
			(type solid)
		)
		(layer "F.CrtYd")
		(uuid "3a357b39-6e93-41b2-a22f-d51940f8ed68")
	)
	(fp_line
		(start -3.7 3.7)
		(end 3.7 3.7)
		(stroke
			(width 0.05)
			(type solid)
		)
		(layer "F.CrtYd")
		(uuid "03792311-5ba8-4330-8f38-9214a45a3d69")
	)
	(fp_line
		(start 3.7 -3.7)
		(end -3.7 -3.7)
		(stroke
			(width 0.05)
			(type solid)
		)
		(layer "F.CrtYd")
		(uuid "1730dd99-684a-4949-8f30-19fbb34a4670")
	)
	(fp_line
		(start 3.7 3.7)
		(end 3.7 -3.7)
		(stroke
			(width 0.05)
			(type solid)
		)
		(layer "F.CrtYd")
		(uuid "82781875-9cf4-4b81-9a29-3d0d368487ce")
	)
	(fp_line
		(start -3 -3)
		(end 3 -3)
		(stroke
			(width 0.1)
			(type solid)
		)
		(layer "F.Fab")
		(uuid "7c40498a-6bd4-41ab-8ec6-e7678ed2ade9")
	)
	(fp_line
		(start -3 3)
		(end -3 -3)
		(stroke
			(width 0.1)
			(type solid)
		)
		(layer "F.Fab")
		(uuid "210c3509-1943-45b5-a9fb-d18b19c112f3")
	)
	(fp_line
		(start 3 -3)
		(end 3 3)
		(stroke
			(width 0.1)
			(type solid)
		)
		(layer "F.Fab")
		(uuid "bd9557da-7fab-47c7-a465-5781168bafb8")
	)
	(fp_line
		(start 3 3)
		(end -3 3)
		(stroke
			(width 0.1)
			(type solid)
		)
		(layer "F.Fab")
		(uuid "31568d38-188a-4c9f-9282-fc36a697b4c3")
	)
	(fp_circle
		(center 0 0)
		(end 2.45 0)
		(stroke
			(width 0.1)
			(type solid)
		)
		(fill none)
		(layer "F.Fab")
		(uuid "ec231526-a1bf-49b2-90fe-3dcded6db270")
	)
	(fp_text user "${REFERENCE}"
		(at 0.0154 0 0)
		(layer "F.Fab")
		(uuid "5ca47732-2cf6-443f-b9f6-a96499e94c84")
		(effects
			(font
				(size 1 1)
				(thickness 0.15)
			)
		)
	)
	(pad "1" thru_hole circle
		(at 0 0)
		(size 2.1 2.1)
		(drill 1.02)
		(layers "*.Cu" "*.Mask")
		(remove_unused_layers no)
		(uuid "47604eb7-bf73-45b7-8e95-0acb8099018d")
	)
	(pad "2" thru_hole circle
		(at -2.54 -2.54)
		(size 2.1 2.1)
		(drill 1.3)
		(layers "*.Cu" "*.Mask")
		(remove_unused_layers no)
		(uuid "4374f5cd-ffd2-4bd7-9b33-359e523681c8")
	)
	(pad "2" thru_hole circle
		(at -2.54 2.54)
		(size 2.1 2.1)
		(drill 1.3)
		(layers "*.Cu" "*.Mask")
		(remove_unused_layers no)
		(uuid "74e64a9b-af94-4bd8-b3e2-ce1c9dd617d5")
	)
	(pad "2" thru_hole circle
		(at 2.54 -2.54)
		(size 2.1 2.1)
		(drill 1.3)
		(layers "*.Cu" "*.Mask")
		(remove_unused_layers no)
		(uuid "6d2b76c1-7040-443d-99e5-7c59ce0a10af")
	)
	(pad "2" thru_hole circle
		(at 2.54 2.54)
		(size 2.1 2.1)
		(drill 1.3)
		(layers "*.Cu" "*.Mask")
		(remove_unused_layers no)
		(uuid "91c911af-6391-4809-a4b2-3ce46f228683")
	)
	(model "${LSF_KICAD_LIB}/lsf-kicad-lib.3dshapes/CONMCX001.wrl"
		(offset
			(xyz 0 0 0)
		)
		(scale
			(xyz 1 1 1)
		)
		(rotate
			(xyz 0 0 0)
		)
	)
)
