(footprint "CONMMCX002"
	(version 20240108)
	(generator "pcbnew")
	(generator_version "8.0")
	(layer "F.Cu")
	(descr "MMCX SMD, https://linxtechnologies.com/wp/wp-content/uploads/conmmcx002-smd.pdf")
	(tags "MMCX SMD Horizontal")
	(property "Reference" "REF**"
		(at -3.046 0.072 90)
		(layer "F.SilkS")
		(uuid "c7784566-7df4-4120-a79a-f6d2aa645dc1")
		(effects
			(font
				(size 1 1)
				(thickness 0.15)
			)
		)
	)
	(property "Value" "CONMMCX002"
		(at 0 -3.1 0)
		(layer "F.Fab")
		(uuid "b4958fbc-f534-45cb-bd1f-3a69caa9205e")
		(effects
			(font
				(size 1 1)
				(thickness 0.15)
			)
		)
	)
	(property "Footprint" ""
		(at 0 0 0)
		(layer "F.Fab")
		(hide yes)
		(uuid "31fbc210-8bf8-49fe-9062-74c3126a0818")
		(effects
			(font
				(size 1.27 1.27)
				(thickness 0.15)
			)
		)
	)
	(property "Datasheet" ""
		(at 0 0 0)
		(layer "F.Fab")
		(hide yes)
		(uuid "7bbbd6c6-e547-4b72-8512-579e131479ef")
		(effects
			(font
				(size 1.27 1.27)
				(thickness 0.15)
			)
		)
	)
	(property "Description" ""
		(at 0 0 0)
		(layer "F.Fab")
		(hide yes)
		(uuid "189d7d29-337f-47c3-a7ed-933911588bfd")
		(effects
			(font
				(size 1.27 1.27)
				(thickness 0.15)
			)
		)
	)
	(attr smd)
	(fp_line
		(start -2.3 -2.3)
		(end -2.3 2.3)
		(stroke
			(width 0.12)
			(type solid)
		)
		(layer "F.SilkS")
		(uuid "be6da7e2-5c61-4af7-938f-3ec3bf9e8a28")
	)
	(fp_line
		(start -2.3 2.3)
		(end 2.3 2.3)
		(stroke
			(width 0.12)
			(type solid)
		)
		(layer "F.SilkS")
		(uuid "45b950b9-63ad-4ce0-a2ac-478d7c721493")
	)
	(fp_line
		(start 2.3 -2.3)
		(end -2.3 -2.3)
		(stroke
			(width 0.12)
			(type solid)
		)
		(layer "F.SilkS")
		(uuid "22570bdb-79b6-4748-b39c-70fc3167a8f6")
	)
	(fp_line
		(start 2.3 2.3)
		(end 2.3 -2.3)
		(stroke
			(width 0.12)
			(type solid)
		)
		(layer "F.SilkS")
		(uuid "880eb352-8c18-471e-bae6-4066a98cb9b2")
	)
	(fp_line
		(start 2.3368 -2.025)
		(end 4.625 -2.025)
		(stroke
			(width 0.12)
			(type solid)
		)
		(layer "F.SilkS")
		(uuid "727b67a2-656b-4a58-8977-d672e61622a2")
	)
	(fp_line
		(start 4.625 -2.025)
		(end 4.625 2.05)
		(stroke
			(width 0.12)
			(type solid)
		)
		(layer "F.SilkS")
		(uuid "27ca05d6-2f4d-4d66-b00c-18564e58d2b6")
	)
	(fp_line
		(start 4.625 2.05)
		(end 2.325 2.05)
		(stroke
			(width 0.12)
			(type solid)
		)
		(layer "F.SilkS")
		(uuid "82c34270-f61e-4516-ab50-680307bfdcea")
	)
	(fp_line
		(start -2.43 -2.44)
		(end -2.43 2.44)
		(stroke
			(width 0.05)
			(type solid)
		)
		(layer "F.CrtYd")
		(uuid "8f12413e-9d37-419a-b3e2-0d219c8b735d")
	)
	(fp_line
		(start -2.43 2.44)
		(end 2.42 2.44)
		(stroke
			(width 0.05)
			(type solid)
		)
		(layer "F.CrtYd")
		(uuid "b6b9c9e3-d83e-4492-9efe-597733af552f")
	)
	(fp_line
		(start 2.42 -2.44)
		(end -2.43 -2.44)
		(stroke
			(width 0.05)
			(type solid)
		)
		(layer "F.CrtYd")
		(uuid "f126fd95-d652-4f08-9473-3ac8b14a587a")
	)
	(fp_line
		(start 2.42 2.44)
		(end 2.42 -2.44)
		(stroke
			(width 0.05)
			(type solid)
		)
		(layer "F.CrtYd")
		(uuid "b970760c-31ca-4b0c-901b-c0217fb208c0")
	)
	(fp_line
		(start -1.925 -1.925)
		(end 4.525 -1.925)
		(stroke
			(width 0.1)
			(type solid)
		)
		(layer "F.Fab")
		(uuid "5b05a051-20c7-4b7e-bc8d-60437c03df60")
	)
	(fp_line
		(start -1.925 1.95)
		(end -1.925 -1.925)
		(stroke
			(width 0.1)
			(type solid)
		)
		(layer "F.Fab")
		(uuid "b3b5577b-4ba5-4989-ac91-e7cbbac19c8c")
	)
	(fp_line
		(start 1.925 -1.925)
		(end 1.925 1.95)
		(stroke
			(width 0.1)
			(type solid)
		)
		(layer "F.Fab")
		(uuid "020d1e57-ea22-4258-b02a-6c211b3791f1")
	)
	(fp_line
		(start 4.525 -1.925)
		(end 4.525 1.95)
		(stroke
			(width 0.1)
			(type solid)
		)
		(layer "F.Fab")
		(uuid "c614c8a9-f332-41a4-8097-0ace21b9ae69")
	)
	(fp_line
		(start 4.525 1.95)
		(end -1.925 1.95)
		(stroke
			(width 0.1)
			(type solid)
		)
		(layer "F.Fab")
		(uuid "17907b7f-5e09-44c7-a800-a3a781125030")
	)
	(fp_text user "${REFERENCE}"
		(at 0.0154 0 0)
		(layer "F.Fab")
		(uuid "ba7777cb-5386-41d6-9b10-ba2aaab5cfd8")
		(effects
			(font
				(size 1 1)
				(thickness 0.15)
			)
		)
	)
	(pad "1" smd circle
		(at 0 0)
		(size 1.15 1.15)
		(layers "F.Cu" "F.Paste" "F.Mask")
		(uuid "86d4c841-191d-4e4c-b0ba-86279b3de1a9")
	)
	(pad "2" smd trapezoid
		(at -1.4 -1.4)
		(size 1.1 1.1)
		(layers "F.Cu" "F.Paste" "F.Mask")
		(uuid "233eca5d-28c5-45e3-b3c5-39c0ed6814d8")
	)
	(pad "2" smd trapezoid
		(at -1.4 1.4)
		(size 1.1 1.1)
		(layers "F.Cu" "F.Paste" "F.Mask")
		(uuid "41723dc3-7d10-4885-91d2-a477582d131f")
	)
	(pad "2" smd trapezoid
		(at 1.4 -1.4)
		(size 1.1 1.1)
		(layers "F.Cu" "F.Paste" "F.Mask")
		(uuid "1c903cb2-345c-4961-b59a-e1944d942c33")
	)
	(pad "2" smd trapezoid
		(at 1.4 1.4)
		(size 1.1 1.1)
		(layers "F.Cu" "F.Paste" "F.Mask")
		(uuid "be6347f2-397e-470e-bd77-14f1135e967f")
	)
	(model "${LSF_KICAD_LIB}/lsf-kicad-lib.3dshapes/CONMMCX002.wrl"
		(offset
			(xyz 0 0 0)
		)
		(scale
			(xyz 1 1 1)
		)
		(rotate
			(xyz 0 0 0)
		)
	)
)
