(footprint "D2F-L30-A1" (version 20211014) (generator pcbnew)
  (layer "F.Cu")
  (tedit 61E8216D)
  (descr "Ultra Subminiature Basic Switch; https://omronfs.omron.com/en_US/ecb/products/pdf/en-d2f.pdf")
  (tags "switch SPDT")
  (attr through_hole)
  (fp_text reference "REF**" (at 5.58 2.75) (layer "F.SilkS")
    (effects (font (size 1 1) (thickness 0.15)))
    (tstamp b8c6e7ca-d84c-4bae-8d06-cd68d1e8f3cf)
  )
  (fp_text value "D2F-L30-A1" (at 5.08 -2) (layer "F.Fab")
    (effects (font (size 1 1) (thickness 0.15)))
    (tstamp 389e4c82-809e-4032-b25f-09d22fe453ba)
  )
  (fp_text user "${REFERENCE}" (at 4.525 -9.819) (layer "F.Fab")
    (effects (font (size 1 1) (thickness 0.15)))
    (tstamp 6361dfb6-bbd7-4bab-90ea-39055823e39e)
  )
  (fp_line (start 11.48 -2.8) (end -1.32 -2.8) (layer "F.SilkS") (width 0.12) (tstamp 1acaee3e-122d-4ed9-b724-022e3f897479))
  (fp_line (start 11.5 -2.8) (end 11.5 1.4) (layer "F.SilkS") (width 0.12) (tstamp 3bdcdc9c-8065-4e5f-bf19-96ea2d6b0f05))
  (fp_line (start 11.48 1.4) (end -1.32 1.4) (layer "F.SilkS") (width 0.12) (tstamp a99cc5cf-7b0a-4dbb-aee0-e27984886141))
  (fp_line (start -1.32 1.4) (end -1.32 -2.8) (layer "F.SilkS") (width 0.12) (tstamp d7ac2699-ef80-48e3-98d5-c81a495c17c4))
  (fp_line (start 11.98 -8.5) (end 1.98 -14.5) (layer "F.CrtYd") (width 0.05) (tstamp 02e92caa-e3dd-41af-b97b-360aadf7bbfc))
  (fp_line (start -4.52 -8.5) (end -1.72 -7.8) (layer "F.CrtYd") (width 0.05) (tstamp 159bf4d5-41d9-41c0-b1b3-643d91846010))
  (fp_line (start -1.72 1.9) (end 11.98 1.9) (layer "F.CrtYd") (width 0.05) (tstamp 1b31dd80-bf99-415e-a84e-9b2ffa1d0903))
  (fp_line (start 2.48 -16.5) (end -2.52 -18) (layer "F.CrtYd") (width 0.05) (tstamp 38312119-956a-4777-a117-fe6995af5270))
  (fp_line (start 11.98 1.9) (end 11.98 -8.5) (layer "F.CrtYd") (width 0.05) (tstamp 3e828a41-23dc-4959-bcaa-77eda615f175))
  (fp_line (start 1.98 -14.5) (end 2.48 -16.5) (layer "F.CrtYd") (width 0.05) (tstamp 54a3d8a5-1649-41fd-9b18-f91784692485))
  (fp_line (start -2.52 -18) (end -4.52 -8.5) (layer "F.CrtYd") (width 0.05) (tstamp 8a0d0478-5343-4cbf-a034-7a09fa272f3d))
  (fp_line (start -1.72 -7.8) (end -1.72 1.9) (layer "F.CrtYd") (width 0.05) (tstamp dfcee06d-2e10-47d2-910f-aede31d86177))
  (fp_line (start -1.32 -7.8) (end -1.32 -2.8) (layer "F.Fab") (width 0.1) (tstamp 1e320ab8-3789-42ac-bf90-b8231bc4130e))
  (fp_line (start 11.5 -7.8) (end 11.5 -2.8) (layer "F.Fab") (width 0.1) (tstamp 8150ead2-965e-4bc7-a20e-fe20b83cb959))
  (fp_line (start 11.48 -7.8) (end -1.32 -7.8) (layer "F.Fab") (width 0.1) (tstamp b2c42826-1e84-4147-befb-4e1940b217e1))
  (fp_line (start 11.48 -2.8) (end -1.32 -2.8) (layer "F.Fab") (width 0.1) (tstamp c09caae5-c780-46fb-a625-8607a2e0e774))
  (fp_line (start 11 -8.5) (end 1.48 -14) (layer "F.Fab") (width 0.1) (tstamp e0c1e279-ee64-4024-bcd1-380948ab5c79))
  (fp_arc (start 6.23 -7.8) (mid 6.83 -8.4) (end 7.43 -7.8) (layer "F.Fab") (width 0.1) (tstamp 231b9ddb-57dd-4fe7-8eda-a2339393fee7))
  (fp_arc (start -2.429827 -15.276249) (mid 0.210178 -16.735941) (end 1.47977 -13.999435) (layer "F.Fab") (width 0.1) (tstamp f1877a28-2017-4814-be19-1fa0b06ad1be))
  (fp_circle (center 8.33 -4.3) (end 9.33 -4.3) (layer "F.Fab") (width 0.1) (fill none) (tstamp 5c4ece7e-ea9c-46f5-b1e4-41f33eaab927))
  (fp_circle (center 1.83 -4.3) (end 2.83 -4.3) (layer "F.Fab") (width 0.1) (fill none) (tstamp e28a59f3-c4a1-4a5f-a735-12b01d792a36))
  (pad "1" thru_hole rect (at 0 0) (size 2.5 2.5) (drill 1.2) (layers *.Cu *.Mask) (tstamp 632ff31d-c16f-43ce-8b91-fe1591d8026b))
  (pad "2" thru_hole circle (at 10.16 0) (size 2.5 2.5) (drill 1.2) (layers *.Cu *.Mask) (tstamp 0ae60650-bbd1-4d6f-8aba-98c0794df232))
  (pad "3" thru_hole circle (at 5.08 0) (size 2.5 2.5) (drill 1.2) (layers *.Cu *.Mask) (tstamp 80b0d51d-70a2-459b-9de6-5006295c9a87))
  (model "${LSF_KICAD_LIB}/lsf-kicad-lib.3dshapes/D2F-L30-A1.wrl"
    (offset (xyz 0 0 0))
    (scale (xyz 1 1 1))
    (rotate (xyz 0 0 0))
  )
)
