(footprint "DCC6"
	(version 20240108)
	(generator "pcbnew")
	(generator_version "8.0")
	(layer "F.Cu")
	(descr "DCC6, https://abracon.com/Filters/SAW%20FILTERS/AFS434S3.pdf")
	(tags "SAW Filter")
	(property "Reference" "REF**"
		(at 0 2.9 0)
		(layer "F.SilkS")
		(uuid "6c3d5951-d871-4436-8107-dbcce60c28a7")
		(effects
			(font
				(size 1 1)
				(thickness 0.15)
			)
		)
	)
	(property "Value" "DCC6"
		(at 0 -2.82 0)
		(layer "F.Fab")
		(uuid "4b8c0902-7218-4d53-b33a-dac3e76ea611")
		(effects
			(font
				(size 1 1)
				(thickness 0.15)
			)
		)
	)
	(property "Footprint" ""
		(at 0 0 0)
		(layer "F.Fab")
		(hide yes)
		(uuid "f3c86211-1f27-4f57-b6c0-253cb3035808")
		(effects
			(font
				(size 1.27 1.27)
				(thickness 0.15)
			)
		)
	)
	(property "Datasheet" ""
		(at 0 0 0)
		(layer "F.Fab")
		(hide yes)
		(uuid "6246fc23-e91c-49d9-989f-e6d4f033b0cc")
		(effects
			(font
				(size 1.27 1.27)
				(thickness 0.15)
			)
		)
	)
	(property "Description" ""
		(at 0 0 0)
		(layer "F.Fab")
		(hide yes)
		(uuid "4d281efd-074b-4299-a469-e1002d444d71")
		(effects
			(font
				(size 1.27 1.27)
				(thickness 0.15)
			)
		)
	)
	(attr smd)
	(fp_line
		(start -2.26 -2.21)
		(end -0.27 -2.21)
		(stroke
			(width 0.12)
			(type solid)
		)
		(layer "F.SilkS")
		(uuid "892a459d-2c69-4217-bd81-787207916e13")
	)
	(fp_line
		(start -2.26 -1.6)
		(end -2.26 -2.21)
		(stroke
			(width 0.12)
			(type solid)
		)
		(layer "F.SilkS")
		(uuid "6f645031-b55c-4877-9e0e-1470dbf6d358")
	)
	(fp_line
		(start -2.1 -2.1)
		(end 2.1 -2.1)
		(stroke
			(width 0.05)
			(type solid)
		)
		(layer "F.CrtYd")
		(uuid "98f40877-7ceb-45be-bdf9-a9b4d123c08d")
	)
	(fp_line
		(start -2.1 2.1)
		(end -2.1 -2.1)
		(stroke
			(width 0.05)
			(type solid)
		)
		(layer "F.CrtYd")
		(uuid "3c82d5c1-5193-4038-80f6-21e6a90f1c83")
	)
	(fp_line
		(start -2.1 2.1)
		(end 2.1 2.1)
		(stroke
			(width 0.05)
			(type solid)
		)
		(layer "F.CrtYd")
		(uuid "1cef1c7b-bfc6-46f8-b80f-cc16cbde4256")
	)
	(fp_line
		(start 2.1 2.1)
		(end 2.1 -2.1)
		(stroke
			(width 0.05)
			(type solid)
		)
		(layer "F.CrtYd")
		(uuid "1f631f17-1f55-46b5-95f5-e42379368e1f")
	)
	(fp_line
		(start -1.9 -1.9)
		(end -1.9 1.9)
		(stroke
			(width 0.1)
			(type solid)
		)
		(layer "F.Fab")
		(uuid "9bb2351d-f7af-47b0-baca-04956e1ebb20")
	)
	(fp_line
		(start -1.9 -1.9)
		(end 1.9 -1.9)
		(stroke
			(width 0.1)
			(type solid)
		)
		(layer "F.Fab")
		(uuid "32740eb5-90d6-41e7-a9da-5571154a6a60")
	)
	(fp_line
		(start -1.9 1.9)
		(end 1.9 1.9)
		(stroke
			(width 0.1)
			(type solid)
		)
		(layer "F.Fab")
		(uuid "52fad88d-d5bd-466d-ba7f-1e9db609ab3c")
	)
	(fp_line
		(start 1.9 -1.9)
		(end 1.9 1.9)
		(stroke
			(width 0.1)
			(type solid)
		)
		(layer "F.Fab")
		(uuid "e85b00bd-d0fe-4f4b-866e-9e87721affe1")
	)
	(fp_text user "${REFERENCE}"
		(at 0 2.89 0)
		(layer "F.Fab")
		(uuid "5f953a3b-b3cf-473f-923f-e5e291126860")
		(effects
			(font
				(size 1 1)
				(thickness 0.15)
			)
		)
	)
	(pad "1" smd rect
		(at -1.1 -1.27)
		(size 1.6 0.6)
		(layers "F.Cu" "F.Paste" "F.Mask")
		(uuid "42ec5bba-c691-482d-9e97-a1bc49311e99")
	)
	(pad "2" smd rect
		(at -1.4 0)
		(size 1 0.6)
		(layers "F.Cu" "F.Paste" "F.Mask")
		(uuid "5b4f6261-a0a3-49f9-937f-d2313a2e323b")
	)
	(pad "3" smd rect
		(at -1.4 1.27)
		(size 1 0.6)
		(layers "F.Cu" "F.Paste" "F.Mask")
		(uuid "1f488314-e347-4710-afc2-39f7688ab87a")
	)
	(pad "4" smd rect
		(at 1.4 1.27)
		(size 1 0.6)
		(layers "F.Cu" "F.Paste" "F.Mask")
		(uuid "9561551e-f2c8-4f5f-8b29-39503396d5c0")
	)
	(pad "5" smd rect
		(at 1.4 0)
		(size 1 0.6)
		(layers "F.Cu" "F.Paste" "F.Mask")
		(uuid "8fe45632-a2c6-4798-b7c9-1e6f7d091118")
	)
	(pad "6" smd rect
		(at 1.4 -1.27)
		(size 1 0.6)
		(layers "F.Cu" "F.Paste" "F.Mask")
		(uuid "d4f44d3f-9933-47ea-a2a4-5c900188d791")
	)
	(model "${LSF_KICAD_LIB}/lsf-kicad-lib.3dshapes/DCC6.wrl"
		(offset
			(xyz 0 0 0)
		)
		(scale
			(xyz 1 1 1)
		)
		(rotate
			(xyz 0 0 0)
		)
	)
)
