(footprint "DFN-8-1EP_2x2mm_P0.5mm_EP0.7x1.6mm"
	(version 20240108)
	(generator "pcbnew")
	(generator_version "8.0")
	(layer "F.Cu")
	(descr "DFN-8 Pin, https://www.qorvo.com/products/d/da006538#page=9")
	(tags "DFN NoLead")
	(property "Reference" "REF**"
		(at 0 -1.95 0)
		(layer "F.SilkS")
		(uuid "65acc1a9-dfe8-471c-a6c8-5a7a68eed3d0")
		(effects
			(font
				(size 1 1)
				(thickness 0.15)
			)
		)
	)
	(property "Value" "DFN-8-1EP_2x2mm_P0.5mm_EP0.7x1.6mm"
		(at 0 1.95 0)
		(layer "F.Fab")
		(uuid "e92c3069-35b4-4110-b711-db17816c81ab")
		(effects
			(font
				(size 1 1)
				(thickness 0.15)
			)
		)
	)
	(property "Footprint" ""
		(at 0 0 0)
		(layer "F.Fab")
		(hide yes)
		(uuid "ed5734b0-7c07-4723-9935-f0a1af9433e6")
		(effects
			(font
				(size 1.27 1.27)
				(thickness 0.15)
			)
		)
	)
	(property "Datasheet" ""
		(at 0 0 0)
		(layer "F.Fab")
		(hide yes)
		(uuid "4febdee4-c304-49f0-80e7-cd227e946d99")
		(effects
			(font
				(size 1.27 1.27)
				(thickness 0.15)
			)
		)
	)
	(property "Description" ""
		(at 0 0 0)
		(layer "F.Fab")
		(hide yes)
		(uuid "89415376-8e61-4de2-8223-4a4fd178b819")
		(effects
			(font
				(size 1.27 1.27)
				(thickness 0.15)
			)
		)
	)
	(attr smd)
	(fp_line
		(start -1 1.11)
		(end 1 1.11)
		(stroke
			(width 0.12)
			(type solid)
		)
		(layer "F.SilkS")
		(uuid "55a8f29c-f648-4ce0-b934-d1f6bbfd05d4")
	)
	(fp_line
		(start 0 -1.11)
		(end 1 -1.11)
		(stroke
			(width 0.12)
			(type solid)
		)
		(layer "F.SilkS")
		(uuid "522a8972-fe99-4852-85cc-cb32e04f367c")
	)
	(fp_line
		(start -1.6 -1.25)
		(end -1.6 1.25)
		(stroke
			(width 0.05)
			(type solid)
		)
		(layer "F.CrtYd")
		(uuid "4ccbcc31-4693-45f0-80a6-2f9d5f055156")
	)
	(fp_line
		(start -1.6 1.25)
		(end 1.6 1.25)
		(stroke
			(width 0.05)
			(type solid)
		)
		(layer "F.CrtYd")
		(uuid "3408accf-3d64-421f-b38b-541952049f1d")
	)
	(fp_line
		(start 1.6 -1.25)
		(end -1.6 -1.25)
		(stroke
			(width 0.05)
			(type solid)
		)
		(layer "F.CrtYd")
		(uuid "ba19f411-1d19-41e6-97e5-d4da0eed4177")
	)
	(fp_line
		(start 1.6 1.25)
		(end 1.6 -1.25)
		(stroke
			(width 0.05)
			(type solid)
		)
		(layer "F.CrtYd")
		(uuid "40f7c864-57fa-440b-a4bc-41d097bc0bd4")
	)
	(fp_line
		(start -1 -0.5)
		(end -0.5 -1)
		(stroke
			(width 0.1)
			(type solid)
		)
		(layer "F.Fab")
		(uuid "b87cfa5e-70ed-476f-b25b-b68bab1707a2")
	)
	(fp_line
		(start -1 1)
		(end -1 -0.5)
		(stroke
			(width 0.1)
			(type solid)
		)
		(layer "F.Fab")
		(uuid "5bcfeaba-d24c-4632-9e28-c93d9e05aa71")
	)
	(fp_line
		(start -0.5 -1)
		(end 1 -1)
		(stroke
			(width 0.1)
			(type solid)
		)
		(layer "F.Fab")
		(uuid "6900445e-b9e1-4e11-8269-1007b3bbf400")
	)
	(fp_line
		(start 1 -1)
		(end 1 1)
		(stroke
			(width 0.1)
			(type solid)
		)
		(layer "F.Fab")
		(uuid "713d8ec6-698e-4b3e-a100-32afef792f56")
	)
	(fp_line
		(start 1 1)
		(end -1 1)
		(stroke
			(width 0.1)
			(type solid)
		)
		(layer "F.Fab")
		(uuid "53d77e96-88df-4caf-a687-e3d7a419b1ea")
	)
	(fp_text user "${REFERENCE}"
		(at 0 0 0)
		(layer "F.Fab")
		(uuid "a497f48a-ef79-48aa-ac89-1571ce0750a7")
		(effects
			(font
				(size 0.5 0.5)
				(thickness 0.08)
			)
		)
	)
	(pad "" smd roundrect
		(at 0 -0.4)
		(size 0.56 0.64)
		(layers "F.Paste")
		(roundrect_rratio 0.25)
		(uuid "e5eafb5a-3f76-4ebc-97c9-2e3b227c936f")
	)
	(pad "" smd roundrect
		(at 0 0.4)
		(size 0.56 0.64)
		(layers "F.Paste")
		(roundrect_rratio 0.25)
		(uuid "bc3cc559-f786-4f00-950b-4fe477a6e214")
	)
	(pad "1" smd roundrect
		(at -1 -0.75)
		(size 0.7 0.3)
		(layers "F.Cu" "F.Paste" "F.Mask")
		(roundrect_rratio 0.25)
		(uuid "76c61a9a-9701-4d4d-a26c-0358827a9c2e")
	)
	(pad "2" smd roundrect
		(at -1 -0.25)
		(size 0.7 0.3)
		(layers "F.Cu" "F.Paste" "F.Mask")
		(roundrect_rratio 0.25)
		(uuid "07ed3a7a-494b-431c-8c3e-e57aec771719")
	)
	(pad "3" smd roundrect
		(at -1 0.25)
		(size 0.7 0.3)
		(layers "F.Cu" "F.Paste" "F.Mask")
		(roundrect_rratio 0.25)
		(uuid "fb1420ed-2005-45ff-bd82-d69ea09efa6d")
	)
	(pad "4" smd roundrect
		(at -1 0.75)
		(size 0.7 0.3)
		(layers "F.Cu" "F.Paste" "F.Mask")
		(roundrect_rratio 0.25)
		(uuid "aa8998ed-a289-4bb7-83bd-86a21085e8f8")
	)
	(pad "5" smd roundrect
		(at 1 0.75)
		(size 0.7 0.3)
		(layers "F.Cu" "F.Paste" "F.Mask")
		(roundrect_rratio 0.25)
		(uuid "5e51fca8-3fbf-4226-b367-336f500e625f")
	)
	(pad "6" smd roundrect
		(at 1 0.25)
		(size 0.7 0.3)
		(layers "F.Cu" "F.Paste" "F.Mask")
		(roundrect_rratio 0.25)
		(uuid "83661190-4ed2-4cf1-8160-be442a98bc0c")
	)
	(pad "7" smd roundrect
		(at 1 -0.25)
		(size 0.7 0.3)
		(layers "F.Cu" "F.Paste" "F.Mask")
		(roundrect_rratio 0.25)
		(uuid "e45d84fe-a896-4a27-a039-784fcb3533f8")
	)
	(pad "8" smd roundrect
		(at 1 -0.75)
		(size 0.7 0.3)
		(layers "F.Cu" "F.Paste" "F.Mask")
		(roundrect_rratio 0.25)
		(uuid "65996162-7aad-4de6-993b-5207dd3c99cb")
	)
	(pad "9" smd rect
		(at 0 0)
		(size 0.7 1.6)
		(layers "F.Cu" "F.Mask")
		(uuid "f77dc1df-ed3d-4279-8efd-e15dbb2b1325")
	)
	(model "${LSF_KICAD_LIB}/lsf-kicad-lib.3dshapes/DFN-8-1EP_2x2mm_P0.5mm_EP0.7x1.6mm.wrl"
		(offset
			(xyz 0 0 0)
		)
		(scale
			(xyz 1 1 1)
		)
		(rotate
			(xyz 0 0 0)
		)
	)
)
