(footprint "DO-222AA"
	(version 20240108)
	(generator "pcbnew")
	(generator_version "8.0")
	(layer "F.Cu")
	(descr "DO-222AA, https://www.diodes.com/assets/Package-Files/DO-222AA-LS.pdf")
	(tags "DO-222AA")
	(property "Reference" "REF**"
		(at 0.595 2.19 180)
		(layer "F.SilkS")
		(uuid "91e78d0c-050f-41ad-9bf9-cc7ac6d69037")
		(effects
			(font
				(size 1 1)
				(thickness 0.15)
			)
		)
	)
	(property "Value" "DO-222AA"
		(at 0.5286 2.1 180)
		(layer "F.Fab")
		(uuid "cc1f68c1-0469-4de4-899f-ed8037c5f9fb")
		(effects
			(font
				(size 1 1)
				(thickness 0.15)
			)
		)
	)
	(property "Footprint" ""
		(at 0 0 0)
		(layer "F.Fab")
		(hide yes)
		(uuid "76589f73-fdb4-4735-a452-0f30d417f297")
		(effects
			(font
				(size 1.27 1.27)
				(thickness 0.15)
			)
		)
	)
	(property "Datasheet" ""
		(at 0 0 0)
		(layer "F.Fab")
		(hide yes)
		(uuid "d60fcdd7-b417-4d40-b114-4dd74118e6cd")
		(effects
			(font
				(size 1.27 1.27)
				(thickness 0.15)
			)
		)
	)
	(property "Description" ""
		(at 0 0 0)
		(layer "F.Fab")
		(hide yes)
		(uuid "366695b5-c352-4240-9528-5034464c10bc")
		(effects
			(font
				(size 1.27 1.27)
				(thickness 0.15)
			)
		)
	)
	(attr smd)
	(fp_line
		(start -2.165 -1.0922)
		(end -2.165 1.0922)
		(stroke
			(width 0.12)
			(type solid)
		)
		(layer "F.SilkS")
		(uuid "45926b04-4fee-4b06-98e1-b05700f320a8")
	)
	(fp_line
		(start -2.165 -1.0922)
		(end 2.235 -1.0922)
		(stroke
			(width 0.12)
			(type solid)
		)
		(layer "F.SilkS")
		(uuid "7bd8f473-fa8f-4109-86f6-da5b07291399")
	)
	(fp_line
		(start -2.165 1.0922)
		(end 2.235 1.0922)
		(stroke
			(width 0.12)
			(type solid)
		)
		(layer "F.SilkS")
		(uuid "aec8bcef-9882-4acd-a53f-df255eb14a2e")
	)
	(fp_line
		(start -2.3 -1.23)
		(end -2.3 1.23)
		(stroke
			(width 0.05)
			(type solid)
		)
		(layer "F.CrtYd")
		(uuid "74048d39-5ec5-44f5-a11d-e2b972b1e9cb")
	)
	(fp_line
		(start -2.3 -1.23)
		(end 2.44 -1.23)
		(stroke
			(width 0.05)
			(type solid)
		)
		(layer "F.CrtYd")
		(uuid "363fef3e-d981-4ea5-8c1a-339efede9685")
	)
	(fp_line
		(start 2.44 -1.23)
		(end 2.44 1.23)
		(stroke
			(width 0.05)
			(type solid)
		)
		(layer "F.CrtYd")
		(uuid "4fcc500e-d07c-4528-be40-fb82e1b9de85")
	)
	(fp_line
		(start 2.44 1.23)
		(end -2.3 1.23)
		(stroke
			(width 0.05)
			(type solid)
		)
		(layer "F.CrtYd")
		(uuid "2ef59765-2315-444d-82f0-6be81f0d050d")
	)
	(fp_line
		(start -1.355 -0.95)
		(end 0.545 -0.95)
		(stroke
			(width 0.1)
			(type solid)
		)
		(layer "F.Fab")
		(uuid "c9698863-75a6-4fd9-8ed1-9138b59630b5")
	)
	(fp_line
		(start -0.815 0.9)
		(end -0.815 -0.9)
		(stroke
			(width 0.1)
			(type solid)
		)
		(layer "F.Fab")
		(uuid "1eda702a-28a3-46ff-a1bf-ebb1c9e85f8f")
	)
	(fp_line
		(start 0.2414 0)
		(end 0.6414 0)
		(stroke
			(width 0.1)
			(type solid)
		)
		(layer "F.Fab")
		(uuid "e7d07463-5a60-4a31-8d9c-d8f1a3bef74f")
	)
	(fp_line
		(start 0.545 0.95)
		(end -1.355 0.95)
		(stroke
			(width 0.1)
			(type solid)
		)
		(layer "F.Fab")
		(uuid "18480705-7814-4397-a1e3-97368853c2e5")
	)
	(fp_line
		(start 0.6414 0)
		(end 0.6414 -0.55)
		(stroke
			(width 0.1)
			(type solid)
		)
		(layer "F.Fab")
		(uuid "25cebbad-a4bd-4a5b-b91a-756d4829d9a9")
	)
	(fp_line
		(start 0.6414 0)
		(end 0.6414 0.55)
		(stroke
			(width 0.1)
			(type solid)
		)
		(layer "F.Fab")
		(uuid "d1448dae-65f3-490a-bacb-acb9302be01b")
	)
	(fp_line
		(start 0.6414 0)
		(end 1.2414 -0.4)
		(stroke
			(width 0.1)
			(type solid)
		)
		(layer "F.Fab")
		(uuid "ead8c525-48b0-4a38-8b1e-213854bbbdcf")
	)
	(fp_line
		(start 1.2414 -0.4)
		(end 1.2414 0.4)
		(stroke
			(width 0.1)
			(type solid)
		)
		(layer "F.Fab")
		(uuid "49c9ebea-d386-45c1-9102-238acf8e1099")
	)
	(fp_line
		(start 1.2414 0)
		(end 1.7414 0)
		(stroke
			(width 0.1)
			(type solid)
		)
		(layer "F.Fab")
		(uuid "bbda7bc5-da58-49dc-89d3-e23a9e13840c")
	)
	(fp_line
		(start 1.2414 0.4)
		(end 0.6414 0)
		(stroke
			(width 0.1)
			(type solid)
		)
		(layer "F.Fab")
		(uuid "4f756b0b-bffe-4442-88b4-f3affd31874c")
	)
	(fp_line
		(start 2.145 -0.91)
		(end 2.145 0.89)
		(stroke
			(width 0.1)
			(type solid)
		)
		(layer "F.Fab")
		(uuid "9b86a78f-c6a1-4242-ba56-0d68f5005374")
	)
	(fp_text user "${REFERENCE}"
		(at 0.585 -2 180)
		(layer "F.Fab")
		(uuid "debacf28-1374-4f08-bba9-661f8c7a8eef")
		(effects
			(font
				(size 1 1)
				(thickness 0.15)
			)
		)
	)
	(pad "1" smd rect
		(at -1.74 0)
		(size 0.65 0.95)
		(layers "F.Cu" "F.Paste" "F.Mask")
		(uuid "f395647a-8e61-4922-9c93-c52bf26aa2c4")
	)
	(pad "1" smd rect
		(at -0.415 0)
		(size 2 1.95)
		(layers "F.Cu" "F.Paste" "F.Mask")
		(uuid "fcd87b00-8f84-419b-9b96-6098b34935a7")
	)
	(pad "2" smd rect
		(at 1.64 0)
		(size 0.85 0.65)
		(layers "F.Cu" "F.Paste" "F.Mask")
		(zone_connect 2)
		(uuid "69efecb5-df34-4d60-bf0e-3333089b0f60")
	)
	(model "${LSF_KICAD_LIB}/lsf-kicad-lib.3dshapes/DO-222AA.wrl"
		(offset
			(xyz 0 0 0)
		)
		(scale
			(xyz 1 1 1)
		)
		(rotate
			(xyz 0 0 0)
		)
	)
)
