(footprint "hrs-dm3cs"
	(version 20240108)
	(generator "pcbnew")
	(generator_version "8.0")
	(layer "F.Cu")
	(descr "microSD, https://www.hirose.com/product/en/download_file/key_name/DM3CS-SF/category/Specification%20Sheet/doc_file_id/44102/?file_category_id=9&item_id=06090032300&is_series=")
	(tags "microSD")
	(property "Reference" "REF**"
		(at -2.1 2.6 0)
		(layer "F.SilkS")
		(uuid "f857504b-fc01-433e-9061-a82544b5d18c")
		(effects
			(font
				(size 1 1)
				(thickness 0.15)
			)
		)
	)
	(property "Value" "hrs-dm3cs"
		(at 0 0.8 0)
		(layer "F.Fab")
		(uuid "7f80d3b3-81f5-4fb4-955c-1fa085358879")
		(effects
			(font
				(size 1 1)
				(thickness 0.15)
			)
		)
	)
	(property "Footprint" ""
		(at 0 0 0)
		(layer "F.Fab")
		(hide yes)
		(uuid "5398830e-68b5-45d2-9e46-08b7b2768b9d")
		(effects
			(font
				(size 1.27 1.27)
				(thickness 0.15)
			)
		)
	)
	(property "Datasheet" ""
		(at 0 0 0)
		(layer "F.Fab")
		(hide yes)
		(uuid "d7986e41-649f-4669-8569-ceea1067a0b8")
		(effects
			(font
				(size 1.27 1.27)
				(thickness 0.15)
			)
		)
	)
	(property "Description" ""
		(at 0 0 0)
		(layer "F.Fab")
		(hide yes)
		(uuid "dee00794-f5a8-4be1-907e-d3c7f988635b")
		(effects
			(font
				(size 1.27 1.27)
				(thickness 0.15)
			)
		)
	)
	(attr smd)
	(fp_line
		(start -7 -7.2)
		(end -5 -7.2)
		(stroke
			(width 0.12)
			(type solid)
		)
		(layer "F.SilkS")
		(uuid "9e0a9e80-88c4-4a2c-a2a8-93fe9a72674c")
	)
	(fp_line
		(start -7 0.6)
		(end -7 -7.2)
		(stroke
			(width 0.12)
			(type solid)
		)
		(layer "F.SilkS")
		(uuid "33b526a5-3e20-49d7-9642-c9797b75fc47")
	)
	(fp_line
		(start -1.6 -7.2)
		(end -0.1 -7.2)
		(stroke
			(width 0.12)
			(type solid)
		)
		(layer "F.SilkS")
		(uuid "d08c50d0-cb1b-4bbd-a8a4-81a9af0934ae")
	)
	(fp_line
		(start 3.3 -7.2)
		(end 3.7 -7.2)
		(stroke
			(width 0.12)
			(type solid)
		)
		(layer "F.SilkS")
		(uuid "fd02a744-5914-4f2d-889a-077284959875")
	)
	(fp_line
		(start 7 -7.2)
		(end 5.6 -7.2)
		(stroke
			(width 0.12)
			(type solid)
		)
		(layer "F.SilkS")
		(uuid "27d13689-e6f3-4d95-8977-cad2142d64b8")
	)
	(fp_line
		(start 7 0.6)
		(end 7 -7.2)
		(stroke
			(width 0.12)
			(type solid)
		)
		(layer "F.SilkS")
		(uuid "5ccbbc2f-657a-4ccd-8f11-e3513724a6fd")
	)
	(fp_arc
		(start -6 6.8)
		(mid -5.698667 6.704719)
		(end -5.395894 6.614118)
		(stroke
			(width 0.12)
			(type solid)
		)
		(layer "F.SilkS")
		(uuid "1b360fec-e6e2-460d-a7d5-888750eed856")
	)
	(fp_arc
		(start 3.7 6.2)
		(mid 4.608541 6.375861)
		(end 5.508117 6.592973)
		(stroke
			(width 0.12)
			(type solid)
		)
		(layer "F.SilkS")
		(uuid "1dbba35b-9a00-4b69-bcd4-8db1f11be904")
	)
	(fp_poly
		(pts
			(xy -7.1 0.5) (xy -6.5 0.5) (xy -6.5 4.3) (xy -7.1 4.3)
		)
		(stroke
			(width 0.1)
			(type solid)
		)
		(fill solid)
		(layer "F.SilkS")
		(uuid "3adb1496-5ebd-4522-80e1-3088d174789e")
	)
	(fp_poly
		(pts
			(xy -5.25 -4.3) (xy 3.55 -4.3) (xy 3.55 -1.8) (xy -5.25 -1.8)
		)
		(stroke
			(width 0.12)
			(type solid)
		)
		(fill solid)
		(layer "F.SilkS")
		(uuid "ca31d2f3-7452-4c14-b37f-84025598b00b")
	)
	(fp_poly
		(pts
			(xy 6.5 0.5) (xy 7.1 0.5) (xy 7.1 4.3) (xy 6.5 4.3)
		)
		(stroke
			(width 0.1)
			(type solid)
		)
		(fill solid)
		(layer "F.SilkS")
		(uuid "734e66de-90b5-45a3-a89c-89278f1e212c")
	)
	(fp_line
		(start -7.26 -7.29)
		(end -7.26 10.13)
		(stroke
			(width 0.05)
			(type solid)
		)
		(layer "F.CrtYd")
		(uuid "955044ee-7cc1-49b3-afff-98b6490a3e4b")
	)
	(fp_line
		(start -7.26 10.13)
		(end 7.36 10.13)
		(stroke
			(width 0.05)
			(type solid)
		)
		(layer "F.CrtYd")
		(uuid "d997bae6-daa7-4cc5-a642-b2cad7441c68")
	)
	(fp_line
		(start 7.36 -7.29)
		(end -7.26 -7.29)
		(stroke
			(width 0.05)
			(type solid)
		)
		(layer "F.CrtYd")
		(uuid "c87a14dd-566a-4c1e-b08a-ffe7e9d164ac")
	)
	(fp_line
		(start 7.36 10.13)
		(end 7.36 -7.29)
		(stroke
			(width 0.05)
			(type solid)
		)
		(layer "F.CrtYd")
		(uuid "00a76187-ca2b-4aa8-82af-3022361463f4")
	)
	(fp_line
		(start -7.2 -7.2)
		(end -7.2 7.2)
		(stroke
			(width 0.1)
			(type solid)
		)
		(layer "F.Fab")
		(uuid "5bbfbb31-d340-4922-a9e1-d641d1e779f8")
	)
	(fp_line
		(start -7.2 7.2)
		(end 7.3 7.2)
		(stroke
			(width 0.1)
			(type solid)
		)
		(layer "F.Fab")
		(uuid "3b7d987b-7e6a-41ab-9c34-bb550e863aaf")
	)
	(fp_line
		(start 7.3 -7.2)
		(end -7.2 -7.2)
		(stroke
			(width 0.1)
			(type solid)
		)
		(layer "F.Fab")
		(uuid "a6e27bed-de13-4301-8969-087688dc1b55")
	)
	(fp_line
		(start 7.3 7.2)
		(end 7.3 -7.2)
		(stroke
			(width 0.1)
			(type solid)
		)
		(layer "F.Fab")
		(uuid "6e6e210b-daed-4c43-baa6-7e3a1946a4ae")
	)
	(fp_text user "${REFERENCE}"
		(at -2.1 2.6 0)
		(layer "F.Fab")
		(uuid "9e7cc8eb-554b-45f9-803a-0e51ee392f16")
		(effects
			(font
				(size 1 1)
				(thickness 0.15)
			)
		)
	)
	(pad "" smd rect
		(at -6.8 5.7)
		(size 1 2.6)
		(layers "F.Cu" "F.Paste" "F.Mask")
		(uuid "bc9178e3-b4e7-43c7-98c3-97314f4b7e85")
	)
	(pad "" smd rect
		(at -3.3 -6.5)
		(size 2.7 1.4)
		(layers "F.Cu" "F.Paste" "F.Mask")
		(uuid "c981078c-6b09-47de-b0f0-df84e2ff85d2")
	)
	(pad "" smd rect
		(at 1.6 -6.5)
		(size 2.7 1.4)
		(layers "F.Cu" "F.Paste" "F.Mask")
		(uuid "10eb5a7e-5584-46b0-af38-c6fa2f74b4a0")
	)
	(pad "" smd rect
		(at 4.65 -6.6)
		(size 1.2 1.2)
		(layers "F.Cu" "F.Paste" "F.Mask")
		(uuid "841c4031-3ec1-4e59-b4c3-9cdf2b4da121")
	)
	(pad "" smd rect
		(at 6.55 5.7)
		(size 1.5 2.6)
		(layers "F.Cu" "F.Paste" "F.Mask")
		(uuid "c740a00e-4367-4b27-9b23-c6fe4b236b6e")
	)
	(pad "1" smd rect
		(at 3 6.2)
		(size 0.7 2)
		(layers "F.Cu" "F.Paste" "F.Mask")
		(uuid "4e63438a-efd5-43a8-8715-5bbbee69fa99")
	)
	(pad "2" smd rect
		(at 1.9 6.2)
		(size 0.7 2)
		(layers "F.Cu" "F.Paste" "F.Mask")
		(uuid "a5eb7ee2-935a-4b6e-a3b0-8f96329d19b3")
	)
	(pad "3" smd rect
		(at 0.8 6.2)
		(size 0.7 2)
		(layers "F.Cu" "F.Paste" "F.Mask")
		(uuid "449c62c6-36b9-41c4-9734-b0a8672e3936")
	)
	(pad "4" smd rect
		(at -0.3 6.2)
		(size 0.7 2)
		(layers "F.Cu" "F.Paste" "F.Mask")
		(uuid "aef727d6-d5de-4509-8562-485ca8f7e684")
	)
	(pad "5" smd rect
		(at -1.4 6.2)
		(size 0.7 2)
		(layers "F.Cu" "F.Paste" "F.Mask")
		(uuid "102d761a-a04d-4bdb-b9ce-1020caa4bd43")
	)
	(pad "6" smd rect
		(at -2.5 6.2)
		(size 0.7 2)
		(layers "F.Cu" "F.Paste" "F.Mask")
		(uuid "78c712d8-743d-4a6d-8662-2c2dd36cd008")
	)
	(pad "7" smd rect
		(at -3.6 6.2)
		(size 0.7 2)
		(layers "F.Cu" "F.Paste" "F.Mask")
		(uuid "8117a6c6-94e2-4bbe-966f-d0207bb4fe50")
	)
	(pad "8" smd rect
		(at -4.7 6.2)
		(size 0.7 2)
		(layers "F.Cu" "F.Paste" "F.Mask")
		(uuid "16ce50ec-3b06-4775-8122-6605b07878d6")
	)
	(model "${LSF_KICAD_LIB}/lsf-kicad-lib.3dshapes/hrs-dm3cs.wrl"
		(offset
			(xyz 0 0 0)
		)
		(scale
			(xyz 1 1 1)
		)
		(rotate
			(xyz 0 0 0)
		)
	)
)
