(footprint "hrs-df11-10dp-2dsa"
	(version 20240108)
	(generator "pcbnew")
	(generator_version "8.0")
	(layer "F.Cu")
	(descr "Hirose DF11, https://www.hirose.com/product/en/download_file/key_name/DF11-10DP-2DSA%2801%29/category/Catalog/doc_file_id/31688/?file_category_id=5&item_id=05430520001&is_series=")
	(tags "Hirose")
	(property "Reference" "REF**"
		(at -8 -4.5 0)
		(layer "F.SilkS")
		(uuid "5fa75f64-8db5-47b2-b5a2-194c89a17095")
		(effects
			(font
				(size 1 1)
				(thickness 0.15)
			)
		)
	)
	(property "Value" "hrs-df11-10dp-2dsa"
		(at -4 2.5 0)
		(layer "F.Fab")
		(uuid "61c0d521-7bd0-4209-bf2c-a0124a298bdd")
		(effects
			(font
				(size 1 1)
				(thickness 0.15)
			)
		)
	)
	(property "Footprint" ""
		(at 0 0 0)
		(layer "F.Fab")
		(hide yes)
		(uuid "30fb3a2a-6d12-4de9-afda-9244c8a99919")
		(effects
			(font
				(size 1.27 1.27)
				(thickness 0.15)
			)
		)
	)
	(property "Datasheet" ""
		(at 0 0 0)
		(layer "F.Fab")
		(hide yes)
		(uuid "63416f26-d9ac-48d9-a32f-60b8850eee9e")
		(effects
			(font
				(size 1.27 1.27)
				(thickness 0.15)
			)
		)
	)
	(property "Description" ""
		(at 0 0 0)
		(layer "F.Fab")
		(hide yes)
		(uuid "2df9139e-7c75-489f-9c01-94b9a17a9228")
		(effects
			(font
				(size 1.27 1.27)
				(thickness 0.15)
			)
		)
	)
	(attr through_hole)
	(fp_line
		(start -10 -3.5)
		(end 2 -3.5)
		(stroke
			(width 0.12)
			(type solid)
		)
		(layer "F.SilkS")
		(uuid "13a539f1-a4b3-4464-a7fa-5258cb96ba6e")
	)
	(fp_line
		(start -10 -2.5)
		(end -9.5 -2.5)
		(stroke
			(width 0.12)
			(type solid)
		)
		(layer "F.SilkS")
		(uuid "05aefad8-efb8-47db-a479-a1a8852c4e42")
	)
	(fp_line
		(start -10 1.5)
		(end -10 -3.5)
		(stroke
			(width 0.12)
			(type solid)
		)
		(layer "F.SilkS")
		(uuid "3cf0a46d-6a75-46d2-bbbb-047afd5d56d3")
	)
	(fp_line
		(start -10 1.5)
		(end 2 1.5)
		(stroke
			(width 0.12)
			(type solid)
		)
		(layer "F.SilkS")
		(uuid "409653ee-2218-414d-9f85-c1938c38f5d1")
	)
	(fp_line
		(start -9.5 -2.5)
		(end -9.5 -1)
		(stroke
			(width 0.12)
			(type solid)
		)
		(layer "F.SilkS")
		(uuid "0a6854cc-0fad-4cfb-8046-82f42180a00d")
	)
	(fp_line
		(start -9.5 -1)
		(end -10 -1)
		(stroke
			(width 0.12)
			(type solid)
		)
		(layer "F.SilkS")
		(uuid "f941110a-957c-4222-9700-f2baed5cdc64")
	)
	(fp_line
		(start 1.5 -2.5)
		(end 1.5 -1)
		(stroke
			(width 0.12)
			(type solid)
		)
		(layer "F.SilkS")
		(uuid "bdf79b6a-f19a-4627-a572-85be6135d720")
	)
	(fp_line
		(start 1.5 -1)
		(end 2 -1)
		(stroke
			(width 0.12)
			(type solid)
		)
		(layer "F.SilkS")
		(uuid "c22d6e99-1eb8-4667-9fb0-5b56fd31f722")
	)
	(fp_line
		(start 2 -3.5)
		(end 2 1.5)
		(stroke
			(width 0.12)
			(type solid)
		)
		(layer "F.SilkS")
		(uuid "bf8c06ec-b539-4540-9818-e01869418161")
	)
	(fp_line
		(start 2 -2.5)
		(end 1.5 -2.5)
		(stroke
			(width 0.12)
			(type solid)
		)
		(layer "F.SilkS")
		(uuid "9e0c5cd6-ee37-4a41-b46e-79abea58d5a2")
	)
	(fp_line
		(start -10.1 -3.6)
		(end 2.1 -3.6)
		(stroke
			(width 0.05)
			(type solid)
		)
		(layer "F.CrtYd")
		(uuid "37dcdf18-7765-435f-b055-be7c9e793544")
	)
	(fp_line
		(start -10.1 1.6)
		(end -10.1 -3.6)
		(stroke
			(width 0.05)
			(type solid)
		)
		(layer "F.CrtYd")
		(uuid "7c31edc7-3ecb-4d59-a87b-bce8cc434987")
	)
	(fp_line
		(start 2.1 -3.6)
		(end 2.1 1.6)
		(stroke
			(width 0.05)
			(type solid)
		)
		(layer "F.CrtYd")
		(uuid "7df90df4-a5df-416e-812d-1088d0afb245")
	)
	(fp_line
		(start 2.1 1.6)
		(end -10.1 1.6)
		(stroke
			(width 0.05)
			(type solid)
		)
		(layer "F.CrtYd")
		(uuid "ebbc9a36-821b-43a6-9c21-d21cc14e9cf1")
	)
	(fp_line
		(start -10 -3.5)
		(end 2 -3.5)
		(stroke
			(width 0.1)
			(type solid)
		)
		(layer "F.Fab")
		(uuid "c377ac24-7c87-44ca-bdfa-0b7a7a004c07")
	)
	(fp_line
		(start -10 1.5)
		(end -10 -3.5)
		(stroke
			(width 0.1)
			(type solid)
		)
		(layer "F.Fab")
		(uuid "a75097f1-6355-40e5-8b24-d3bc9010c500")
	)
	(fp_line
		(start 2 -3.5)
		(end 2 1.5)
		(stroke
			(width 0.1)
			(type solid)
		)
		(layer "F.Fab")
		(uuid "974ad6ad-6805-4f70-97da-4473f2d2c12c")
	)
	(fp_line
		(start 2 1.5)
		(end -10 1.5)
		(stroke
			(width 0.1)
			(type solid)
		)
		(layer "F.Fab")
		(uuid "9384b833-8fec-4342-b00c-134f870c4e91")
	)
	(fp_text user "${REFERENCE}"
		(at -8 -4.5 0)
		(layer "F.Fab")
		(uuid "bd307da3-eb1e-4aec-8a28-049f006ae6ba")
		(effects
			(font
				(size 1 1)
				(thickness 0.15)
			)
		)
	)
	(pad "1" thru_hole rect
		(at 0 0)
		(size 1.3 1.3)
		(drill 0.8)
		(layers "*.Cu" "*.Mask")
		(remove_unused_layers no)
		(uuid "e1e3d175-8422-49dc-925b-d44e0e88b053")
	)
	(pad "2" thru_hole circle
		(at 0 -2)
		(size 1.3 1.3)
		(drill 0.8)
		(layers "*.Cu" "*.Mask")
		(remove_unused_layers no)
		(uuid "4df5ed86-2a7f-4038-b924-6db1d98e5d44")
	)
	(pad "3" thru_hole circle
		(at -2 0)
		(size 1.3 1.3)
		(drill 0.8)
		(layers "*.Cu" "*.Mask")
		(remove_unused_layers no)
		(uuid "f406cbac-6645-4491-bd9a-d8eddba56945")
	)
	(pad "4" thru_hole circle
		(at -2 -2)
		(size 1.3 1.3)
		(drill 0.8)
		(layers "*.Cu" "*.Mask")
		(remove_unused_layers no)
		(uuid "910769fb-9804-4044-9d1b-f808260ae5dc")
	)
	(pad "5" thru_hole circle
		(at -4 0)
		(size 1.3 1.3)
		(drill 0.8)
		(layers "*.Cu" "*.Mask")
		(remove_unused_layers no)
		(uuid "06325e31-59fe-4dfe-9076-b3058be252fd")
	)
	(pad "6" thru_hole circle
		(at -4 -2)
		(size 1.3 1.3)
		(drill 0.8)
		(layers "*.Cu" "*.Mask")
		(remove_unused_layers no)
		(uuid "0d815bf1-1a51-49ef-ac62-9373191dced7")
	)
	(pad "7" thru_hole circle
		(at -6 0)
		(size 1.3 1.3)
		(drill 0.8)
		(layers "*.Cu" "*.Mask")
		(remove_unused_layers no)
		(uuid "9263d1f9-a266-4ae0-ab0d-23b62881e735")
	)
	(pad "8" thru_hole circle
		(at -6 -2)
		(size 1.3 1.3)
		(drill 0.8)
		(layers "*.Cu" "*.Mask")
		(remove_unused_layers no)
		(uuid "560470f0-a345-41cf-8238-f8a3c8ec9bdd")
	)
	(pad "9" thru_hole circle
		(at -8 0)
		(size 1.3 1.3)
		(drill 0.8)
		(layers "*.Cu" "*.Mask")
		(remove_unused_layers no)
		(uuid "5693f7b5-80f9-4cfd-8476-eaa7fe156a85")
	)
	(pad "10" thru_hole circle
		(at -8 -2)
		(size 1.3 1.3)
		(drill 0.8)
		(layers "*.Cu" "*.Mask")
		(remove_unused_layers no)
		(uuid "56b688ae-2a90-4deb-ab94-eaf09924b8a3")
	)
	(model "${LSF_KICAD_LIB}/lsf-kicad-lib.3dshapes/hrs-df11-10dp-2dsa.wrl"
		(offset
			(xyz 0 0 0)
		)
		(scale
			(xyz 1 1 1)
		)
		(rotate
			(xyz 0 0 0)
		)
	)
)
