(footprint "hrs-fx8c-60p-sv"
	(version 20240108)
	(generator "pcbnew")
	(generator_version "8.0")
	(layer "F.Cu")
	(descr "Hirose FX8C, https://www.hirose.com/product/en/download_file/key_name/FX8C-60P-SV%2893%29/category/Catalog/doc_file_id/31612/?file_category_id=5&item_id=05780501993&is_series=")
	(tags "Plug")
	(property "Reference" "REF**"
		(at 0.1 -5 0)
		(layer "F.SilkS")
		(uuid "0b6f9635-4951-484c-8b50-494957f2e196")
		(effects
			(font
				(size 1 1)
				(thickness 0.15)
			)
		)
	)
	(property "Value" "hrs-fx8c-60p-sv"
		(at 0.1 4.75 0)
		(layer "F.Fab")
		(uuid "fe707287-e38e-42f5-b0a8-8fcbdde955d5")
		(effects
			(font
				(size 1 1)
				(thickness 0.15)
			)
		)
	)
	(property "Footprint" ""
		(at 0 0 0)
		(layer "F.Fab")
		(hide yes)
		(uuid "af316ed9-313d-4b75-97a2-292686739f6f")
		(effects
			(font
				(size 1.27 1.27)
				(thickness 0.15)
			)
		)
	)
	(property "Datasheet" ""
		(at 0 0 0)
		(layer "F.Fab")
		(hide yes)
		(uuid "94872ed8-25a1-4fb8-b81f-3e610b4a65ff")
		(effects
			(font
				(size 1.27 1.27)
				(thickness 0.15)
			)
		)
	)
	(property "Description" ""
		(at 0 0 0)
		(layer "F.Fab")
		(hide yes)
		(uuid "215cb953-bb14-4998-abdc-e1c7a445404d")
		(effects
			(font
				(size 1.27 1.27)
				(thickness 0.15)
			)
		)
	)
	(attr smd)
	(fp_line
		(start -12.65 -3)
		(end -12.65 1.75)
		(stroke
			(width 0.12)
			(type solid)
		)
		(layer "F.SilkS")
		(uuid "b75aeffb-592b-4905-aba8-2c4f1e73c6cf")
	)
	(fp_line
		(start -11.4 3)
		(end -12.65 1.75)
		(stroke
			(width 0.12)
			(type solid)
		)
		(layer "F.SilkS")
		(uuid "5247bfd5-dd2c-4445-8a7f-a018c369f7e4")
	)
	(fp_line
		(start -11.4 3)
		(end -9.4 3)
		(stroke
			(width 0.12)
			(type solid)
		)
		(layer "F.SilkS")
		(uuid "ed3e1b5b-e932-4ef4-88c4-e73cac975883")
	)
	(fp_line
		(start -9.4 -3)
		(end -12.65 -3)
		(stroke
			(width 0.12)
			(type solid)
		)
		(layer "F.SilkS")
		(uuid "b6c6dcae-f90c-4add-8d86-b1e79d44308c")
	)
	(fp_line
		(start 0.1 0)
		(end -0.9 0)
		(stroke
			(width 0.12)
			(type solid)
		)
		(layer "F.SilkS")
		(uuid "ebd0f435-75ad-47fb-8d74-f80eebfead9c")
	)
	(fp_line
		(start 0.1 0)
		(end 0.1 -0.5)
		(stroke
			(width 0.12)
			(type solid)
		)
		(layer "F.SilkS")
		(uuid "372e4f66-8b5e-44c9-8bfd-4e311f3b5cfc")
	)
	(fp_line
		(start 0.1 0)
		(end 0.1 0.5)
		(stroke
			(width 0.12)
			(type solid)
		)
		(layer "F.SilkS")
		(uuid "320adcd0-122a-4fa0-bc01-a27136788a60")
	)
	(fp_line
		(start 0.1 0)
		(end 1.1 0)
		(stroke
			(width 0.12)
			(type solid)
		)
		(layer "F.SilkS")
		(uuid "4030fd89-3546-45a7-b178-bf0a1a13055b")
	)
	(fp_line
		(start 9.6 -3)
		(end 12.85 -3)
		(stroke
			(width 0.12)
			(type solid)
		)
		(layer "F.SilkS")
		(uuid "6b39715d-3db6-482f-9fce-3f59abf7ecd9")
	)
	(fp_line
		(start 12.85 -3)
		(end 12.85 3)
		(stroke
			(width 0.12)
			(type solid)
		)
		(layer "F.SilkS")
		(uuid "a7990d19-0ad4-4e51-b517-791e87f54011")
	)
	(fp_line
		(start 12.85 3)
		(end 9.6 3)
		(stroke
			(width 0.12)
			(type solid)
		)
		(layer "F.SilkS")
		(uuid "a1c6eced-8706-41ed-bbc2-4d99197a94e6")
	)
	(fp_line
		(start -12.75 -3.55)
		(end 12.95 -3.55)
		(stroke
			(width 0.05)
			(type solid)
		)
		(layer "F.CrtYd")
		(uuid "86960ce4-3c6d-4ae1-9678-33eaa34b2291")
	)
	(fp_line
		(start -12.75 3.5)
		(end -12.75 -3.55)
		(stroke
			(width 0.05)
			(type solid)
		)
		(layer "F.CrtYd")
		(uuid "bdbfc68c-0f4f-458b-8820-a205f4f33d69")
	)
	(fp_line
		(start 12.95 -3.55)
		(end 12.95 3.5)
		(stroke
			(width 0.05)
			(type solid)
		)
		(layer "F.CrtYd")
		(uuid "9c50238a-f639-4f71-8b29-16cad82f7963")
	)
	(fp_line
		(start 12.95 3.5)
		(end -12.75 3.5)
		(stroke
			(width 0.05)
			(type solid)
		)
		(layer "F.CrtYd")
		(uuid "94e2544c-b3f9-4ba8-b2cf-e3a5ef106d3f")
	)
	(fp_line
		(start -12.65 -3)
		(end -12.65 1.75)
		(stroke
			(width 0.1)
			(type solid)
		)
		(layer "F.Fab")
		(uuid "428a143b-a84d-4859-9e21-f232a1e1f250")
	)
	(fp_line
		(start -12.65 1.75)
		(end -11.4 3)
		(stroke
			(width 0.1)
			(type solid)
		)
		(layer "F.Fab")
		(uuid "2e7ba418-735e-44f9-a7d4-a4e1bb697b91")
	)
	(fp_line
		(start -11.4 3)
		(end 12.85 3)
		(stroke
			(width 0.1)
			(type solid)
		)
		(layer "F.Fab")
		(uuid "4de40ed7-21a6-4509-8090-cf589d6d21cc")
	)
	(fp_line
		(start 12.85 -3)
		(end -12.65 -3)
		(stroke
			(width 0.1)
			(type solid)
		)
		(layer "F.Fab")
		(uuid "0b76ec93-d65f-434d-a98d-8e9fd61168e8")
	)
	(fp_line
		(start 12.85 3)
		(end 12.85 -3)
		(stroke
			(width 0.1)
			(type solid)
		)
		(layer "F.Fab")
		(uuid "78ab4fbf-6795-4c21-972d-6fa04667fecc")
	)
	(fp_text user "${REFERENCE}"
		(at 0.1 -5 0)
		(layer "F.Fab")
		(uuid "5240bab3-1481-45a1-862f-a93c94ec1d8d")
		(effects
			(font
				(size 1 1)
				(thickness 0.15)
			)
		)
	)
	(pad "" np_thru_hole circle
		(at -11 1.5)
		(size 1.1 1.1)
		(drill 1.1)
		(layers "*.Cu" "*.Mask" "F.SilkS")
		(uuid "e25aab96-b99a-4142-8e7f-17f7445dce2f")
	)
	(pad "" np_thru_hole circle
		(at 11.2 1.5)
		(size 0.7 0.7)
		(drill 0.7)
		(layers "*.Cu" "*.Mask" "F.SilkS")
		(uuid "11a50de8-119d-4438-96ec-6b3cb0a896f4")
	)
	(pad "1" smd rect
		(at -8.6 2.25)
		(size 0.35 2.5)
		(layers "F.Cu" "F.Paste" "F.Mask")
		(uuid "ede03278-771a-4fb5-a391-852823277d9e")
	)
	(pad "2" smd rect
		(at -8 2.25)
		(size 0.35 2.5)
		(layers "F.Cu" "F.Paste" "F.Mask")
		(uuid "93794b8b-054d-4fcb-adc1-327c242b52cc")
	)
	(pad "3" smd rect
		(at -7.4 2.25)
		(size 0.35 2.5)
		(layers "F.Cu" "F.Paste" "F.Mask")
		(uuid "d1cc5972-bdd2-4aec-bd3a-3ec4657f630a")
	)
	(pad "4" smd rect
		(at -6.8 2.25)
		(size 0.35 2.5)
		(layers "F.Cu" "F.Paste" "F.Mask")
		(uuid "fac29f71-a7ca-451b-91c5-cd53126cee9f")
	)
	(pad "5" smd rect
		(at -6.2 2.25)
		(size 0.35 2.5)
		(layers "F.Cu" "F.Paste" "F.Mask")
		(uuid "ea490ab3-2845-4b53-8a93-a6922ffc1c1c")
	)
	(pad "6" smd rect
		(at -5.6 2.25)
		(size 0.35 2.5)
		(layers "F.Cu" "F.Paste" "F.Mask")
		(uuid "84637b51-dba7-4a01-8b0e-309347d3c00c")
	)
	(pad "7" smd rect
		(at -5 2.25)
		(size 0.35 2.5)
		(layers "F.Cu" "F.Paste" "F.Mask")
		(uuid "2653436f-6171-4795-8d6c-8a075a870bbe")
	)
	(pad "8" smd rect
		(at -4.4 2.25)
		(size 0.35 2.5)
		(layers "F.Cu" "F.Paste" "F.Mask")
		(uuid "f3a319dd-415c-4bde-ac03-1e623ddf10f9")
	)
	(pad "9" smd rect
		(at -3.8 2.25)
		(size 0.35 2.5)
		(layers "F.Cu" "F.Paste" "F.Mask")
		(uuid "5a89d359-dc42-496c-94c1-4624e1509fd5")
	)
	(pad "10" smd rect
		(at -3.2 2.25)
		(size 0.35 2.5)
		(layers "F.Cu" "F.Paste" "F.Mask")
		(uuid "42968dbc-f5ea-49cf-9d0d-15b53cc367e5")
	)
	(pad "11" smd rect
		(at -2.6 2.25)
		(size 0.35 2.5)
		(layers "F.Cu" "F.Paste" "F.Mask")
		(uuid "1c110a1d-2133-40d0-95cc-d155076f579a")
	)
	(pad "12" smd rect
		(at -2 2.25)
		(size 0.35 2.5)
		(layers "F.Cu" "F.Paste" "F.Mask")
		(uuid "af7632b7-cf01-4f74-b9a8-726fbdc49e7d")
	)
	(pad "13" smd rect
		(at -1.4 2.25)
		(size 0.35 2.5)
		(layers "F.Cu" "F.Paste" "F.Mask")
		(uuid "b4cddbfb-955a-41e7-8f1d-e601c75a9253")
	)
	(pad "14" smd rect
		(at -0.8 2.25)
		(size 0.35 2.5)
		(layers "F.Cu" "F.Paste" "F.Mask")
		(uuid "737720c8-5279-403c-b80b-73a490b1fb15")
	)
	(pad "15" smd rect
		(at -0.2 2.25)
		(size 0.35 2.5)
		(layers "F.Cu" "F.Paste" "F.Mask")
		(uuid "b2f9e47d-8f11-430e-97ce-5430f05e576e")
	)
	(pad "16" smd rect
		(at 0.4 2.25)
		(size 0.35 2.5)
		(layers "F.Cu" "F.Paste" "F.Mask")
		(uuid "594362bc-8e0d-4c09-ba1f-9f956571c526")
	)
	(pad "17" smd rect
		(at 1 2.25)
		(size 0.35 2.5)
		(layers "F.Cu" "F.Paste" "F.Mask")
		(uuid "5de9dcb5-91df-42f0-acb5-873e67ab6c4f")
	)
	(pad "18" smd rect
		(at 1.6 2.25)
		(size 0.35 2.5)
		(layers "F.Cu" "F.Paste" "F.Mask")
		(uuid "a244c61e-82b9-450c-a870-e7d8be490604")
	)
	(pad "19" smd rect
		(at 2.2 2.25)
		(size 0.35 2.5)
		(layers "F.Cu" "F.Paste" "F.Mask")
		(uuid "6dd0eb03-eed5-49bc-bf3e-190ec5b519cd")
	)
	(pad "20" smd rect
		(at 2.8 2.25)
		(size 0.35 2.5)
		(layers "F.Cu" "F.Paste" "F.Mask")
		(uuid "40407d17-b6a4-4dba-8b33-19f89893658a")
	)
	(pad "21" smd rect
		(at 3.4 2.25)
		(size 0.35 2.5)
		(layers "F.Cu" "F.Paste" "F.Mask")
		(uuid "63d4029b-d31a-42fe-9a48-0dad8e86b2b1")
	)
	(pad "22" smd rect
		(at 4 2.25)
		(size 0.35 2.5)
		(layers "F.Cu" "F.Paste" "F.Mask")
		(uuid "bf43da19-65af-4ab8-bf6b-38a94a67fe3f")
	)
	(pad "23" smd rect
		(at 4.6 2.25)
		(size 0.35 2.5)
		(layers "F.Cu" "F.Paste" "F.Mask")
		(uuid "83767621-283d-447f-b687-3336e6bf3f8d")
	)
	(pad "24" smd rect
		(at 5.2 2.25)
		(size 0.35 2.5)
		(layers "F.Cu" "F.Paste" "F.Mask")
		(uuid "2088a90c-5c9d-40b7-a635-b6945daf0d17")
	)
	(pad "25" smd rect
		(at 5.8 2.25)
		(size 0.35 2.5)
		(layers "F.Cu" "F.Paste" "F.Mask")
		(uuid "fd5d731a-8b41-4cef-b1bd-787cb0355780")
	)
	(pad "26" smd rect
		(at 6.4 2.25)
		(size 0.35 2.5)
		(layers "F.Cu" "F.Paste" "F.Mask")
		(uuid "40644e2e-971b-43c4-9acc-e31cfe77936c")
	)
	(pad "27" smd rect
		(at 7 2.25)
		(size 0.35 2.5)
		(layers "F.Cu" "F.Paste" "F.Mask")
		(uuid "98774a7f-ad28-46d7-9630-fc14bdda7c3c")
	)
	(pad "28" smd rect
		(at 7.6 2.25)
		(size 0.35 2.5)
		(layers "F.Cu" "F.Paste" "F.Mask")
		(uuid "4952a13a-0ad7-4414-a459-3a76a61dab76")
	)
	(pad "29" smd rect
		(at 8.2 2.25)
		(size 0.35 2.5)
		(layers "F.Cu" "F.Paste" "F.Mask")
		(uuid "e29b5ba8-80f8-4fc2-aa3a-935317e7b8d5")
	)
	(pad "30" smd rect
		(at 8.8 2.25)
		(size 0.35 2.5)
		(layers "F.Cu" "F.Paste" "F.Mask")
		(uuid "23ca2ac7-14de-4e83-9737-7f6217f4b3ef")
	)
	(pad "31" smd rect
		(at 8.8 -2.25)
		(size 0.35 2.5)
		(layers "F.Cu" "F.Paste" "F.Mask")
		(uuid "7cd71ef4-cba2-46cd-8d16-09942fc5e542")
	)
	(pad "32" smd rect
		(at 8.2 -2.25)
		(size 0.35 2.5)
		(layers "F.Cu" "F.Paste" "F.Mask")
		(uuid "551cb52f-8a53-4954-ac03-edc5b0629cd7")
	)
	(pad "33" smd rect
		(at 7.6 -2.25)
		(size 0.35 2.5)
		(layers "F.Cu" "F.Paste" "F.Mask")
		(uuid "eddaf888-0938-47de-9c58-0f825b0bc169")
	)
	(pad "34" smd rect
		(at 7 -2.25)
		(size 0.35 2.5)
		(layers "F.Cu" "F.Paste" "F.Mask")
		(uuid "14064a49-3f68-42c2-bafe-1ef568b83b5b")
	)
	(pad "35" smd rect
		(at 6.4 -2.25)
		(size 0.35 2.5)
		(layers "F.Cu" "F.Paste" "F.Mask")
		(uuid "9c9da1ea-f1e0-4db3-87bd-d615aa39bace")
	)
	(pad "36" smd rect
		(at 5.8 -2.25)
		(size 0.35 2.5)
		(layers "F.Cu" "F.Paste" "F.Mask")
		(uuid "4bdafe04-1732-4d44-b1fa-3a5d8901a672")
	)
	(pad "37" smd rect
		(at 5.2 -2.25)
		(size 0.35 2.5)
		(layers "F.Cu" "F.Paste" "F.Mask")
		(uuid "c8ff9880-faf1-44ba-942e-b1228f910ab1")
	)
	(pad "38" smd rect
		(at 4.6 -2.25)
		(size 0.35 2.5)
		(layers "F.Cu" "F.Paste" "F.Mask")
		(uuid "2b1c6982-9c5a-4256-9dde-ab7a0fa4671f")
	)
	(pad "39" smd rect
		(at 4 -2.25)
		(size 0.35 2.5)
		(layers "F.Cu" "F.Paste" "F.Mask")
		(uuid "1a4ae061-754f-4264-81a1-66579929cfd1")
	)
	(pad "40" smd rect
		(at 3.4 -2.25)
		(size 0.35 2.5)
		(layers "F.Cu" "F.Paste" "F.Mask")
		(uuid "fa4ca640-8755-46d6-927f-659f1828d5f9")
	)
	(pad "41" smd rect
		(at 2.8 -2.25)
		(size 0.35 2.5)
		(layers "F.Cu" "F.Paste" "F.Mask")
		(uuid "2df27aee-769b-4fbd-b00f-b7d310b98659")
	)
	(pad "42" smd rect
		(at 2.2 -2.25)
		(size 0.35 2.5)
		(layers "F.Cu" "F.Paste" "F.Mask")
		(uuid "bc4a6035-ccb7-40e0-855a-4b0ef594bdd2")
	)
	(pad "43" smd rect
		(at 1.6 -2.25)
		(size 0.35 2.5)
		(layers "F.Cu" "F.Paste" "F.Mask")
		(uuid "391713cf-e663-45af-9a67-7927d40f57ce")
	)
	(pad "44" smd rect
		(at 1 -2.25)
		(size 0.35 2.5)
		(layers "F.Cu" "F.Paste" "F.Mask")
		(uuid "e21f1194-77bb-421f-9a3a-f94848a0ab1e")
	)
	(pad "45" smd rect
		(at 0.4 -2.25)
		(size 0.35 2.5)
		(layers "F.Cu" "F.Paste" "F.Mask")
		(uuid "5c5f4874-909d-4e36-94bc-68747b09806d")
	)
	(pad "46" smd rect
		(at -0.2 -2.25)
		(size 0.35 2.5)
		(layers "F.Cu" "F.Paste" "F.Mask")
		(uuid "cf3593d6-1294-4475-8d7a-46df5400bf75")
	)
	(pad "47" smd rect
		(at -0.8 -2.25)
		(size 0.35 2.5)
		(layers "F.Cu" "F.Paste" "F.Mask")
		(uuid "865f6d17-066d-451b-a023-3fe18554e418")
	)
	(pad "48" smd rect
		(at -1.4 -2.25)
		(size 0.35 2.5)
		(layers "F.Cu" "F.Paste" "F.Mask")
		(uuid "fcb95483-7b4d-4897-b22f-de54c79671c1")
	)
	(pad "49" smd rect
		(at -2 -2.25)
		(size 0.35 2.5)
		(layers "F.Cu" "F.Paste" "F.Mask")
		(uuid "e8b21d74-c5b5-40eb-846f-55c60ebf393c")
	)
	(pad "50" smd rect
		(at -2.6 -2.25)
		(size 0.35 2.5)
		(layers "F.Cu" "F.Paste" "F.Mask")
		(uuid "63bbc699-75ac-4f03-8d83-7fb6457b64f6")
	)
	(pad "51" smd rect
		(at -3.2 -2.25)
		(size 0.35 2.5)
		(layers "F.Cu" "F.Paste" "F.Mask")
		(uuid "2ac7b707-7da5-4f38-9b2a-5e7debab19bd")
	)
	(pad "52" smd rect
		(at -3.8 -2.25)
		(size 0.35 2.5)
		(layers "F.Cu" "F.Paste" "F.Mask")
		(uuid "309f9250-2dc2-436c-a361-44c65fe1fb62")
	)
	(pad "53" smd rect
		(at -4.4 -2.25)
		(size 0.35 2.5)
		(layers "F.Cu" "F.Paste" "F.Mask")
		(uuid "97e6b0f2-5207-4973-81ae-6f182fc12204")
	)
	(pad "54" smd rect
		(at -5 -2.25)
		(size 0.35 2.5)
		(layers "F.Cu" "F.Paste" "F.Mask")
		(uuid "1a4bf7e3-0c2d-4a43-8844-08d40ca74089")
	)
	(pad "55" smd rect
		(at -5.6 -2.25)
		(size 0.35 2.5)
		(layers "F.Cu" "F.Paste" "F.Mask")
		(uuid "fd68221e-c59e-4e7c-a5fa-be859f90c95c")
	)
	(pad "56" smd rect
		(at -6.2 -2.25)
		(size 0.35 2.5)
		(layers "F.Cu" "F.Paste" "F.Mask")
		(uuid "516703aa-8e74-44b1-9d12-9156b7146c57")
	)
	(pad "57" smd rect
		(at -6.8 -2.25)
		(size 0.35 2.5)
		(layers "F.Cu" "F.Paste" "F.Mask")
		(uuid "e1286adb-3da4-45fe-9111-f843513ad67d")
	)
	(pad "58" smd rect
		(at -7.4 -2.25)
		(size 0.35 2.5)
		(layers "F.Cu" "F.Paste" "F.Mask")
		(uuid "aad3eff0-3da7-4b45-9f7e-d38895e167d4")
	)
	(pad "59" smd rect
		(at -8 -2.25)
		(size 0.35 2.5)
		(layers "F.Cu" "F.Paste" "F.Mask")
		(uuid "ead98e34-ad88-4a0f-b537-0b2a0a7b748b")
	)
	(pad "60" smd rect
		(at -8.6 -2.25)
		(size 0.35 2.5)
		(layers "F.Cu" "F.Paste" "F.Mask")
		(uuid "3e180a5d-0e9b-4c50-89e2-4ddba5d70aaa")
	)
	(model "${LSF_KICAD_LIB}/lsf-kicad-lib.3dshapes/hrs-fx8c-60p-sv.wrl"
		(offset
			(xyz 0 0 0)
		)
		(scale
			(xyz 1 1 1)
		)
		(rotate
			(xyz 0 0 0)
		)
	)
)
