(footprint "HX1188ENL"
	(version 20240108)
	(generator "pcbnew")
	(generator_version "8.0")
	(layer "F.Cu")
	(descr "SMD-12.7mm-7.11mm-5.97mm, https://productfinder.pulseelectronics.com/api/open/part-attachments/datasheet/hx1198enlt")
	(tags "Transformers")
	(property "Reference" "REF**"
		(at 0 0 0)
		(unlocked yes)
		(layer "F.SilkS")
		(uuid "b60324ef-0f8b-4df1-8f27-055781f45975")
		(effects
			(font
				(size 1 1)
				(thickness 0.15)
			)
		)
	)
	(property "Value" "HX1188ENL"
		(at -0.01 -0.11 0)
		(unlocked yes)
		(layer "F.Fab")
		(uuid "8b718bcc-baea-4034-85de-1d3d69b1bb8d")
		(effects
			(font
				(size 1 1)
				(thickness 0.15)
			)
		)
	)
	(property "Footprint" ""
		(at 0 0 0)
		(layer "F.Fab")
		(hide yes)
		(uuid "360bf9f7-31bd-4f44-88f4-941a06d3cab6")
		(effects
			(font
				(size 1.27 1.27)
				(thickness 0.15)
			)
		)
	)
	(property "Datasheet" ""
		(at 0 0 0)
		(layer "F.Fab")
		(hide yes)
		(uuid "d83539ed-dc7e-45ca-889d-3cbc5bf1d976")
		(effects
			(font
				(size 1.27 1.27)
				(thickness 0.15)
			)
		)
	)
	(property "Description" ""
		(at 0 0 0)
		(layer "F.Fab")
		(hide yes)
		(uuid "29148461-e4a9-4d97-9d78-568d0411ba28")
		(effects
			(font
				(size 1.27 1.27)
				(thickness 0.15)
			)
		)
	)
	(attr smd)
	(fp_line
		(start -5.38 3.69)
		(end -5.38 5.56)
		(stroke
			(width 0.12)
			(type default)
		)
		(layer "F.SilkS")
		(uuid "64340b18-e138-414c-a9b9-547b4f735ee3")
	)
	(fp_line
		(start -5.375 5.56)
		(end -4.065 5.56)
		(stroke
			(width 0.12)
			(type default)
		)
		(layer "F.SilkS")
		(uuid "47b91808-754c-47e7-96c9-fa5de2e0c8dc")
	)
	(fp_rect
		(start 5 -5.25)
		(end -5 5.25)
		(stroke
			(width 0.05)
			(type default)
		)
		(fill none)
		(layer "F.CrtYd")
		(uuid "9023b402-3099-4dff-9d97-04da50f3d0dc")
	)
	(fp_rect
		(start 5 -5.25)
		(end -5 5.25)
		(stroke
			(width 0.1)
			(type default)
		)
		(fill none)
		(layer "F.Fab")
		(uuid "5cf6708d-ee55-4e51-bfae-da09d7ba78e0")
	)
	(fp_text user "${REFERENCE}"
		(at 0 0 0)
		(unlocked yes)
		(layer "F.Fab")
		(uuid "5cddd770-0092-4612-a31d-6bdc8f7eedf1")
		(effects
			(font
				(size 1 1)
				(thickness 0.15)
			)
		)
	)
	(pad "1" smd trapezoid
		(at -4.445 4.255)
		(size 0.76 1.65)
		(layers "F.Cu" "F.Paste" "F.Mask")
		(thermal_bridge_angle 45)
		(uuid "b50c9aed-d101-4fce-bd51-957cbcb8b8ff")
	)
	(pad "2" smd trapezoid
		(at -3.175 4.255)
		(size 0.76 1.65)
		(layers "F.Cu" "F.Paste" "F.Mask")
		(thermal_bridge_angle 45)
		(uuid "0aa8cd56-55de-4e00-8996-eebcbd7f3939")
	)
	(pad "3" smd trapezoid
		(at -1.905 4.255)
		(size 0.76 1.65)
		(layers "F.Cu" "F.Paste" "F.Mask")
		(thermal_bridge_angle 45)
		(uuid "413eea9b-3d84-42b9-93b4-307886d69b42")
	)
	(pad "4" smd trapezoid
		(at -0.635 4.255)
		(size 0.76 1.65)
		(layers "F.Cu" "F.Paste" "F.Mask")
		(thermal_bridge_angle 45)
		(uuid "e1abad35-5cb1-49b6-9b4d-97c99f07d453")
	)
	(pad "5" smd trapezoid
		(at 0.635 4.255)
		(size 0.76 1.65)
		(layers "F.Cu" "F.Paste" "F.Mask")
		(thermal_bridge_angle 45)
		(uuid "25bfec46-b32d-487c-ba75-6cc92a23063f")
	)
	(pad "6" smd trapezoid
		(at 1.905 4.255)
		(size 0.76 1.65)
		(layers "F.Cu" "F.Paste" "F.Mask")
		(thermal_bridge_angle 45)
		(uuid "12cfd818-ed22-4a68-9463-b06d2ca3c939")
	)
	(pad "7" smd trapezoid
		(at 3.175 4.255)
		(size 0.76 1.65)
		(layers "F.Cu" "F.Paste" "F.Mask")
		(thermal_bridge_angle 45)
		(uuid "58b83bfc-dcd3-442b-9c94-12029c9ccc73")
	)
	(pad "8" smd trapezoid
		(at 4.445 4.255)
		(size 0.76 1.65)
		(layers "F.Cu" "F.Paste" "F.Mask")
		(thermal_bridge_angle 45)
		(uuid "b65562eb-35c9-4a16-8bab-e6c7f1a1dacc")
	)
	(pad "9" smd trapezoid
		(at 4.445 -4.255)
		(size 0.76 1.65)
		(layers "F.Cu" "F.Paste" "F.Mask")
		(thermal_bridge_angle 45)
		(uuid "e8f1c5f3-dcec-4472-84b8-83c16ad4929a")
	)
	(pad "10" smd trapezoid
		(at 3.175 -4.255)
		(size 0.76 1.65)
		(layers "F.Cu" "F.Paste" "F.Mask")
		(thermal_bridge_angle 45)
		(uuid "6ea88449-963e-4c7b-9f66-5af5172562cc")
	)
	(pad "11" smd trapezoid
		(at 1.905 -4.255)
		(size 0.76 1.65)
		(layers "F.Cu" "F.Paste" "F.Mask")
		(thermal_bridge_angle 45)
		(uuid "8cbff81b-4788-4151-8cf0-84203d921ab9")
	)
	(pad "12" smd trapezoid
		(at 0.635 -4.255)
		(size 0.76 1.65)
		(layers "F.Cu" "F.Paste" "F.Mask")
		(thermal_bridge_angle 45)
		(uuid "723d1f18-a0c3-4f46-b489-dcc0f52d01e5")
	)
	(pad "13" smd trapezoid
		(at -0.635 -4.255)
		(size 0.76 1.65)
		(layers "F.Cu" "F.Paste" "F.Mask")
		(thermal_bridge_angle 45)
		(uuid "8b304b71-ed64-40fe-acd9-ef086433c4e5")
	)
	(pad "14" smd trapezoid
		(at -1.905 -4.255)
		(size 0.76 1.65)
		(layers "F.Cu" "F.Paste" "F.Mask")
		(thermal_bridge_angle 45)
		(uuid "8a646659-0745-46ba-80ad-54a8b93b6e5c")
	)
	(pad "15" smd trapezoid
		(at -3.175 -4.255)
		(size 0.76 1.65)
		(layers "F.Cu" "F.Paste" "F.Mask")
		(thermal_bridge_angle 45)
		(uuid "559eb60d-c3a5-499b-b988-b2713a47d438")
	)
	(pad "16" smd trapezoid
		(at -4.445 -4.255)
		(size 0.76 1.65)
		(layers "F.Cu" "F.Paste" "F.Mask")
		(thermal_bridge_angle 45)
		(uuid "840aa196-102c-42c3-a351-a0e1af6f7675")
	)
	(model "lsf-kicad-lib.3dshapes/HX1188ENL.wrl"
		(offset
			(xyz 0 0 0)
		)
		(scale
			(xyz 1 1 1)
		)
		(rotate
			(xyz 0 0 0)
		)
	)
)
