(footprint "HX5008NL"
	(version 20240108)
	(generator "pcbnew")
	(generator_version "8.0")
	(layer "F.Cu")
	(descr "SMD-13.64mm-13.64mm-5.72mm, https://productfinder.pulseeng.com/productSearch/HX5008NL")
	(tags "Transformers")
	(property "Reference" "REF**"
		(at 0 0 0)
		(unlocked yes)
		(layer "F.SilkS")
		(uuid "7f3dc957-e42b-4a3a-b743-bc9979056db4")
		(effects
			(font
				(size 1 1)
				(thickness 0.15)
			)
		)
	)
	(property "Value" "HX5008NL"
		(at 0 0 0)
		(unlocked yes)
		(layer "F.Fab")
		(uuid "15280c4d-eaff-4cb5-9658-0d47d652e7c2")
		(effects
			(font
				(size 1 1)
				(thickness 0.15)
			)
		)
	)
	(property "Footprint" ""
		(at 0 0 0)
		(layer "F.Fab")
		(hide yes)
		(uuid "98eafbf5-6359-4023-b181-041e4e188a82")
		(effects
			(font
				(size 1.27 1.27)
				(thickness 0.15)
			)
		)
	)
	(property "Datasheet" ""
		(at 0 0 0)
		(layer "F.Fab")
		(hide yes)
		(uuid "eec15ef7-9c48-4e09-9dcc-2671eca72773")
		(effects
			(font
				(size 1.27 1.27)
				(thickness 0.15)
			)
		)
	)
	(property "Description" ""
		(at 0 0 0)
		(layer "F.Fab")
		(hide yes)
		(uuid "3531f0e2-9180-4588-aa67-0acf616be7e6")
		(effects
			(font
				(size 1.27 1.27)
				(thickness 0.15)
			)
		)
	)
	(attr smd)
	(fp_line
		(start -6.5 9)
		(end -6.5 10.5)
		(stroke
			(width 0.12)
			(type default)
		)
		(layer "F.SilkS")
		(uuid "79016b6b-027f-4295-b064-9c5e15c2aef2")
	)
	(fp_line
		(start -6.5 10.5)
		(end -5 10.5)
		(stroke
			(width 0.12)
			(type default)
		)
		(layer "F.SilkS")
		(uuid "e5fe8a33-1847-4252-86c0-68a0153b9115")
	)
	(fp_line
		(start -6 -10)
		(end 6 -10)
		(stroke
			(width 0.05)
			(type default)
		)
		(layer "F.CrtYd")
		(uuid "5e3ba039-6f08-4d28-a74f-618c3b873d66")
	)
	(fp_line
		(start -6 10)
		(end -6 -10)
		(stroke
			(width 0.05)
			(type default)
		)
		(layer "F.CrtYd")
		(uuid "5bee149a-924f-452d-af70-8749c5128776")
	)
	(fp_line
		(start 6 -10)
		(end 6 10)
		(stroke
			(width 0.05)
			(type default)
		)
		(layer "F.CrtYd")
		(uuid "cafb9c17-fd5a-4650-a4f4-4d93f5c4b2e3")
	)
	(fp_line
		(start 6 10)
		(end -6 10)
		(stroke
			(width 0.05)
			(type default)
		)
		(layer "F.CrtYd")
		(uuid "9e9edcbe-f172-4d45-a6f3-27d689dd7028")
	)
	(fp_line
		(start -6 -10)
		(end -6 10)
		(stroke
			(width 0.1)
			(type default)
		)
		(layer "F.Fab")
		(uuid "489342b0-1b51-4264-91bd-e40ac503a806")
	)
	(fp_line
		(start -6 10)
		(end 6 10)
		(stroke
			(width 0.1)
			(type default)
		)
		(layer "F.Fab")
		(uuid "06474880-d833-4fc1-9ae4-22816b2e7738")
	)
	(fp_line
		(start 6 -10)
		(end -6 -10)
		(stroke
			(width 0.1)
			(type default)
		)
		(layer "F.Fab")
		(uuid "9935330e-43ba-441d-aca6-a33ea42bdf23")
	)
	(fp_line
		(start 6 10)
		(end 6 -10)
		(stroke
			(width 0.1)
			(type default)
		)
		(layer "F.Fab")
		(uuid "6d2eeb3a-5704-4d62-88a3-4d55c64e4e60")
	)
	(fp_text user "${REFERENCE}"
		(at 0 0 0)
		(unlocked yes)
		(layer "F.Fab")
		(uuid "636aa7b3-30a3-471c-8c95-8159a5459fd6")
		(effects
			(font
				(size 1 1)
				(thickness 0.15)
			)
		)
	)
	(pad "1" smd trapezoid
		(at -5.495 8.825)
		(size 0.64 1.9)
		(layers "F.Cu" "F.Paste" "F.Mask")
		(thermal_bridge_angle 45)
		(uuid "28ce31cc-f15c-42e9-b51c-36abf72140e5")
	)
	(pad "2" smd trapezoid
		(at -4.495 8.825)
		(size 0.64 1.9)
		(layers "F.Cu" "F.Paste" "F.Mask")
		(thermal_bridge_angle 45)
		(uuid "f67931c7-1cfe-4ee9-84b2-5a4fb6f4e5c6")
	)
	(pad "3" smd trapezoid
		(at -3.495 8.825)
		(size 0.64 1.9)
		(layers "F.Cu" "F.Paste" "F.Mask")
		(thermal_bridge_angle 45)
		(uuid "c0d5c9ff-11c7-44c7-80f0-e520886750a7")
	)
	(pad "4" smd trapezoid
		(at -2.495 8.825)
		(size 0.64 1.9)
		(layers "F.Cu" "F.Paste" "F.Mask")
		(thermal_bridge_angle 45)
		(uuid "1fe763ad-3599-4419-9027-b88b7de98974")
	)
	(pad "5" smd trapezoid
		(at -1.495 8.825)
		(size 0.64 1.9)
		(layers "F.Cu" "F.Paste" "F.Mask")
		(thermal_bridge_angle 45)
		(uuid "a4a20009-1372-4e41-a778-227b3a2a469f")
	)
	(pad "6" smd trapezoid
		(at -0.495 8.825)
		(size 0.64 1.9)
		(layers "F.Cu" "F.Paste" "F.Mask")
		(thermal_bridge_angle 45)
		(uuid "537e4b2d-2726-4894-9ad6-8dd9f86dc18d")
	)
	(pad "7" smd trapezoid
		(at 0.495 8.825)
		(size 0.64 1.9)
		(layers "F.Cu" "F.Paste" "F.Mask")
		(thermal_bridge_angle 45)
		(uuid "9d05d7e0-be94-4b03-bff2-8c91816b55be")
	)
	(pad "8" smd trapezoid
		(at 1.485 8.825)
		(size 0.64 1.9)
		(layers "F.Cu" "F.Paste" "F.Mask")
		(thermal_bridge_angle 45)
		(uuid "dacd3d65-8947-494d-a288-76d20a32923f")
	)
	(pad "9" smd trapezoid
		(at 2.495 8.825)
		(size 0.64 1.9)
		(layers "F.Cu" "F.Paste" "F.Mask")
		(thermal_bridge_angle 45)
		(uuid "fda1d84e-1f2c-4f22-8c8f-4348622c6bb7")
	)
	(pad "10" smd trapezoid
		(at 3.495 8.825)
		(size 0.64 1.9)
		(layers "F.Cu" "F.Paste" "F.Mask")
		(thermal_bridge_angle 45)
		(uuid "1ccff2ff-6f1e-453d-ad16-31494212ad8f")
	)
	(pad "11" smd trapezoid
		(at 4.495 8.825)
		(size 0.64 1.9)
		(layers "F.Cu" "F.Paste" "F.Mask")
		(thermal_bridge_angle 45)
		(uuid "26acab3b-7662-447b-a9b0-1c7c0b44aee9")
	)
	(pad "12" smd trapezoid
		(at 5.495 8.825)
		(size 0.64 1.9)
		(layers "F.Cu" "F.Paste" "F.Mask")
		(thermal_bridge_angle 45)
		(uuid "ac807c10-350d-41bd-8d99-75b38e4eab3d")
	)
	(pad "13" smd trapezoid
		(at 5.495 -8.825)
		(size 0.64 1.9)
		(layers "F.Cu" "F.Paste" "F.Mask")
		(thermal_bridge_angle 45)
		(uuid "c7dc5e43-492e-41d2-a97c-b2510e8424a5")
	)
	(pad "14" smd trapezoid
		(at 4.495 -8.825)
		(size 0.64 1.9)
		(layers "F.Cu" "F.Paste" "F.Mask")
		(thermal_bridge_angle 45)
		(uuid "6bee154b-91de-497b-a044-ad6a588702f9")
	)
	(pad "15" smd trapezoid
		(at 3.495 -8.825)
		(size 0.64 1.9)
		(layers "F.Cu" "F.Paste" "F.Mask")
		(thermal_bridge_angle 45)
		(uuid "e24a4a5f-1948-4975-a4fb-cd534013550c")
	)
	(pad "16" smd trapezoid
		(at 2.495 -8.825)
		(size 0.64 1.9)
		(layers "F.Cu" "F.Paste" "F.Mask")
		(thermal_bridge_angle 45)
		(uuid "7db7747e-9557-433b-a467-4bd85a5e7501")
	)
	(pad "17" smd trapezoid
		(at 1.495 -8.825)
		(size 0.64 1.9)
		(layers "F.Cu" "F.Paste" "F.Mask")
		(thermal_bridge_angle 45)
		(uuid "cc1b5ab3-7d79-432b-84d6-ecd2883aac35")
	)
	(pad "18" smd trapezoid
		(at 0.495 -8.825)
		(size 0.64 1.9)
		(layers "F.Cu" "F.Paste" "F.Mask")
		(thermal_bridge_angle 45)
		(uuid "73c1574b-1502-49f0-a3c9-9551c57dc60f")
	)
	(pad "19" smd trapezoid
		(at -0.495 -8.825)
		(size 0.64 1.9)
		(layers "F.Cu" "F.Paste" "F.Mask")
		(thermal_bridge_angle 45)
		(uuid "a18f6593-04bd-4f2a-a442-91e5604482c0")
	)
	(pad "20" smd trapezoid
		(at -1.495 -8.825)
		(size 0.64 1.9)
		(layers "F.Cu" "F.Paste" "F.Mask")
		(thermal_bridge_angle 45)
		(uuid "ce6cb048-0259-4559-bef6-6aa01a3afd65")
	)
	(pad "21" smd trapezoid
		(at -2.495 -8.825)
		(size 0.64 1.9)
		(layers "F.Cu" "F.Paste" "F.Mask")
		(thermal_bridge_angle 45)
		(uuid "1c3bfc0d-1523-44d0-8a01-2762c02a16b0")
	)
	(pad "22" smd trapezoid
		(at -3.495 -8.825)
		(size 0.64 1.9)
		(layers "F.Cu" "F.Paste" "F.Mask")
		(thermal_bridge_angle 45)
		(uuid "366fdf19-3dd7-406f-88e8-31cc12c665a8")
	)
	(pad "23" smd trapezoid
		(at -4.495 -8.825)
		(size 0.64 1.9)
		(layers "F.Cu" "F.Paste" "F.Mask")
		(thermal_bridge_angle 45)
		(uuid "be76413e-98eb-49c7-aaed-8ae589c37d9e")
	)
	(pad "24" smd trapezoid
		(at -5.495 -8.825)
		(size 0.64 1.9)
		(layers "F.Cu" "F.Paste" "F.Mask")
		(thermal_bridge_angle 45)
		(uuid "62898f93-5833-448b-a374-4264dcb19174")
	)
	(model "lsf-kicad-lib.3dshapes/HX5008NL.wrl"
		(offset
			(xyz 0 0 0)
		)
		(scale
			(xyz 1 1 1)
		)
		(rotate
			(xyz 0 0 0)
		)
	)
)
