(footprint "Infineon-PQFN-56_EP_7x7_P0.4mm" (version 20211014) (generator pcbnew)
  (layer "F.Cu")
  (tedit 61E820A8)
  (descr "PQFN 56 leads, 7x7mm (https://www.infineon.com/dgdl/Infineon-IRPS5401M-DataSheet-v02_04-EN.pdf?fileId=5546d4625cc9456a015cd69d402139db)")
  (tags "PQFN 56 7x7mm")
  (attr smd)
  (fp_text reference "REF**" (at 0 -5.1) (layer "F.SilkS")
    (effects (font (size 1 1) (thickness 0.15)))
    (tstamp 785219c4-5a8b-4565-a950-52cdc574b895)
  )
  (fp_text value "Infineon-PQFN-56_EP_7x7_P0.4mm" (at 0 5.1) (layer "F.Fab")
    (effects (font (size 1 1) (thickness 0.1)))
    (tstamp 057360cc-a2cb-4096-a600-b91114d6ec15)
  )
  (fp_text user "${REFERENCE}" (at 0 0) (layer "F.Fab")
    (effects (font (size 1 1) (thickness 0.15)))
    (tstamp 58e8083a-b389-4aaa-9270-ad16a809701f)
  )
  (fp_line (start 3 -3.65) (end 3.65 -3.65) (layer "F.SilkS") (width 0.12) (tstamp 54122f43-168c-451e-a0d5-6a048b828409))
  (fp_line (start -3 3.65) (end -3.65 3.65) (layer "F.SilkS") (width 0.12) (tstamp 58c663fd-628e-403b-bc01-68959655d25a))
  (fp_line (start -3.65 3.65) (end -3.65 3) (layer "F.SilkS") (width 0.12) (tstamp 7822d692-f84e-48d3-b391-95ebb55e8374))
  (fp_line (start 3.65 3.65) (end 3.65 3) (layer "F.SilkS") (width 0.12) (tstamp a58e3649-3941-4b71-99d9-1ee80b9af459))
  (fp_line (start 3 3.65) (end 3.65 3.65) (layer "F.SilkS") (width 0.12) (tstamp afb607c4-6d01-4764-9c98-1f7a53b4feb8))
  (fp_line (start 3.65 -3.65) (end 3.65 -3) (layer "F.SilkS") (width 0.12) (tstamp cab9b836-9567-4ea6-b278-a142ef7d6cbc))
  (fp_line (start -3 -3.65) (end -3.85 -3.65) (layer "F.SilkS") (width 0.12) (tstamp e3dca679-d2c9-4060-981e-c70d2a867bf0))
  (fp_line (start 4.1 4.1) (end -4.1 4.1) (layer "F.CrtYd") (width 0.05) (tstamp 0010bfc6-45d2-4899-8136-1b456701de15))
  (fp_line (start 4.1 -4.1) (end 4.1 4.1) (layer "F.CrtYd") (width 0.05) (tstamp 67aaf210-9139-4b76-8d4f-596634002c65))
  (fp_line (start -4.1 4.1) (end -4.1 -4.1) (layer "F.CrtYd") (width 0.05) (tstamp 6e4e1322-ffe0-4249-8cbf-ecadc57096ad))
  (fp_line (start -4.1 -4.1) (end 4.1 -4.1) (layer "F.CrtYd") (width 0.05) (tstamp 91af72e5-8c39-4ed8-ac5b-1b8a44717a26))
  (fp_line (start 3.5 3.5) (end 3.5 -3.5) (layer "F.Fab") (width 0.1) (tstamp 382b710f-bde3-4bed-a85a-716ea30d07a4))
  (fp_line (start 3.5 -3.5) (end -2.5 -3.5) (layer "F.Fab") (width 0.1) (tstamp 5e15a861-9c66-4a5a-b880-86531bcb4933))
  (fp_line (start -2.5 -3.5) (end -3.5 -2.5) (layer "F.Fab") (width 0.1) (tstamp 6f84dea9-cd5e-4897-9e1a-7c47f04fed0a))
  (fp_line (start -3.5 -2.5) (end -3.5 3.5) (layer "F.Fab") (width 0.1) (tstamp ccc24201-e409-4cc5-b51b-dd0235d65690))
  (fp_line (start -3.5 3.5) (end 3.5 3.5) (layer "F.Fab") (width 0.1) (tstamp eaaa8fff-12c2-4d55-9b3f-ec0b8b00a389))
  (pad "" smd rect (at -3.44 0.6 90) (size 0.22 0.7) (layers "F.Paste" "F.Mask") (tstamp 022141f8-8d34-42da-90a3-0e645e6a450a))
  (pad "" smd rect (at -3.44 -2.6 90) (size 0.22 0.7) (layers "F.Paste" "F.Mask") (tstamp 07030f91-3374-4871-b526-4680a1f088d7))
  (pad "" smd rect (at 3.44 0.2 90) (size 0.22 0.7) (layers "F.Paste" "F.Mask") (tstamp 091bc32a-5b5e-4aa8-bc5a-2ae1b1ce1be2))
  (pad "" smd rect (at -3.44 1.8 90) (size 0.22 0.7) (layers "F.Paste" "F.Mask") (tstamp 25346446-69a2-4f4a-9516-e170aa397cfc))
  (pad "" smd rect (at -3.44 -1.8 90) (size 0.22 0.7) (layers "F.Paste" "F.Mask") (tstamp 3880c440-f073-47d9-bdbd-d895cd432479))
  (pad "" smd rect (at 3.44 0.6 90) (size 0.22 0.7) (layers "F.Paste" "F.Mask") (tstamp 4443ea15-c40e-4eb6-adad-6c017c246c08))
  (pad "" smd rect (at 3.44 -0.2 90) (size 0.22 0.7) (layers "F.Paste" "F.Mask") (tstamp 5bff61fd-00db-4ad6-b9ef-e6f90557062e))
  (pad "" smd rect (at 3.44 -0.6 90) (size 0.22 0.7) (layers "F.Paste" "F.Mask") (tstamp 75d9af13-01ba-4d72-a872-78f20ae4ceba))
  (pad "" smd rect (at -3.44 -2.2 90) (size 0.22 0.7) (layers "F.Paste" "F.Mask") (tstamp 8bb498a4-4d1d-4535-929d-3354e1ed1ba0))
  (pad "" smd rect (at -3.44 1 90) (size 0.22 0.7) (layers "F.Paste" "F.Mask") (tstamp 972ce374-ddbf-4a74-bf04-f08ffb5ea531))
  (pad "" smd rect (at -3.44 2.2 90) (size 0.22 0.7) (layers "F.Paste" "F.Mask") (tstamp a271df3e-5e5f-4364-a505-889a3660e683))
  (pad "" smd rect (at -3.44 -0.6 90) (size 0.22 0.7) (layers "F.Paste" "F.Mask") (tstamp ac5dc4e9-f67a-4503-956c-fb747a610e50))
  (pad "" smd rect (at -3.44 0.2 90) (size 0.22 0.7) (layers "F.Paste" "F.Mask") (tstamp af70ab66-c277-48d2-ab59-793b0ff1f480))
  (pad "" smd rect (at -3.44 2.6 90) (size 0.22 0.7) (layers "F.Paste" "F.Mask") (tstamp c036b9c3-8cab-42f8-9045-7ea484b03c39))
  (pad "" smd rect (at -3.44 -0.2 90) (size 0.22 0.7) (layers "F.Paste" "F.Mask") (tstamp eeccfb67-7296-437a-a5af-13af5c4b54d2))
  (pad "" smd rect (at -3.44 -1 90) (size 0.22 0.7) (layers "F.Paste" "F.Mask") (tstamp f0da8069-fe0c-4df4-9130-1d78fc827c2e))
  (pad "1" smd custom (at -3.245 -2.2 180) (size 0.31 1.02) (layers "F.Cu" "F.Mask")
    (zone_connect 2)
    (options (clearance outline) (anchor rect))
    (primitives
      (gr_poly (pts
          (xy 0.545 0.11)
          (xy 0.155 0.11)
          (xy 0.155 -0.11)
          (xy 0.545 -0.11)
        ) (width 0) (fill yes))
          (gr_poly (pts
          (xy 0.545 0.51)
          (xy 0.155 0.51)
          (xy 0.155 0.29)
          (xy 0.545 0.29)
        ) (width 0) (fill yes))
          (gr_poly (pts
          (xy 0.545 -0.29)
          (xy 0.155 -0.29)
          (xy 0.155 -0.51)
          (xy 0.545 -0.51)
        ) (width 0) (fill yes))
    ) (tstamp e5e80d8c-37b9-4796-b066-5ac35cc2dbd8))
  (pad "4" smd rect (at -3.44 -1.4 90) (size 0.22 0.7) (layers "F.Cu" "F.Paste" "F.Mask") (tstamp 4c685ec1-d1f2-4b1e-927c-66c64910d336))
  (pad "5" smd custom (at -3.245 -0.6 180) (size 0.31 1.02) (layers "F.Cu" "F.Mask")
    (zone_connect 2)
    (options (clearance outline) (anchor rect))
    (primitives
      (gr_poly (pts
          (xy 0.545 0.11)
          (xy 0.155 0.11)
          (xy 0.155 -0.11)
          (xy 0.545 -0.11)
        ) (width 0) (fill yes))
          (gr_poly (pts
          (xy 0.545 0.51)
          (xy 0.155 0.51)
          (xy 0.155 0.29)
          (xy 0.545 0.29)
        ) (width 0) (fill yes))
          (gr_poly (pts
          (xy 0.545 -0.29)
          (xy 0.155 -0.29)
          (xy 0.155 -0.51)
          (xy 0.545 -0.51)
        ) (width 0) (fill yes))
    ) (tstamp 28955794-5ba1-4c21-97aa-cb1ec0fe8e0d))
  (pad "8" smd custom (at -3.245 0.6 180) (size 0.31 1.02) (layers "F.Cu" "F.Mask")
    (zone_connect 2)
    (options (clearance outline) (anchor rect))
    (primitives
      (gr_poly (pts
          (xy 0.545 0.11)
          (xy 0.155 0.11)
          (xy 0.155 -0.11)
          (xy 0.545 -0.11)
        ) (width 0) (fill yes))
          (gr_poly (pts
          (xy 0.545 0.51)
          (xy 0.155 0.51)
          (xy 0.155 0.29)
          (xy 0.545 0.29)
        ) (width 0) (fill yes))
          (gr_poly (pts
          (xy 0.545 -0.29)
          (xy 0.155 -0.29)
          (xy 0.155 -0.51)
          (xy 0.545 -0.51)
        ) (width 0) (fill yes))
    ) (tstamp 69135ead-09c2-4e17-800d-f38f88ab4b8b))
  (pad "11" smd rect (at -3.44 1.4 90) (size 0.22 0.7) (layers "F.Cu" "F.Paste" "F.Mask") (tstamp 80e6af04-cadc-4713-97e5-b2b71569c8aa))
  (pad "12" smd custom (at -3.245 2.2 180) (size 0.31 1.02) (layers "F.Cu" "F.Mask")
    (zone_connect 2)
    (options (clearance outline) (anchor rect))
    (primitives
      (gr_poly (pts
          (xy 0.545 0.11)
          (xy 0.155 0.11)
          (xy 0.155 -0.11)
          (xy 0.545 -0.11)
        ) (width 0) (fill yes))
          (gr_poly (pts
          (xy 0.545 0.51)
          (xy 0.155 0.51)
          (xy 0.155 0.29)
          (xy 0.545 0.29)
        ) (width 0) (fill yes))
          (gr_poly (pts
          (xy 0.545 -0.29)
          (xy 0.155 -0.29)
          (xy 0.155 -0.51)
          (xy 0.545 -0.51)
        ) (width 0) (fill yes))
    ) (tstamp 61e3b39d-2503-443e-a64e-9cccc0a59821))
  (pad "15" smd rect (at -2.6 3.44) (size 0.22 0.7) (layers "F.Cu" "F.Paste" "F.Mask") (tstamp f2028f13-4c3d-4620-9dea-cd8e691f6d0a))
  (pad "16" smd rect (at -2.2 3.44) (size 0.22 0.7) (layers "F.Cu" "F.Paste" "F.Mask") (tstamp fb73a63a-1ab3-4f3e-9103-7d550dd00054))
  (pad "17" smd rect (at -1.8 3.44) (size 0.22 0.7) (layers "F.Cu" "F.Paste" "F.Mask") (tstamp 34c38d6c-c5b9-403f-a5c8-c22f06a6a51a))
  (pad "18" smd rect (at -1.4 3.44) (size 0.22 0.7) (layers "F.Cu" "F.Paste" "F.Mask") (tstamp be88972d-4d83-4691-8d68-e497f358f616))
  (pad "19" smd rect (at -1 3.44) (size 0.22 0.7) (layers "F.Cu" "F.Paste" "F.Mask") (tstamp 58fab5e8-dbb6-49cd-92e0-2d929342f214))
  (pad "20" smd rect (at -0.6 3.44) (size 0.22 0.7) (layers "F.Cu" "F.Paste" "F.Mask") (tstamp 0bfd93fe-9500-4acd-80a7-b647ac07a905))
  (pad "21" smd rect (at -0.2 3.44) (size 0.22 0.7) (layers "F.Cu" "F.Paste" "F.Mask") (tstamp e1e607a1-8167-4d0d-93db-c92225fa10cf))
  (pad "22" smd rect (at 0.2 3.44) (size 0.22 0.7) (layers "F.Cu" "F.Paste" "F.Mask") (tstamp f26255a2-94a9-4a2b-a725-369b191b24c3))
  (pad "23" smd rect (at 0.6 3.44) (size 0.22 0.7) (layers "F.Cu" "F.Paste" "F.Mask") (tstamp d392667f-19e4-4aad-bb0a-7be00a71fe90))
  (pad "24" smd rect (at 1 3.44) (size 0.22 0.7) (layers "F.Cu" "F.Paste" "F.Mask") (tstamp c10e758a-d7ae-44ab-9846-48ff36379a84))
  (pad "25" smd rect (at 1.4 3.44) (size 0.22 0.7) (layers "F.Cu" "F.Paste" "F.Mask") (tstamp 973a96ee-87ab-40e0-9d81-fee90e96f229))
  (pad "26" smd rect (at 1.8 3.44) (size 0.22 0.7) (layers "F.Cu" "F.Paste" "F.Mask") (tstamp 0299734f-e7ce-4268-90db-3b03be888986))
  (pad "27" smd rect (at 2.2 3.44) (size 0.22 0.7) (layers "F.Cu" "F.Paste" "F.Mask") (tstamp 046e4368-b984-48aa-911f-9759a2878d09))
  (pad "28" smd rect (at 2.6 3.44) (size 0.22 0.7) (layers "F.Cu" "F.Paste" "F.Mask") (tstamp cb2f3b8c-815f-42b2-aca5-3077904e09c5))
  (pad "29" smd rect (at 3.44 2.6 90) (size 0.22 0.7) (layers "F.Cu" "F.Paste" "F.Mask") (tstamp af323f3b-1a65-4e74-ab15-94be0b154916))
  (pad "30" smd rect (at 3.44 2.2 90) (size 0.22 0.7) (layers "F.Cu" "F.Paste" "F.Mask") (tstamp db6cc952-f06a-44e3-980b-4fe522a96792))
  (pad "31" smd rect (at 3.44 1.8 90) (size 0.22 0.7) (layers "F.Cu" "F.Paste" "F.Mask") (tstamp db3acdd9-8e46-496f-a824-59493467188f))
  (pad "32" smd rect (at 3.44 1.4 90) (size 0.22 0.7) (layers "F.Cu" "F.Paste" "F.Mask") (tstamp bae5d9b3-ae2c-43cb-9571-f19e65958979))
  (pad "33" smd rect (at 3.44 1 90) (size 0.22 0.7) (layers "F.Cu" "F.Paste" "F.Mask") (tstamp d4782dbf-8c7d-4796-b057-b074ec027dd4))
  (pad "34" smd custom (at 3.245 0.4) (size 0.31 0.62) (layers "F.Cu" "F.Mask")
    (zone_connect 2)
    (options (clearance outline) (anchor rect))
    (primitives
      (gr_poly (pts
          (xy 0.545 0.31)
          (xy 0.155 0.31)
          (xy 0.155 0.09)
          (xy 0.545 0.09)
        ) (width 0) (fill yes))
          (gr_poly (pts
          (xy 0.545 -0.09)
          (xy 0.155 -0.09)
          (xy 0.155 -0.31)
          (xy 0.545 -0.31)
        ) (width 0) (fill yes))
    ) (tstamp 2e47d6bd-04ad-483f-bbeb-16ecc59009e1))
  (pad "36" smd custom (at 3.245 -0.4) (size 0.31 0.62) (layers "F.Cu" "F.Mask")
    (zone_connect 2)
    (options (clearance outline) (anchor rect))
    (primitives
      (gr_poly (pts
          (xy 0.545 0.31)
          (xy 0.155 0.31)
          (xy 0.155 0.09)
          (xy 0.545 0.09)
        ) (width 0) (fill yes))
          (gr_poly (pts
          (xy 0.545 -0.09)
          (xy 0.155 -0.09)
          (xy 0.155 -0.31)
          (xy 0.545 -0.31)
        ) (width 0) (fill yes))
    ) (tstamp 3f04fa07-16ae-498b-9f3e-6d9d67452171))
  (pad "38" smd rect (at 3.44 -1 90) (size 0.22 0.7) (layers "F.Cu" "F.Paste" "F.Mask") (tstamp 35972d1a-5306-45d2-85b1-a72a608d7a8d))
  (pad "39" smd rect (at 3.44 -1.4 90) (size 0.22 0.7) (layers "F.Cu" "F.Paste" "F.Mask") (tstamp 9767b0bb-be23-41ec-9ce6-bf9f117b2f3d))
  (pad "40" smd rect (at 3.44 -1.8 90) (size 0.22 0.7) (layers "F.Cu" "F.Paste" "F.Mask") (tstamp 83f3bb54-6f0b-4e68-b260-751b6c8b1f47))
  (pad "41" smd rect (at 3.44 -2.2 90) (size 0.22 0.7) (layers "F.Cu" "F.Paste" "F.Mask") (tstamp 710fb27b-a336-49d1-ad32-15fddf2fdada))
  (pad "42" smd rect (at 3.44 -2.6 90) (size 0.22 0.7) (layers "F.Cu" "F.Paste" "F.Mask") (tstamp 5afd4c6b-ea6b-45db-921a-999fbf8a2455))
  (pad "43" smd rect (at 2.6 -3.44) (size 0.22 0.7) (layers "F.Cu" "F.Paste" "F.Mask") (tstamp 601328d1-370f-4c9c-87d7-fcd910e71739))
  (pad "44" smd rect (at 2.2 -3.44) (size 0.22 0.7) (layers "F.Cu" "F.Paste" "F.Mask") (tstamp b0deba5b-31f9-4ada-abad-fe2c4a048271))
  (pad "45" smd rect (at 1.8 -3.44) (size 0.22 0.7) (layers "F.Cu" "F.Paste" "F.Mask") (tstamp 3724666c-01fd-4dcf-afe4-e079b17e1702))
  (pad "46" smd rect (at 1.4 -3.44) (size 0.22 0.7) (layers "F.Cu" "F.Paste" "F.Mask") (tstamp 99f7529f-472f-42c7-917e-637fb5900268))
  (pad "47" smd rect (at 1 -3.44) (size 0.22 0.7) (layers "F.Cu" "F.Paste" "F.Mask") (tstamp 93c1638e-2400-40ca-9363-1c06864b111a))
  (pad "48" smd rect (at 0.6 -3.44) (size 0.22 0.7) (layers "F.Cu" "F.Paste" "F.Mask") (tstamp 4c9808ab-5aa4-492e-ad9e-8da7cf9a9aac))
  (pad "49" smd rect (at 0.2 -3.44) (size 0.22 0.7) (layers "F.Cu" "F.Paste" "F.Mask") (tstamp b1d10f8c-c92d-4bf6-8446-513f8ae6469f))
  (pad "50" smd rect (at -0.2 -3.44) (size 0.22 0.7) (layers "F.Cu" "F.Paste" "F.Mask") (tstamp eb7ab96e-32eb-4aa4-b298-6e9f9d805c51))
  (pad "51" smd rect (at -0.6 -3.44) (size 0.22 0.7) (layers "F.Cu" "F.Paste" "F.Mask") (tstamp 27e8be65-30d6-4747-ad46-185503eae59b))
  (pad "52" smd rect (at -1 -3.44) (size 0.22 0.7) (layers "F.Cu" "F.Paste" "F.Mask") (tstamp a674ff9c-545f-42ef-be64-453a34f51cf9))
  (pad "53" smd rect (at -1.4 -3.44) (size 0.22 0.7) (layers "F.Cu" "F.Paste" "F.Mask") (tstamp 748a2028-249d-499c-a127-ecf544b6c927))
  (pad "54" smd rect (at -1.8 -3.44) (size 0.22 0.7) (layers "F.Cu" "F.Paste" "F.Mask") (tstamp cfe13513-0956-49ea-871b-29bbabb80d87))
  (pad "55" smd rect (at -2.2 -3.44) (size 0.22 0.7) (layers "F.Cu" "F.Paste" "F.Mask") (tstamp a3b55b8e-104c-4101-abd8-35b74be599a3))
  (pad "56" smd rect (at -2.6 -3.44) (size 0.22 0.7) (layers "F.Cu" "F.Paste" "F.Mask") (tstamp ce59f2c4-15c7-455d-a7c6-1da2427979cd))
  (pad "EP" smd rect (at 2.1 2.1) (size 1.4 1.4) (layers "F.Cu" "F.Paste" "F.Mask")
    (solder_paste_margin -0.15) (tstamp 04a2ff9a-9cc3-4bc2-90ea-df716a6bb9a8))
  (pad "EP" thru_hole circle (at 2 -1) (size 0.6 0.6) (drill 0.3) (layers *.Cu *.Mask) (tstamp 05a98581-655e-4410-92cc-acc1d7b00d50))
  (pad "EP" thru_hole circle (at 0 -1) (size 0.6 0.6) (drill 0.3) (layers *.Cu *.Mask) (tstamp 2286e6bd-de22-45aa-8c5c-5dd8cab00886))
  (pad "EP" smd rect (at 0.7 2.1) (size 1.4 1.4) (layers "F.Cu" "F.Paste" "F.Mask")
    (solder_paste_margin -0.15) (tstamp 26ec95e5-74d6-41db-aaac-cf2fc6f05a41))
  (pad "EP" thru_hole circle (at 0 2) (size 0.6 0.6) (drill 0.3) (layers *.Cu *.Mask) (tstamp 28153d2e-cfa9-4df4-a879-ddf4ff3bb449))
  (pad "EP" smd rect (at 0.7 -0.7) (size 1.4 1.4) (layers "F.Cu" "F.Paste" "F.Mask")
    (solder_paste_margin -0.15) (tstamp 303b0b54-1069-46de-baec-e5b8248bc73c))
  (pad "EP" thru_hole circle (at 0 -2) (size 0.6 0.6) (drill 0.3) (layers *.Cu *.Mask) (tstamp 31059eec-9b80-46c9-aee7-c2bcbf2b0cf6))
  (pad "EP" thru_hole circle (at -2 2) (size 0.6 0.6) (drill 0.3) (layers *.Cu *.Mask) (tstamp 32e6a5a4-1fa4-4793-9755-3191d7e9df29))
  (pad "EP" thru_hole circle (at -2 -1) (size 0.6 0.6) (drill 0.3) (layers *.Cu *.Mask) (tstamp 34c91376-048a-4b80-8f20-f96276b5b517))
  (pad "EP" thru_hole circle (at -1 0) (size 0.6 0.6) (drill 0.3) (layers *.Cu *.Mask) (tstamp 385a2703-9922-4002-8f38-8650ae08dcd3))
  (pad "EP" smd rect (at 2.1 -2.1) (size 1.4 1.4) (layers "F.Cu" "F.Paste" "F.Mask")
    (solder_paste_margin -0.15) (tstamp 40f560a2-41aa-471e-afc0-1387a320dc97))
  (pad "EP" thru_hole circle (at 1 -1) (size 0.6 0.6) (drill 0.3) (layers *.Cu *.Mask) (tstamp 500f88a1-b580-4031-bea2-920fca507813))
  (pad "EP" thru_hole circle (at -1 -2) (size 0.6 0.6) (drill 0.3) (layers *.Cu *.Mask) (tstamp 5f9e9107-8a03-4db3-9e55-353eecb021e2))
  (pad "EP" thru_hole circle (at 2 0) (size 0.6 0.6) (drill 0.3) (layers *.Cu *.Mask) (tstamp 6572f79c-a891-4f99-8c41-8663cdb04a9d))
  (pad "EP" thru_hole circle (at 0 1) (size 0.6 0.6) (drill 0.3) (layers *.Cu *.Mask) (tstamp 66cfe577-e8de-42cf-b73e-f2814d342ab1))
  (pad "EP" thru_hole circle (at 1 -2) (size 0.6 0.6) (drill 0.3) (layers *.Cu *.Mask) (tstamp 7156d6f1-f200-40f4-ba69-564d9a4f8398))
  (pad "EP" smd rect (at -0.7 -0.7) (size 1.4 1.4) (layers "F.Cu" "F.Paste" "F.Mask")
    (solder_paste_margin -0.15) (tstamp 7c8d90d7-0173-413c-ab9b-aebdc3a829bd))
  (pad "EP" thru_hole circle (at 2 2) (size 0.6 0.6) (drill 0.3) (layers *.Cu *.Mask) (tstamp 7dd183e4-02d4-4a85-9b90-27c37f3cf645))
  (pad "EP" thru_hole circle (at 1 0) (size 0.6 0.6) (drill 0.3) (layers *.Cu *.Mask) (tstamp 7f15c180-5da6-4ced-9132-a6f4aff1eb8a))
  (pad "EP" smd rect (at 2.1 -0.7) (size 1.4 1.4) (layers "F.Cu" "F.Paste" "F.Mask")
    (solder_paste_margin -0.15) (tstamp 8433059d-dd14-46ac-987f-0325dfea24ee))
  (pad "EP" thru_hole circle (at 2 1) (size 0.6 0.6) (drill 0.3) (layers *.Cu *.Mask) (tstamp 85300cdf-c607-4823-812b-51b9daf69205))
  (pad "EP" thru_hole circle (at 1 2) (size 0.6 0.6) (drill 0.3) (layers *.Cu *.Mask) (tstamp 986dfb7d-78ea-4a62-ada3-f32fd8972f71))
  (pad "EP" thru_hole circle (at 1 1) (size 0.6 0.6) (drill 0.3) (layers *.Cu *.Mask) (tstamp 99f8249d-bc91-4c8c-81e6-7fbe3e7acbea))
  (pad "EP" smd rect (at -2.1 -0.7) (size 1.4 1.4) (layers "F.Cu" "F.Paste" "F.Mask")
    (solder_paste_margin -0.15) (tstamp 9eac8b78-481e-4c36-a571-0cc33269e702))
  (pad "EP" thru_hole circle (at 2 -2) (size 0.6 0.6) (drill 0.3) (layers *.Cu *.Mask) (tstamp 9fdd773f-6a9f-41e9-99f7-8c09f7d6b35a))
  (pad "EP" thru_hole circle (at 0 0) (size 0.6 0.6) (drill 0.3) (layers *.Cu *.Mask) (tstamp a9152ee2-f71f-4c34-b636-7b3714d79f79))
  (pad "EP" smd rect (at -2.1 2.1) (size 1.4 1.4) (layers "F.Cu" "F.Paste" "F.Mask")
    (solder_paste_margin -0.15) (tstamp be958ef1-7048-4542-8446-57ca23e11edd))
  (pad "EP" smd rect (at 2.1 0.7) (size 1.4 1.4) (layers "F.Cu" "F.Paste" "F.Mask")
    (solder_paste_margin -0.15) (tstamp c4ce76ab-ce2d-4ed5-b7ed-7b162bdb10e9))
  (pad "EP" smd rect (at -0.7 2.1) (size 1.4 1.4) (layers "F.Cu" "F.Paste" "F.Mask")
    (solder_paste_margin -0.15) (tstamp cb6208be-1f02-4524-ab3d-f37185a67273))
  (pad "EP" thru_hole circle (at -1 1) (size 0.6 0.6) (drill 0.3) (layers *.Cu *.Mask) (tstamp d5d4d22f-257e-4876-9315-653778a1c943))
  (pad "EP" smd rect (at -2.1 0.7) (size 1.4 1.4) (layers "F.Cu" "F.Paste" "F.Mask")
    (solder_paste_margin -0.15) (tstamp d84ca285-f9c1-4223-832a-169818cab524))
  (pad "EP" smd rect (at 0.7 0.7) (size 1.4 1.4) (layers "F.Cu" "F.Paste" "F.Mask")
    (solder_paste_margin -0.15) (tstamp d9a348bd-712b-46d6-bc8a-e222c1dc52d6))
  (pad "EP" thru_hole circle (at -2 0) (size 0.6 0.6) (drill 0.3) (layers *.Cu *.Mask) (tstamp e1b364bc-2b1e-4ae5-bd47-7bc3e19d0e3c))
  (pad "EP" smd rect (at -2.1 -2.1) (size 1.4 1.4) (layers "F.Cu" "F.Paste" "F.Mask")
    (solder_paste_margin -0.15) (tstamp e274210c-5465-4311-bdb7-a7242bbe3646))
  (pad "EP" smd rect (at -0.7 -2.1) (size 1.4 1.4) (layers "F.Cu" "F.Paste" "F.Mask")
    (solder_paste_margin -0.15) (tstamp e4ba35a2-a739-409b-b7e9-39f0446ac5ae))
  (pad "EP" thru_hole circle (at -2 1) (size 0.6 0.6) (drill 0.3) (layers *.Cu *.Mask) (tstamp e674a1f8-e258-416d-854b-de328d4eb0fb))
  (pad "EP" thru_hole circle (at -1 -1) (size 0.6 0.6) (drill 0.3) (layers *.Cu *.Mask) (tstamp ea5a2eb9-1611-438f-8370-f29ebb1c6f70))
  (pad "EP" smd rect (at 0.7 -2.1) (size 1.4 1.4) (layers "F.Cu" "F.Paste" "F.Mask")
    (solder_paste_margin -0.15) (tstamp eca3d929-6117-4a33-859d-45da5284422f))
  (pad "EP" smd rect (at -0.7 0.7) (size 1.4 1.4) (layers "F.Cu" "F.Paste" "F.Mask")
    (solder_paste_margin -0.15) (tstamp ed9265fc-9784-4f36-a761-0f44ad090942))
  (pad "EP" thru_hole circle (at -2 -2) (size 0.6 0.6) (drill 0.3) (layers *.Cu *.Mask) (tstamp fab300bf-4947-493f-996c-75d81885e93d))
  (pad "EP" thru_hole circle (at -1 2) (size 0.6 0.6) (drill 0.3) (layers *.Cu *.Mask) (tstamp fe2db9ad-f0c7-42ab-88bb-bff9dd2658c2))
  (model "${LSF_KICAD_LIB}/lsf-kicad-lib.3dshapes/Infineon-PQFN-56_EP_7x7_P0.4mm.wrl"
    (offset (xyz 0 0 0))
    (scale (xyz 1 1 1))
    (rotate (xyz 0 0 0))
  )
)
