(footprint "L_Coilcraft_XAL7070_7.2x7.5mm" (version 20211014) (generator pcbnew)
  (layer "F.Cu")
  (tedit 61E8204A)
  (descr "Coilcraft XAL7070 series, https://www.coilcraft.com/getmedia/1ba55433-bcc8-4838-9b21-382f497e12e0/xal7070.pdf")
  (tags "L Coilcraft XAL7070")
  (attr smd)
  (fp_text reference "REF**" (at 0 -4.3) (layer "F.SilkS")
    (effects (font (size 1 1) (thickness 0.15)))
    (tstamp 01bc9e27-63a6-45bf-a753-77d868cd7781)
  )
  (fp_text value "L_Coilcraft_XAL7070_7.2x7.5mm" (at 0 4.3) (layer "F.Fab")
    (effects (font (size 1 1) (thickness 0.15)))
    (tstamp 33548002-f6c9-456e-9335-bc78b2d574b2)
  )
  (fp_text user "${REFERENCE}" (at 0 0) (layer "F.Fab")
    (effects (font (size 1 1) (thickness 0.15)))
    (tstamp 2ba6a28e-e277-4b3c-8168-ce731080f617)
  )
  (fp_line (start -3.6 -3.75) (end -3.6 3.75) (layer "F.SilkS") (width 0.12) (tstamp 2d58e207-e4f3-4d4c-9594-38594b4d16a1))
  (fp_line (start -3.6 -3.75) (end 3.6 -3.75) (layer "F.SilkS") (width 0.12) (tstamp 76a14172-e6c0-4cff-9c89-e5789255c729))
  (fp_line (start -3.6 3.75) (end 3.6 3.75) (layer "F.SilkS") (width 0.12) (tstamp bc9b6f93-bc51-4721-baae-4b531f1e1b87))
  (fp_line (start -3.7 -3.85) (end 3.7 -3.85) (layer "F.CrtYd") (width 0.05) (tstamp 101828dd-7545-40da-bef3-c64a44a6a921))
  (fp_line (start -3.7 3.85) (end 3.7 3.85) (layer "F.CrtYd") (width 0.05) (tstamp 170c6dd0-f9dc-48e8-9381-f30f3a87013a))
  (fp_line (start -3.7 -3.85) (end -3.7 3.85) (layer "F.CrtYd") (width 0.05) (tstamp 4006c4fe-b149-4af5-904e-e002c44ea5e4))
  (fp_line (start 3.7 -3.85) (end 3.7 3.85) (layer "F.CrtYd") (width 0.05) (tstamp c60b00c9-2b55-4abc-a2e5-6115aa0744bb))
  (fp_line (start 3.6 -3.75) (end 3.6 3.75) (layer "F.Fab") (width 0.1) (tstamp 1b16931b-0180-45a6-9edd-5ccade185d18))
  (fp_line (start -3.6 3.75) (end 3.6 3.75) (layer "F.Fab") (width 0.1) (tstamp 206e8345-a9e1-405f-83f5-5012ede71860))
  (fp_line (start -2.1 -3.75) (end 3.6 -3.75) (layer "F.Fab") (width 0.1) (tstamp 5f0adfc6-02bf-4110-8274-542087e301d0))
  (fp_line (start -3.6 -2.25) (end -2.1 -3.75) (layer "F.Fab") (width 0.1) (tstamp 6a382344-1ba0-4d67-9033-13926c760ef2))
  (fp_line (start -3.6 -2.25) (end -3.6 3.75) (layer "F.Fab") (width 0.1) (tstamp 6cd15a4d-fbf0-4960-92d0-d3f9ecb149a3))
  (pad "1" smd rect (at -2.41 0) (size 1.92 6.5) (layers "F.Cu" "F.Paste" "F.Mask") (tstamp b31e8e3a-d0de-4be3-bbb1-6ffbe6206db9))
  (pad "2" smd rect (at 2.41 0) (size 1.92 6.5) (layers "F.Cu" "F.Paste" "F.Mask") (tstamp 528f7a0e-2e90-441f-bc1d-62e2aaad8790))
  (model "${LSF_KICAD_LIB}/lsf-kicad-lib.3dshapes/L_Coilcraft_XAL7070_7.2x7.5mm.wrl"
    (offset (xyz 0 0 0))
    (scale (xyz 1 1 1))
    (rotate (xyz 0 0 0))
  )
)
