(module lsf-logo-10x6_Mask (layer F.Cu) (tedit 6148D2FA)
  (descr "Libre Space Foundation logo 10x6mm")
  (tags "lsf logo libre space foundation")
  (attr virtual)
  (fp_text reference REF** (at 0 0) (layer F.Cu) hide
    (effects (font (size 1 1) (thickness 0.15)))
  )
  (fp_text value lsf-logo-10x6_Mask (at 0.75 0) (layer F.Fab) hide
    (effects (font (size 1.524 1.524) (thickness 0.2)))
  )
  (fp_poly (pts (xy -2.701138 -1.369578) (xy -2.700867 -1.368627) (xy -2.704349 -1.360403) (xy -2.713997 -1.339473)
    (xy -2.728616 -1.308382) (xy -2.747013 -1.269674) (xy -2.763483 -1.235277) (xy -2.807738 -1.13761)
    (xy -2.850916 -1.031935) (xy -2.891475 -0.922637) (xy -2.927874 -0.814102) (xy -2.95857 -0.710717)
    (xy -2.982024 -0.616867) (xy -2.983988 -0.607819) (xy -2.988485 -0.59534) (xy -2.998114 -0.586035)
    (xy -3.016581 -0.577621) (xy -3.047591 -0.567819) (xy -3.050194 -0.56706) (xy -3.227101 -0.51264)
    (xy -3.387241 -0.45702) (xy -3.530742 -0.40013) (xy -3.657734 -0.341899) (xy -3.768346 -0.282257)
    (xy -3.862705 -0.221135) (xy -3.94094 -0.15846) (xy -4.003181 -0.094164) (xy -4.049556 -0.028174)
    (xy -4.055791 -0.016933) (xy -4.069685 0.010265) (xy -4.078336 0.032238) (xy -4.082979 0.054674)
    (xy -4.084844 0.083262) (xy -4.085167 0.118662) (xy -4.084658 0.158244) (xy -4.082333 0.18682)
    (xy -4.076991 0.210304) (xy -4.067433 0.234612) (xy -4.057377 0.255723) (xy -4.027924 0.30395)
    (xy -3.98671 0.355061) (xy -3.937416 0.404992) (xy -3.883721 0.44968) (xy -3.877734 0.45408)
    (xy -3.790266 0.511688) (xy -3.688153 0.568735) (xy -3.573674 0.624188) (xy -3.449112 0.677014)
    (xy -3.316747 0.726178) (xy -3.179234 0.770537) (xy -3.132436 0.784537) (xy -3.087203 0.798099)
    (xy -3.048052 0.809868) (xy -3.019502 0.818485) (xy -3.014641 0.81996) (xy -2.968581 0.833966)
    (xy -2.949386 0.904826) (xy -2.891766 1.089506) (xy -2.817867 1.278181) (xy -2.733911 1.458503)
    (xy -2.712501 1.500881) (xy -2.692879 1.538944) (xy -2.676657 1.569621) (xy -2.665446 1.589843)
    (xy -2.662041 1.595339) (xy -2.652083 1.611896) (xy -2.651798 1.621389) (xy -2.66292 1.624449)
    (xy -2.68718 1.621707) (xy -2.717801 1.615634) (xy -2.824868 1.592508) (xy -2.917777 1.571946)
    (xy -2.999009 1.553367) (xy -3.071044 1.536187) (xy -3.136361 1.519824) (xy -3.197443 1.503695)
    (xy -3.216594 1.498462) (xy -3.431515 1.434776) (xy -3.63024 1.36653) (xy -3.812909 1.293614)
    (xy -3.979665 1.215919) (xy -4.130649 1.133335) (xy -4.266001 1.045754) (xy -4.385864 0.953065)
    (xy -4.490379 0.855159) (xy -4.579687 0.751926) (xy -4.653929 0.643258) (xy -4.713248 0.529044)
    (xy -4.757783 0.409176) (xy -4.787678 0.283543) (xy -4.787974 0.281855) (xy -4.798675 0.184375)
    (xy -4.798955 0.079644) (xy -4.789167 -0.026524) (xy -4.769662 -0.128317) (xy -4.761216 -0.159741)
    (xy -4.718489 -0.276899) (xy -4.659541 -0.390606) (xy -4.584831 -0.500325) (xy -4.49482 -0.605515)
    (xy -4.389968 -0.70564) (xy -4.270734 -0.800161) (xy -4.140136 -0.88698) (xy -4.020571 -0.954217)
    (xy -3.885417 -1.019749) (xy -3.735973 -1.083111) (xy -3.57354 -1.143837) (xy -3.399415 -1.201463)
    (xy -3.214899 -1.255521) (xy -3.02129 -1.305547) (xy -2.883589 -1.337357) (xy -2.822102 -1.350747)
    (xy -2.775359 -1.360533) (xy -2.741626 -1.367012) (xy -2.719167 -1.370482) (xy -2.706249 -1.371238)
    (xy -2.701138 -1.369578)) (layer F.Mask) (width 0.01))
  (fp_poly (pts (xy 2.694305 -1.375219) (xy 2.717185 -1.37148) (xy 2.751272 -1.365066) (xy 2.793904 -1.356477)
    (xy 2.840923 -1.346536) (xy 3.063258 -1.295364) (xy 3.269661 -1.241217) (xy 3.460925 -1.183781)
    (xy 3.637841 -1.122738) (xy 3.801201 -1.057775) (xy 3.951798 -0.988573) (xy 4.090424 -0.914819)
    (xy 4.21787 -0.836196) (xy 4.334928 -0.752387) (xy 4.339166 -0.749109) (xy 4.385854 -0.710075)
    (xy 4.436893 -0.662669) (xy 4.488808 -0.610526) (xy 4.538125 -0.557279) (xy 4.581369 -0.506563)
    (xy 4.615066 -0.462011) (xy 4.618521 -0.456926) (xy 4.687471 -0.339587) (xy 4.740094 -0.218828)
    (xy 4.776417 -0.095614) (xy 4.796471 0.029088) (xy 4.800282 0.154313) (xy 4.78788 0.279093)
    (xy 4.759292 0.402464) (xy 4.714548 0.523459) (xy 4.653674 0.641112) (xy 4.583283 0.745791)
    (xy 4.496375 0.848673) (xy 4.394425 0.9463) (xy 4.277261 1.038773) (xy 4.144712 1.126191)
    (xy 3.996604 1.208655) (xy 3.832765 1.286267) (xy 3.653024 1.359126) (xy 3.457207 1.427333)
    (xy 3.367182 1.455511) (xy 3.28053 1.480677) (xy 3.182552 1.507269) (xy 3.078537 1.533971)
    (xy 2.973774 1.559467) (xy 2.873552 1.582442) (xy 2.783159 1.601578) (xy 2.768599 1.604462)
    (xy 2.726032 1.612884) (xy 2.689048 1.620367) (xy 2.661031 1.626216) (xy 2.645365 1.629733)
    (xy 2.643716 1.630185) (xy 2.634088 1.628871) (xy 2.633133 1.626092) (xy 2.637073 1.61576)
    (xy 2.64757 1.594722) (xy 2.662634 1.566892) (xy 2.668483 1.556508) (xy 2.732856 1.434133)
    (xy 2.794641 1.298613) (xy 2.852323 1.153701) (xy 2.904389 1.003152) (xy 2.941487 0.879366)
    (xy 2.949756 0.852331) (xy 2.957827 0.837295) (xy 2.969452 0.829791) (xy 2.986577 0.825689)
    (xy 3.005244 0.821277) (xy 3.036637 0.812857) (xy 3.077294 0.801399) (xy 3.123754 0.787873)
    (xy 3.158044 0.777642) (xy 3.30454 0.730379) (xy 3.441181 0.680026) (xy 3.567004 0.627094)
    (xy 3.681048 0.572093) (xy 3.782349 0.515536) (xy 3.869946 0.457933) (xy 3.942874 0.399796)
    (xy 4.000173 0.341636) (xy 4.015958 0.321901) (xy 4.052694 0.266243) (xy 4.075778 0.213439)
    (xy 4.08675 0.158853) (xy 4.087614 0.105833) (xy 4.084376 0.066082) (xy 4.078001 0.035282)
    (xy 4.066387 0.005484) (xy 4.055127 -0.016933) (xy 4.025479 -0.062805) (xy 3.984062 -0.112457)
    (xy 3.934375 -0.162342) (xy 3.879914 -0.208913) (xy 3.831166 -0.244108) (xy 3.749488 -0.293263)
    (xy 3.653998 -0.343125) (xy 3.547708 -0.392462) (xy 3.433629 -0.440044) (xy 3.314772 -0.484641)
    (xy 3.194148 -0.525023) (xy 3.074767 -0.559958) (xy 3.029196 -0.571841) (xy 2.975482 -0.585334)
    (xy 2.955871 -0.663084) (xy 2.914549 -0.809019) (xy 2.863484 -0.959882) (xy 2.80517 -1.108897)
    (xy 2.7421 -1.249289) (xy 2.734101 -1.265699) (xy 2.715497 -1.304246) (xy 2.700322 -1.337099)
    (xy 2.689828 -1.361438) (xy 2.685266 -1.37444) (xy 2.685293 -1.375783) (xy 2.694305 -1.375219)) (layer F.Mask) (width 0.01))
  (fp_poly (pts (xy 0.227027 -2.62271) (xy 0.437026 -2.596402) (xy 0.539724 -2.577407) (xy 0.740144 -2.527797)
    (xy 0.937688 -2.462033) (xy 1.130817 -2.380841) (xy 1.31799 -2.284945) (xy 1.497667 -2.175073)
    (xy 1.668309 -2.05195) (xy 1.6891 -2.035527) (xy 1.740669 -1.992195) (xy 1.799181 -1.939388)
    (xy 1.861408 -1.880316) (xy 1.924127 -1.818192) (xy 1.98411 -1.756225) (xy 2.038135 -1.697628)
    (xy 2.082974 -1.645612) (xy 2.092327 -1.634067) (xy 2.222326 -1.457911) (xy 2.336857 -1.274871)
    (xy 2.435897 -1.084996) (xy 2.519426 -0.888338) (xy 2.587422 -0.684949) (xy 2.639863 -0.47488)
    (xy 2.676728 -0.258181) (xy 2.680908 -0.225149) (xy 2.686719 -0.163025) (xy 2.690945 -0.088633)
    (xy 2.693557 -0.006462) (xy 2.694526 0.079004) (xy 2.693822 0.163279) (xy 2.691416 0.241875)
    (xy 2.687277 0.310307) (xy 2.68462 0.338667) (xy 2.652995 0.554097) (xy 2.605793 0.763508)
    (xy 2.543478 0.966292) (xy 2.466519 1.161841) (xy 2.375383 1.349544) (xy 2.270537 1.528795)
    (xy 2.152447 1.698983) (xy 2.021581 1.859502) (xy 1.878406 2.009741) (xy 1.723389 2.149093)
    (xy 1.556998 2.276948) (xy 1.379699 2.392699) (xy 1.191959 2.495736) (xy 0.994246 2.585451)
    (xy 0.94522 2.604988) (xy 0.912693 2.617262) (xy 0.886726 2.626402) (xy 0.870878 2.63119)
    (xy 0.867733 2.631499) (xy 0.864326 2.62333) (xy 0.855459 2.600842) (xy 0.841706 2.565536)
    (xy 0.823644 2.518915) (xy 0.801848 2.462478) (xy 0.776893 2.397729) (xy 0.749354 2.326168)
    (xy 0.719808 2.249297) (xy 0.68883 2.168618) (xy 0.656996 2.085632) (xy 0.62488 2.001842)
    (xy 0.593058 1.918747) (xy 0.562107 1.837851) (xy 0.532601 1.760654) (xy 0.505116 1.688659)
    (xy 0.480228 1.623366) (xy 0.458511 1.566278) (xy 0.440542 1.518895) (xy 0.426896 1.48272)
    (xy 0.418149 1.459254) (xy 0.414876 1.449999) (xy 0.414866 1.449931) (xy 0.422085 1.448474)
    (xy 0.439649 1.45065) (xy 0.441503 1.451011) (xy 0.455715 1.457476) (xy 0.481696 1.473)
    (xy 0.517711 1.496427) (xy 0.562023 1.526601) (xy 0.612899 1.562365) (xy 0.665324 1.600168)
    (xy 0.716991 1.637644) (xy 0.765193 1.672207) (xy 0.807962 1.702477) (xy 0.843331 1.727075)
    (xy 0.869333 1.744622) (xy 0.883999 1.753737) (xy 0.885215 1.754345) (xy 0.902854 1.760075)
    (xy 0.915168 1.754713) (xy 0.923861 1.745007) (xy 0.927262 1.74015) (xy 0.930143 1.733756)
    (xy 0.932546 1.724475) (xy 0.934513 1.710956) (xy 0.936089 1.691847) (xy 0.937315 1.665797)
    (xy 0.938236 1.631454) (xy 0.938893 1.587467) (xy 0.939331 1.532485) (xy 0.939591 1.465156)
    (xy 0.939718 1.384129) (xy 0.939754 1.288052) (xy 0.939752 1.245779) (xy 0.939588 1.13897)
    (xy 0.939129 1.042552) (xy 0.938389 0.957469) (xy 0.937386 0.884665) (xy 0.936135 0.825085)
    (xy 0.934652 0.779673) (xy 0.932953 0.749373) (xy 0.931197 0.735604) (xy 0.920516 0.705984)
    (xy 0.904735 0.67975) (xy 0.881471 0.654437) (xy 0.84834 0.627582) (xy 0.802957 0.59672)
    (xy 0.787069 0.586609) (xy 0.739841 0.55558) (xy 0.706676 0.530862) (xy 0.68806 0.512837)
    (xy 0.684273 0.506175) (xy 0.681302 0.490371) (xy 0.677512 0.461792) (xy 0.673397 0.424544)
    (xy 0.669579 0.384186) (xy 0.647369 0.217953) (xy 0.610417 0.058479) (xy 0.559026 -0.09348)
    (xy 0.493498 -0.237167) (xy 0.414136 -0.371825) (xy 0.321243 -0.496698) (xy 0.313728 -0.505661)
    (xy 0.261707 -0.562203) (xy 0.206793 -0.61294) (xy 0.151246 -0.65633) (xy 0.097324 -0.690831)
    (xy 0.047286 -0.7149) (xy 0.003391 -0.726994) (xy -0.012103 -0.728133) (xy -0.058743 -0.720501)
    (xy -0.110307 -0.698517) (xy -0.165426 -0.663552) (xy -0.222735 -0.616976) (xy -0.280867 -0.560158)
    (xy -0.338453 -0.49447) (xy -0.394128 -0.421282) (xy -0.446525 -0.341963) (xy -0.494276 -0.257884)
    (xy -0.507832 -0.231248) (xy -0.54121 -0.157405) (xy -0.573862 -0.073482) (xy -0.603383 0.013751)
    (xy -0.627369 0.097523) (xy -0.633547 0.122767) (xy -0.643244 0.169248) (xy -0.65283 0.223669)
    (xy -0.661664 0.281425) (xy -0.669106 0.337913) (xy -0.674515 0.388526) (xy -0.677252 0.428661)
    (xy -0.677459 0.438583) (xy -0.679811 0.467616) (xy -0.685561 0.492891) (xy -0.688201 0.499351)
    (xy -0.69928 0.511731) (xy -0.722123 0.530602) (xy -0.753921 0.553827) (xy -0.791867 0.57927)
    (xy -0.80026 0.584634) (xy -0.843944 0.612993) (xy -0.875712 0.635513) (xy -0.898442 0.654587)
    (xy -0.915016 0.672606) (xy -0.927101 0.689982) (xy -0.952501 0.73103) (xy -0.952501 1.233043)
    (xy -0.952472 1.338275) (xy -0.952361 1.42787) (xy -0.952132 1.503122) (xy -0.951748 1.565328)
    (xy -0.951173 1.615783) (xy -0.950371 1.655783) (xy -0.949305 1.686623) (xy -0.947938 1.709599)
    (xy -0.946235 1.726006) (xy -0.944159 1.73714) (xy -0.941674 1.744296) (xy -0.938743 1.748771)
    (xy -0.937997 1.749563) (xy -0.93167 1.754987) (xy -0.924541 1.757857) (xy -0.915139 1.757319)
    (xy -0.901996 1.752515) (xy -0.883643 1.742589) (xy -0.858613 1.726687) (xy -0.825435 1.703951)
    (xy -0.782643 1.673525) (xy -0.728766 1.634555) (xy -0.680892 1.599708) (xy -0.611495 1.549731)
    (xy -0.554537 1.510085) (xy -0.509337 1.480391) (xy -0.47522 1.460268) (xy -0.451506 1.449336)
    (xy -0.437517 1.447217) (xy -0.432576 1.453531) (xy -0.433696 1.461291) (xy -0.437445 1.471768)
    (xy -0.446769 1.496707) (xy -0.461158 1.534768) (xy -0.480099 1.584611) (xy -0.503082 1.644896)
    (xy -0.529596 1.714285) (xy -0.559129 1.791436) (xy -0.591171 1.87501) (xy -0.62521 1.963667)
    (xy -0.643338 2.010833) (xy -0.67859 2.102539) (xy -0.71242 2.190573) (xy -0.744275 2.273502)
    (xy -0.773606 2.34989) (xy -0.799862 2.418303) (xy -0.822493 2.477306) (xy -0.840948 2.525465)
    (xy -0.854677 2.561344) (xy -0.863128 2.583509) (xy -0.865084 2.588683) (xy -0.875105 2.612876)
    (xy -0.883572 2.628917) (xy -0.887492 2.632886) (xy -0.896931 2.629719) (xy -0.919132 2.621155)
    (xy -0.951234 2.60833) (xy -0.990377 2.592379) (xy -1.011767 2.583556) (xy -1.193521 2.502149)
    (xy -1.361654 2.413694) (xy -1.518578 2.316594) (xy -1.666703 2.20925) (xy -1.808441 2.090066)
    (xy -1.926229 1.977722) (xy -2.071115 1.820118) (xy -2.201956 1.653145) (xy -2.318587 1.477129)
    (xy -2.420846 1.292398) (xy -2.50857 1.099277) (xy -2.581597 0.898094) (xy -2.639762 0.689174)
    (xy -2.682903 0.472844) (xy -2.685392 0.4572) (xy -2.691013 0.41953) (xy -2.695436 0.384747)
    (xy -2.6988 0.350058) (xy -2.701244 0.312673) (xy -2.702907 0.269798) (xy -2.70393 0.218643)
    (xy -2.704451 0.156415) (xy -2.704609 0.080321) (xy -2.70461 0.071967) (xy -2.704218 -0.020745)
    (xy -2.702808 -0.099955) (xy -2.700043 -0.16908) (xy -2.695582 -0.231537) (xy -2.689086 -0.290745)
    (xy -2.680216 -0.35012) (xy -2.668633 -0.413081) (xy -2.653996 -0.483043) (xy -2.645823 -0.519952)
    (xy -2.591304 -0.725091) (xy -2.521579 -0.923538) (xy -2.437273 -1.114615) (xy -2.339011 -1.297645)
    (xy -2.227415 -1.471949) (xy -2.103111 -1.63685) (xy -1.966721 -1.791671) (xy -1.818871 -1.935734)
    (xy -1.660184 -2.06836) (xy -1.491285 -2.188873) (xy -1.312797 -2.296594) (xy -1.125345 -2.390846)
    (xy -0.929552 -2.470951) (xy -0.812801 -2.510542) (xy -0.610594 -2.565252) (xy -0.404187 -2.603889)
    (xy -0.1949 -2.626388) (xy 0.015945 -2.632684) (xy 0.227027 -2.62271)) (layer F.Mask) (width 0.01))
)
