(footprint "lsf-logo-29x16_Mask"
	(version 20240108)
	(generator "pcbnew")
	(generator_version "8.0")
	(layer "F.Cu")
	(descr "Libre Space Foundation logo 29x16mm")
	(tags "lsf logo libre space foundation")
	(property "Reference" "REF**"
		(at 0 0 0)
		(layer "F.SilkS")
		(hide yes)
		(uuid "d6b7990d-c793-4e67-83f3-d560cb3bcaa5")
		(effects
			(font
				(size 1 1)
				(thickness 0.15)
			)
		)
	)
	(property "Value" "lsf-logo-29x16_Mask"
		(at 0.75 0 0)
		(layer "F.Fab")
		(hide yes)
		(uuid "e4a68e5f-8956-426b-b143-02b3b8db0161")
		(effects
			(font
				(size 1.524 1.524)
				(thickness 0.15)
			)
		)
	)
	(property "Footprint" ""
		(at 0 0 0)
		(layer "F.Fab")
		(hide yes)
		(uuid "dcdd71cb-0371-4828-b4c1-99880fe6c685")
		(effects
			(font
				(size 1.27 1.27)
				(thickness 0.15)
			)
		)
	)
	(property "Datasheet" ""
		(at 0 0 0)
		(layer "F.Fab")
		(hide yes)
		(uuid "51b99595-491f-4063-bf2a-06fceba8e6df")
		(effects
			(font
				(size 1.27 1.27)
				(thickness 0.15)
			)
		)
	)
	(property "Description" ""
		(at 0 0 0)
		(layer "F.Fab")
		(hide yes)
		(uuid "8e8a983b-f57f-47e6-9693-f019b641eb8a")
		(effects
			(font
				(size 1.27 1.27)
				(thickness 0.15)
			)
		)
	)
	(attr exclude_from_pos_files exclude_from_bom)
	(fp_poly
		(pts
			(xy 8.082917 -4.125658) (xy 8.151557 -4.114441) (xy 8.253817 -4.095199) (xy 8.381712 -4.069432) (xy 8.522771 -4.039609)
			(xy 9.189775 -3.886092) (xy 9.808984 -3.723652) (xy 10.382775 -3.551342) (xy 10.913523 -3.368215)
			(xy 11.403605 -3.173324) (xy 11.855396 -2.96572) (xy 12.271273 -2.744457) (xy 12.653611 -2.508587)
			(xy 13.004786 -2.257162) (xy 13.0175 -2.247326) (xy 13.157564 -2.130224) (xy 13.31068 -1.988007)
			(xy 13.466425 -1.831578) (xy 13.614376 -1.671838) (xy 13.744108 -1.519689) (xy 13.845199 -1.386034)
			(xy 13.855565 -1.370778) (xy 14.062414 -1.018762) (xy 14.220282 -0.656484) (xy 14.329253 -0.286842)
			(xy 14.389414 0.087265) (xy 14.400848 0.462938) (xy 14.363641 0.83728) (xy 14.277878 1.207393) (xy 14.143644 1.570377)
			(xy 13.961022 1.923336) (xy 13.749851 2.237373) (xy 13.489126 2.54602) (xy 13.183276 2.838901) (xy 12.831785 3.116318)
			(xy 12.434136 3.378573) (xy 11.989812 3.625966) (xy 11.498297 3.858801) (xy 10.959072 4.077378) (xy 10.371622 4.282)
			(xy 10.101547 4.366534) (xy 9.841591 4.442031) (xy 9.547657 4.521807) (xy 9.235612 4.601914) (xy 8.921323 4.678402)
			(xy 8.620656 4.747325) (xy 8.349477 4.804733) (xy 8.3058 4.813387) (xy 8.178097 4.838651) (xy 8.067146 4.861101)
			(xy 7.983095 4.878648) (xy 7.936095 4.8892) (xy 7.93115 4.890555) (xy 7.902266 4.886614) (xy 7.8994 4.878276)
			(xy 7.911221 4.847281) (xy 7.942711 4.784167) (xy 7.987903 4.700677) (xy 8.005449 4.669524) (xy 8.19857 4.302399)
			(xy 8.383924 3.895839) (xy 8.55697 3.461104) (xy 8.713169 3.009455) (xy 8.824461 2.638099) (xy 8.84927 2.556993)
			(xy 8.873483 2.511885) (xy 8.908357 2.489374) (xy 8.959731 2.477066) (xy 9.015734 2.46383) (xy 9.109912 2.43857)
			(xy 9.231882 2.404196) (xy 9.371262 2.363618) (xy 9.474132 2.332926) (xy 9.91362 2.191138) (xy 10.323544 2.040079)
			(xy 10.701014 1.881281) (xy 11.043145 1.716279) (xy 11.347049 1.546607) (xy 11.609838 1.373799) (xy 11.828624 1.199388)
			(xy 12.000521 1.024908) (xy 12.047876 0.965703) (xy 12.158082 0.798729) (xy 12.227336 0.640317) (xy 12.26025 0.47656)
			(xy 12.262843 0.3175) (xy 12.253128 0.198246) (xy 12.234005 0.105847) (xy 12.199162 0.016451) (xy 12.165383 -0.0508)
			(xy 12.076437 -0.188414) (xy 11.952187 -0.33737) (xy 11.803125 -0.487026) (xy 11.639743 -0.626739)
			(xy 11.4935 -0.732325) (xy 11.248464 -0.87979) (xy 10.961996 -1.029374) (xy 10.643126 -1.177385)
			(xy 10.300889 -1.320132) (xy 9.944317 -1.453924) (xy 9.582444 -1.575069) (xy 9.224301 -1.679875)
			(xy 9.087589 -1.715524) (xy 8.926448 -1.756001) (xy 8.867614 -1.989251) (xy 8.743649 -2.427056) (xy 8.590454 -2.879646)
			(xy 8.415511 -3.326692) (xy 8.2263 -3.747866) (xy 8.202305 -3.797096) (xy 8.146491 -3.912738) (xy 8.100967 -4.011298)
			(xy 8.069485 -4.084313) (xy 8.055799 -4.123321) (xy 8.055881 -4.127348) (xy 8.082917 -4.125658)
		)
		(stroke
			(width 0.01)
			(type solid)
		)
		(fill solid)
		(layer "F.Mask")
		(uuid "e0b6e518-294e-491f-af83-d56331eb6b51")
	)
	(fp_poly
		(pts
			(xy -8.103412 -4.108734) (xy -8.1026 -4.105881) (xy -8.113045 -4.081208) (xy -8.141989 -4.018418)
			(xy -8.185848 -3.925146) (xy -8.241038 -3.809023) (xy -8.290447 -3.705831) (xy -8.423214 -3.41283)
			(xy -8.552747 -3.095804) (xy -8.674424 -2.76791) (xy -8.78362 -2.442307) (xy -8.87571 -2.132151)
			(xy -8.946071 -1.850601) (xy -8.951963 -1.823457) (xy -8.965453 -1.78602) (xy -8.99434 -1.758104)
			(xy -9.049741 -1.732864) (xy -9.142773 -1.703456) (xy -9.150582 -1.701181) (xy -9.681302 -1.537919)
			(xy -10.161721 -1.371059) (xy -10.592226 -1.200389) (xy -10.973202 -1.025697) (xy -11.305036 -0.846772)
			(xy -11.588113 -0.663404) (xy -11.82282 -0.475381) (xy -12.009543 -0.282491) (xy -12.148668 -0.084523)
			(xy -12.167373 -0.0508) (xy -12.209054 0.030796) (xy -12.235008 0.096713) (xy -12.248935 0.164021)
			(xy -12.25453 0.249787) (xy -12.2555 0.355985) (xy -12.253974 0.474733) (xy -12.246998 0.56046) (xy -12.230972 0.630912)
			(xy -12.202299 0.703835) (xy -12.172129 0.76717) (xy -12.083771 0.911849) (xy -11.960129 1.065182)
			(xy -11.812246 1.214977) (xy -11.651163 1.34904) (xy -11.6332 1.362239) (xy -11.370797 1.535063)
			(xy -11.064457 1.706204) (xy -10.721022 1.872564) (xy -10.347335 2.031041) (xy -9.950239 2.178535)
			(xy -9.5377 2.311612) (xy -9.397308 2.353611) (xy -9.261608 2.394298) (xy -9.144155 2.429603) (xy -9.058506 2.455454)
			(xy -9.043921 2.45988) (xy -8.905742 2.5019) (xy -8.848157 2.714479) (xy -8.675296 3.268519) (xy -8.453599 3.834542)
			(xy -8.201731 4.375508) (xy -8.137503 4.502643) (xy -8.078637 4.616831) (xy -8.029969 4.708863) (xy -7.996337 4.76953)
			(xy -7.986122 4.786017) (xy -7.956247 4.835688) (xy -7.955394 4.864167) (xy -7.988759 4.873348) (xy -8.061539 4.865122)
			(xy -8.1534 4.846901) (xy -8.474602 4.777523) (xy -8.75333 4.715839) (xy -8.997026 4.660102) (xy -9.21313 4.608562)
			(xy -9.409083 4.559472) (xy -9.592328 4.511085) (xy -9.64978 4.495386) (xy -10.294544 4.304327) (xy -10.890719 4.099589)
			(xy -11.438727 3.880841) (xy -11.938995 3.647756) (xy -12.391945 3.400006) (xy -12.798002 3.137261)
			(xy -13.157591 2.859194) (xy -13.471135 2.565476) (xy -13.739059 2.255779) (xy -13.961786 1.929774)
			(xy -14.139742 1.587133) (xy -14.273349 1.227527) (xy -14.363034 0.850628) (xy -14.363921 0.845564)
			(xy -14.396024 0.553125) (xy -14.396864 0.238933) (xy -14.367499 -0.079572) (xy -14.308984 -0.38495)
			(xy -14.283646 -0.479224) (xy -14.155465 -0.830697) (xy -13.978621 -1.171819) (xy -13.754493 -1.500974)
			(xy -13.48446 -1.816546) (xy -13.169903 -2.116921) (xy -12.812202 -2.400483) (xy -12.420408 -2.660941)
			(xy -12.061712 -2.86265) (xy -11.65625 -3.059246) (xy -11.207919 -3.249333) (xy -10.720618 -3.431512)
			(xy -10.198244 -3.604388) (xy -9.644695 -3.766563) (xy -9.063868 -3.91664) (xy -8.650767 -4.012072)
			(xy -8.466306 -4.052241) (xy -8.326077 -4.081599) (xy -8.224876 -4.101037) (xy -8.1575 -4.111445)
			(xy -8.118746 -4.113714) (xy -8.103412 -4.108734)
		)
		(stroke
			(width 0.01)
			(type solid)
		)
		(fill solid)
		(layer "F.Mask")
		(uuid "35146f64-6531-46e8-bc89-053676cb358e")
	)
	(fp_poly
		(pts
			(xy 0.681083 -7.868131) (xy 1.311079 -7.789207) (xy 1.619172 -7.732221) (xy 2.220433 -7.583392) (xy 2.813066 -7.3861)
			(xy 3.392452 -7.142522) (xy 3.95397 -6.854835) (xy 4.493002 -6.525219) (xy 5.004928 -6.155851) (xy 5.0673 -6.106581)
			(xy 5.222009 -5.976585) (xy 5.397543 -5.818163) (xy 5.584225 -5.640949) (xy 5.772381 -5.454575) (xy 5.952332 -5.268676)
			(xy 6.114405 -5.092885) (xy 6.248922 -4.936835) (xy 6.276981 -4.9022) (xy 6.666979 -4.373734) (xy 7.010571 -3.824612)
			(xy 7.307692 -3.254987) (xy 7.558279 -2.665014) (xy 7.762266 -2.054847) (xy 7.91959 -1.424639) (xy 8.030186 -0.774544)
			(xy 8.042726 -0.675448) (xy 8.060157 -0.489074) (xy 8.072835 -0.2659) (xy 8.080672 -0.019385) (xy 8.083579 0.237013)
			(xy 8.081467 0.489836) (xy 8.074248 0.725624) (xy 8.061833 0.930921) (xy 8.05386 1.016) (xy 7.958987 1.66229)
			(xy 7.817379 2.290525) (xy 7.630436 2.898877) (xy 7.399559 3.485522) (xy 7.126151 4.048632) (xy 6.811611 4.586384)
			(xy 6.457342 5.09695) (xy 6.064744 5.578505) (xy 5.63522 6.029223) (xy 5.170169 6.447278) (xy 4.670995 6.830844)
			(xy 4.139098 7.178097) (xy 3.575879 7.487209) (xy 2.982739 7.756354) (xy 2.835662 7.814965) (xy 2.738081 7.851786)
			(xy 2.660178 7.879206) (xy 2.612636 7.893569) (xy 2.603199 7.894496) (xy 2.592979 7.86999) (xy 2.566378 7.802526)
			(xy 2.52512 7.696609) (xy 2.470933 7.556744) (xy 2.405544 7.387435) (xy 2.330679 7.193186) (xy 2.248064 6.978504)
			(xy 2.159426 6.747891) (xy 2.066492 6.505854) (xy 1.970988 6.256897) (xy 1.87464 6.005525) (xy 1.779176 5.756242)
			(xy 1.686322 5.513553) (xy 1.597804 5.281963) (xy 1.515349 5.065976) (xy 1.440684 4.870098) (xy 1.375534 4.698833)
			(xy 1.321628 4.556686) (xy 1.28069 4.448161) (xy 1.254448 4.377763) (xy 1.244629 4.349998) (xy 1.2446 4.349793)
			(xy 1.266255 4.345423) (xy 1.318947 4.35195) (xy 1.324511 4.353032) (xy 1.367146 4.372427) (xy 1.445089 4.419)
			(xy 1.553133 4.489282) (xy 1.686071 4.579803) (xy 1.838699 4.687094) (xy 1.995973 4.800505) (xy 2.150975 4.912933)
			(xy 2.295581 5.016621) (xy 2.423888 5.107432) (xy 2.529995 5.181225) (xy 2.607999 5.233865) (xy 2.651999 5.261211)
			(xy 2.655645 5.263034) (xy 2.708563 5.280226) (xy 2.745505 5.264138) (xy 2.771583 5.235022) (xy 2.781788 5.220449)
			(xy 2.79043 5.201268) (xy 2.797638 5.173426) (xy 2.803541 5.132869) (xy 2.808267 5.075542) (xy 2.811947 4.997392)
			(xy 2.814708 4.894363) (xy 2.816681 4.762402) (xy 2.817993 4.597455) (xy 2.818775 4.395468) (xy 2.819155 4.152386)
			(xy 2.819262 3.864155) (xy 2.819258 3.737336) (xy 2.818766 3.41691) (xy 2.817387 3.127656) (xy 2.815169 2.872407)
			(xy 2.81216 2.653995) (xy 2.808407 2.475255) (xy 2.803957 2.339019) (xy 2.798859 2.248119) (xy 2.793592 2.206812)
			(xy 2.761549 2.117951) (xy 2.714207 2.039249) (xy 2.644414 1.963312) (xy 2.54502 1.882747) (xy 2.408871 1.790159)
			(xy 2.361207 1.759826) (xy 2.219525 1.666739) (xy 2.120029 1.592586) (xy 2.06418 1.53851) (xy 2.052819 1.518526)
			(xy 2.043906 1.471114) (xy 2.032536 1.385376) (xy 2.020193 1.273631) (xy 2.008739 1.152559) (xy 1.942108 0.65386)
			(xy 1.831251 0.175437) (xy 1.677078 -0.280441) (xy 1.480494 -0.711501) (xy 1.242409 -1.115476) (xy 0.96373 -1.490094)
			(xy 0.941185 -1.516982) (xy 0.785122 -1.686608) (xy 0.620381 -1.83882) (xy 0.453739 -1.968991) (xy 0.291973 -2.072493)
			(xy 0.141859 -2.144699) (xy 0.010175 -2.180982) (xy -0.036309 -2.1844) (xy -0.176229 -2.161503) (xy -0.330919 -2.095551)
			(xy -0.496278 -1.990656) (xy -0.668205 -1.850927) (xy -0.842599 -1.680475) (xy -1.015359 -1.483411)
			(xy -1.182384 -1.263846) (xy -1.339573 -1.025889) (xy -1.482826 -0.773651) (xy -1.523494 -0.693745)
			(xy -1.62363 -0.472216) (xy -1.721586 -0.220447) (xy -1.810149 0.041252) (xy -1.882107 0.292569)
			(xy -1.900639 0.3683) (xy -1.929731 0.507743) (xy -1.958489 0.671007) (xy -1.98499 0.844276) (xy -2.007316 1.013738)
			(xy -2.023544 1.165578) (xy -2.031754 1.285984) (xy -2.032375 1.31575) (xy -2.039431 1.402849) (xy -2.056682 1.478674)
			(xy -2.064602 1.498052) (xy -2.09784 1.535193) (xy -2.166367 1.591807) (xy -2.261762 1.661482) (xy -2.375601 1.73781)
			(xy -2.400778 1.753903) (xy -2.531832 1.83898) (xy -2.627135 1.90654) (xy -2.695325 1.96376) (xy -2.745046 2.017817)
			(xy -2.7813 2.069946) (xy -2.8575 2.193089) (xy -2.8575 3.699128) (xy -2.857414 4.014825) (xy -2.857082 4.283609)
			(xy -2.856394 4.509367) (xy -2.855243 4.695985) (xy -2.853518 4.84735) (xy -2.851111 4.967349) (xy -2.847913 5.059869)
			(xy -2.843814 5.128796) (xy -2.838705 5.178017) (xy -2.832477 5.211419) (xy -2.825021 5.232889) (xy -2.816228 5.246314)
			(xy -2.813989 5.248688) (xy -2.79501 5.26496) (xy -2.773621 5.273572) (xy -2.745415 5.271956) (xy -2.705986 5.257544)
			(xy -2.650929 5.227768) (xy -2.575837 5.18006) (xy -2.476305 5.111852) (xy -2.347927 5.020576) (xy -2.186296 4.903664)
			(xy -2.042674 4.799123) (xy -1.834485 4.649193) (xy -1.663609 4.530256) (xy -1.528011 4.441172) (xy -1.425659 4.380803)
			(xy -1.354517 4.348009) (xy -1.312551 4.341652) (xy -1.297728 4.360593) (xy -1.301086 4.383874) (xy -1.312334 4.415305)
			(xy -1.340307 4.490121) (xy -1.383472 4.604303) (xy -1.440296 4.753833) (xy -1.509246 4.934689) (xy -1.588787 5.142854)
			(xy -1.677387 5.374307) (xy -1.773512 5.625029) (xy -1.875629 5.891) (xy -1.930013 6.0325) (xy -2.03577 6.307616)
			(xy -2.137258 6.57172) (xy -2.232824 6.820506) (xy -2.320817 7.04967) (xy -2.399586 7.254909) (xy -2.467479 7.431918)
			(xy -2.522844 7.576394) (xy -2.564029 7.684032) (xy -2.589383 7.750528) (xy -2.595251 7.76605) (xy -2.625314 7.838629)
			(xy -2.650714 7.886752) (xy -2.662475 7.898659) (xy -2.690793 7.889157) (xy -2.757395 7.863464) (xy -2.853702 7.824989)
			(xy -2.971129 7.777136) (xy -3.0353 7.750668) (xy -3.580563 7.506447) (xy -4.084962 7.241082) (xy -4.555733 6.949781)
			(xy -5.000108 6.62775) (xy -5.425322 6.270198) (xy -5.778687 5.933166) (xy -6.213345 5.460354) (xy -6.605866 4.959435)
			(xy -6.95576 4.431388) (xy -7.262537 3.877194) (xy -7.52571 3.297832) (xy -7.744789 2.694281) (xy -7.919284 2.067521)
			(xy -8.048707 1.418533) (xy -8.056175 1.3716) (xy -8.073038 1.258589) (xy -8.086306 1.15424) (xy -8.096398 1.050175)
			(xy -8.10373 0.938019) (xy -8.108721 0.809395) (xy -8.111789 0.655929) (xy -8.113351 0.469244) (xy -8.113826 0.240963)
			(xy -8.11383 0.2159) (xy -8.112652 -0.062236) (xy -8.108424 -0.299865) (xy -8.100128 -0.50724) (xy -8.086745 -0.694612)
			(xy -8.067258 -0.872235) (xy -8.040648 -1.050361) (xy -8.005897 -1.239242) (xy -7.961986 -1.44913)
			(xy -7.937467 -1.559857) (xy -7.77391 -2.175274) (xy -7.564736 -2.770614) (xy -7.311819 -3.343845)
			(xy -7.017031 -3.892934) (xy -6.682244 -4.415847) (xy -6.309331 -4.910551) (xy -5.900163 -5.375014)
			(xy -5.456612 -5.807201) (xy -4.980552 -6.20508) (xy -4.473854 -6.566618) (xy -3.93839 -6.889781)
			(xy -3.376033 -7.172537) (xy -2.788654 -7.412852) (xy -2.4384 -7.531625) (xy -1.831781 -7.695756)
			(xy -1.21256 -7.811668) (xy -0.5847 -7.879165) (xy 0.047835 -7.898051) (xy 0.681083 -7.868131)
		)
		(stroke
			(width 0.01)
			(type solid)
		)
		(fill solid)
		(layer "F.Mask")
		(uuid "8a82f9fa-5d8e-42b9-a9aa-5178ee384b5d")
	)
)
