(footprint "MAXIM_SC-70"
	(version 20240108)
	(generator "pcbnew")
	(generator_version "8.0")
	(layer "F.Cu")
	(descr "MAXIM SC-70, https://pdfserv.maximintegrated.com/land_patterns/90-0189.PDF")
	(tags "SC-70")
	(property "Reference" "REF**"
		(at 0 2.7 0)
		(unlocked yes)
		(layer "F.SilkS")
		(uuid "ffee26b9-5dab-4e51-a7e8-7be6fccbb750")
		(effects
			(font
				(size 1 1)
				(thickness 0.15)
			)
		)
	)
	(property "Value" "MAXIM_SC-70"
		(at 0 -2.5 0)
		(unlocked yes)
		(layer "F.Fab")
		(uuid "e85be47a-cef3-4560-b89b-1e8338c8e10c")
		(effects
			(font
				(size 1 1)
				(thickness 0.15)
			)
		)
	)
	(property "Footprint" ""
		(at 0 0 0)
		(unlocked yes)
		(layer "F.Fab")
		(hide yes)
		(uuid "6be54e84-a015-451c-ad51-2f26e4c88f5d")
		(effects
			(font
				(size 1.27 1.27)
				(thickness 0.15)
			)
		)
	)
	(property "Datasheet" ""
		(at 0 0 0)
		(unlocked yes)
		(layer "F.Fab")
		(hide yes)
		(uuid "70aea8c0-8d63-4c48-82cc-77f4dc5e42d8")
		(effects
			(font
				(size 1.27 1.27)
				(thickness 0.15)
			)
		)
	)
	(property "Description" ""
		(at 0 0 0)
		(unlocked yes)
		(layer "F.Fab")
		(hide yes)
		(uuid "96f82eb4-5e64-453d-b489-8e11978fa8ac")
		(effects
			(font
				(size 1.27 1.27)
				(thickness 0.15)
			)
		)
	)
	(attr smd)
	(fp_line
		(start -1.3 -1.3)
		(end -1.3 1.1)
		(stroke
			(width 0.12)
			(type solid)
		)
		(layer "F.SilkS")
		(uuid "bb0253b1-1a7a-4143-87c2-1be28a7206f6")
	)
	(fp_line
		(start -1.1 -1.3)
		(end -1.3 -1.3)
		(stroke
			(width 0.12)
			(type solid)
		)
		(layer "F.SilkS")
		(uuid "f852ac28-2d6b-4d37-9e09-faa3fa122ba8")
	)
	(fp_line
		(start -1.1 1.3)
		(end -1.3 1.1)
		(stroke
			(width 0.12)
			(type solid)
		)
		(layer "F.SilkS")
		(uuid "ab3846c4-37ed-4fde-881d-45805067a226")
	)
	(fp_line
		(start 1.1 -1.3)
		(end 1.3 -1.3)
		(stroke
			(width 0.12)
			(type solid)
		)
		(layer "F.SilkS")
		(uuid "4dc89073-adf2-4fce-9cf9-7161598975f5")
	)
	(fp_line
		(start 1.3 -1.3)
		(end 1.3 1.3)
		(stroke
			(width 0.12)
			(type solid)
		)
		(layer "F.SilkS")
		(uuid "7d7853f7-faf2-4d24-b406-41d947bb7116")
	)
	(fp_line
		(start 1.3 1.3)
		(end 1.1 1.3)
		(stroke
			(width 0.12)
			(type solid)
		)
		(layer "F.SilkS")
		(uuid "e1956ad5-956c-4692-b997-1d987e08a921")
	)
	(fp_line
		(start -1.4 -1.6)
		(end 1.4 -1.6)
		(stroke
			(width 0.05)
			(type solid)
		)
		(layer "F.CrtYd")
		(uuid "21550bde-79ce-407a-9b6f-e5007bca7cbb")
	)
	(fp_line
		(start -1.4 1.6)
		(end -1.4 -1.6)
		(stroke
			(width 0.05)
			(type solid)
		)
		(layer "F.CrtYd")
		(uuid "c6896b81-bead-41e3-be7f-d59429d63b9f")
	)
	(fp_line
		(start 1.4 -1.6)
		(end 1.4 1.6)
		(stroke
			(width 0.05)
			(type solid)
		)
		(layer "F.CrtYd")
		(uuid "be6f8f79-70c8-441a-a4d8-5734d464a7b4")
	)
	(fp_line
		(start 1.4 1.6)
		(end -1.4 1.6)
		(stroke
			(width 0.05)
			(type solid)
		)
		(layer "F.CrtYd")
		(uuid "a7828064-02ff-413d-b38b-db8396439f03")
	)
	(fp_line
		(start -0.85 -1.3)
		(end 0.85 -1.3)
		(stroke
			(width 0.1)
			(type solid)
		)
		(layer "F.Fab")
		(uuid "90623825-07de-4f14-8564-5c1ed545be33")
	)
	(fp_line
		(start -0.85 1.3)
		(end -0.85 -1.3)
		(stroke
			(width 0.1)
			(type solid)
		)
		(layer "F.Fab")
		(uuid "1188743e-a2ba-44b0-88e9-72a2771208e3")
	)
	(fp_line
		(start 0.85 -1.3)
		(end 0.85 1.3)
		(stroke
			(width 0.1)
			(type solid)
		)
		(layer "F.Fab")
		(uuid "3825f712-7dbc-4e9f-91f8-5a77b0f0fd78")
	)
	(fp_line
		(start 0.85 1.3)
		(end -0.85 1.3)
		(stroke
			(width 0.1)
			(type solid)
		)
		(layer "F.Fab")
		(uuid "30d962c9-d4dc-4dfe-b765-779c20c7a013")
	)
	(fp_text user "${REFERENCE}"
		(at 0 2.7 0)
		(unlocked yes)
		(layer "F.Fab")
		(uuid "ff60acdc-a3ea-4a23-9b9a-2df8132d5023")
		(effects
			(font
				(size 1 1)
				(thickness 0.15)
			)
		)
	)
	(pad "1" smd trapezoid
		(at -0.65 0.95)
		(size 0.35 1.15)
		(layers "F.Cu" "F.Paste" "F.Mask")
		(uuid "f0f0f640-c4e6-4347-97d4-fa62faa8524e")
	)
	(pad "2" smd trapezoid
		(at 0 0.95)
		(size 0.35 1.15)
		(layers "F.Cu" "F.Paste" "F.Mask")
		(uuid "dc9ac919-76dd-4dde-ac4c-f613136937fb")
	)
	(pad "3" smd trapezoid
		(at 0.65 0.95)
		(size 0.35 1.15)
		(layers "F.Cu" "F.Paste" "F.Mask")
		(uuid "e6089c3c-a9b7-46ec-bd63-81b2c3139cb1")
	)
	(pad "4" smd trapezoid
		(at 0.65 -0.95)
		(size 0.35 1.15)
		(layers "F.Cu" "F.Paste" "F.Mask")
		(uuid "decfce78-92d6-48ab-801f-5f333a589965")
	)
	(pad "5" smd trapezoid
		(at 0 -0.95)
		(size 0.35 1.15)
		(layers "F.Cu" "F.Paste" "F.Mask")
		(uuid "61dbf4e4-273f-4558-8ad6-fb97103f9fd6")
	)
	(pad "6" smd trapezoid
		(at -0.65 -0.95)
		(size 0.35 1.15)
		(layers "F.Cu" "F.Paste" "F.Mask")
		(uuid "864a08ee-cc49-45aa-86a5-d288bd1cf54d")
	)
	(model "${LSF_KICAD_LIB}/lsf-kicad-lib.3dshapes/MAXIM_SC-70.wrl"
		(offset
			(xyz 0 0 0)
		)
		(scale
			(xyz 1 1 1)
		)
		(rotate
			(xyz 0 0 0)
		)
	)
)
