(footprint "MMZ09332B"
	(version 20240108)
	(generator "pcbnew")
	(generator_version "8.0")
	(layer "F.Cu")
	(descr "UD Package; 12-Lead Plastic QFN (3mm x 3mm), https://www.nxp.com/docs/en/data-sheet/MMZ09332B.pdf")
	(tags "QFN 0.5")
	(property "Reference" "REF**"
		(at 0 -2.7 0)
		(layer "F.SilkS")
		(uuid "e0c404df-b344-4d21-a095-d2b5de039254")
		(effects
			(font
				(size 1 1)
				(thickness 0.15)
			)
		)
	)
	(property "Value" "MMZ09332B"
		(at 0 2.75 0)
		(layer "F.Fab")
		(uuid "73e03c7b-fab6-4a16-8047-3bc9b47df4b9")
		(effects
			(font
				(size 1 1)
				(thickness 0.15)
			)
		)
	)
	(property "Footprint" ""
		(at 0 0 0)
		(layer "F.Fab")
		(hide yes)
		(uuid "f5449d72-246b-4a28-8a1e-9375e1d8c995")
		(effects
			(font
				(size 1.27 1.27)
				(thickness 0.15)
			)
		)
	)
	(property "Datasheet" ""
		(at 0 0 0)
		(layer "F.Fab")
		(hide yes)
		(uuid "7b26e077-3f66-48df-934d-cc2d17a834a4")
		(effects
			(font
				(size 1.27 1.27)
				(thickness 0.15)
			)
		)
	)
	(property "Description" ""
		(at 0 0 0)
		(layer "F.Fab")
		(hide yes)
		(uuid "2741ec01-608e-4998-86ca-ff8689b9d27f")
		(effects
			(font
				(size 1.27 1.27)
				(thickness 0.15)
			)
		)
	)
	(attr smd)
	(fp_line
		(start -1.625 -1.625)
		(end -0.85 -1.625)
		(stroke
			(width 0.12)
			(type solid)
		)
		(layer "F.SilkS")
		(uuid "9115b6d1-e8f2-471b-9036-47c9ea51d81b")
	)
	(fp_line
		(start -1.625 1.625)
		(end -1.625 0.85)
		(stroke
			(width 0.12)
			(type solid)
		)
		(layer "F.SilkS")
		(uuid "a3ec847d-3d0d-484c-b72c-27d0f6c31bdc")
	)
	(fp_line
		(start -1.625 1.625)
		(end -0.85 1.625)
		(stroke
			(width 0.12)
			(type solid)
		)
		(layer "F.SilkS")
		(uuid "99bb35be-4f58-4d41-9d70-dd6f5d560331")
	)
	(fp_line
		(start 1.625 -1.625)
		(end 0.85 -1.625)
		(stroke
			(width 0.12)
			(type solid)
		)
		(layer "F.SilkS")
		(uuid "1b3e735b-0733-4b88-80e3-63dce95cfd6d")
	)
	(fp_line
		(start 1.625 -1.625)
		(end 1.625 -0.85)
		(stroke
			(width 0.12)
			(type solid)
		)
		(layer "F.SilkS")
		(uuid "daf107d9-70a9-4f59-b019-1728eb63dc74")
	)
	(fp_line
		(start 1.625 1.625)
		(end 0.85 1.625)
		(stroke
			(width 0.12)
			(type solid)
		)
		(layer "F.SilkS")
		(uuid "8f9872c7-3dba-447e-8252-4b25e63784f8")
	)
	(fp_line
		(start 1.625 1.625)
		(end 1.625 0.85)
		(stroke
			(width 0.12)
			(type solid)
		)
		(layer "F.SilkS")
		(uuid "94289fad-3a64-41ef-abaf-f4fc775c4eed")
	)
	(fp_line
		(start -2 -2)
		(end -2 2)
		(stroke
			(width 0.05)
			(type solid)
		)
		(layer "F.CrtYd")
		(uuid "cbbe7d54-ab53-474e-811f-66f8bc7002e0")
	)
	(fp_line
		(start -2 -2)
		(end 2 -2)
		(stroke
			(width 0.05)
			(type solid)
		)
		(layer "F.CrtYd")
		(uuid "5d4ce063-b86e-4415-ba17-02c677884c5a")
	)
	(fp_line
		(start -2 2)
		(end 2 2)
		(stroke
			(width 0.05)
			(type solid)
		)
		(layer "F.CrtYd")
		(uuid "2100a8bc-1561-4f4a-8292-9bb226d1d140")
	)
	(fp_line
		(start 2 -2)
		(end 2 2)
		(stroke
			(width 0.05)
			(type solid)
		)
		(layer "F.CrtYd")
		(uuid "b84c8a05-f57a-4a2f-8abe-2afd46d6ef65")
	)
	(fp_line
		(start -1.5 -0.5)
		(end -0.5 -1.5)
		(stroke
			(width 0.1)
			(type solid)
		)
		(layer "F.Fab")
		(uuid "763153d0-bfc8-4df9-85f1-b4c48a30b9b3")
	)
	(fp_line
		(start -1.5 1.5)
		(end -1.5 -0.5)
		(stroke
			(width 0.1)
			(type solid)
		)
		(layer "F.Fab")
		(uuid "72006353-950a-459a-9dca-426a65bbd033")
	)
	(fp_line
		(start -0.5 -1.5)
		(end 1.5 -1.5)
		(stroke
			(width 0.1)
			(type solid)
		)
		(layer "F.Fab")
		(uuid "79b36925-a718-402a-a1a5-ea5cc7ae6324")
	)
	(fp_line
		(start 1.5 -1.5)
		(end 1.5 1.5)
		(stroke
			(width 0.1)
			(type solid)
		)
		(layer "F.Fab")
		(uuid "df458562-f72b-456e-8968-0eefb5d28447")
	)
	(fp_line
		(start 1.5 1.5)
		(end -1.5 1.5)
		(stroke
			(width 0.1)
			(type solid)
		)
		(layer "F.Fab")
		(uuid "ab6035b3-6ed4-4206-8f88-96043d574119")
	)
	(fp_text user "${REFERENCE}"
		(at 0 0 0)
		(layer "F.Fab")
		(uuid "cff12ec6-9490-40b0-9404-bf28080b68de")
		(effects
			(font
				(size 0.7 0.7)
				(thickness 0.105)
			)
		)
	)
	(pad "1" smd rect
		(at -1.4 -0.5)
		(size 0.7 0.3)
		(layers "F.Cu" "F.Paste" "F.Mask")
		(uuid "b981c534-dd1a-4eb2-890f-b8d4fccae19c")
	)
	(pad "2" smd rect
		(at -1.4 0)
		(size 0.7 0.3)
		(layers "F.Cu" "F.Paste" "F.Mask")
		(uuid "2c139313-fd98-483c-8ded-fb8e68a878f2")
	)
	(pad "3" smd rect
		(at -1.4 0.5)
		(size 0.7 0.3)
		(layers "F.Cu" "F.Paste" "F.Mask")
		(uuid "9ca33c62-bc39-4f9a-b37b-ffad624a01fd")
	)
	(pad "4" smd rect
		(at -0.5 1.4 90)
		(size 0.7 0.3)
		(layers "F.Cu" "F.Paste" "F.Mask")
		(uuid "37af851e-fc7e-4169-ab40-6664269c2de6")
	)
	(pad "5" smd rect
		(at 0 1.4 90)
		(size 0.7 0.3)
		(layers "F.Cu" "F.Paste" "F.Mask")
		(uuid "5b5586b7-339b-4146-93cf-82a4a36ef235")
	)
	(pad "6" smd rect
		(at 0.5 1.4 90)
		(size 0.7 0.3)
		(layers "F.Cu" "F.Paste" "F.Mask")
		(uuid "860cdcae-1b88-4b73-92ff-7dffaec95023")
	)
	(pad "7" smd rect
		(at 1.4 0.5)
		(size 0.7 0.3)
		(layers "F.Cu" "F.Paste" "F.Mask")
		(uuid "d2d0665c-1c35-4b7c-ba35-df62c65ae852")
	)
	(pad "8" smd rect
		(at 1.4 0)
		(size 0.7 0.3)
		(layers "F.Cu" "F.Paste" "F.Mask")
		(uuid "76db7166-9261-4b71-b934-6ecd247ffb72")
	)
	(pad "9" smd rect
		(at 1.4 -0.5)
		(size 0.7 0.3)
		(layers "F.Cu" "F.Paste" "F.Mask")
		(uuid "e0a92c43-2009-450e-a798-c880a3eefe2f")
	)
	(pad "10" smd rect
		(at 0.5 -1.4 90)
		(size 0.7 0.3)
		(layers "F.Cu" "F.Paste" "F.Mask")
		(uuid "06e6934b-3b0f-4d7e-b0ef-f26e779a3629")
	)
	(pad "11" smd rect
		(at 0 -1.4 90)
		(size 0.7 0.3)
		(layers "F.Cu" "F.Paste" "F.Mask")
		(uuid "76b36edb-8986-48d4-832f-1ae513cc4d71")
	)
	(pad "12" smd rect
		(at -0.5 -1.4 90)
		(size 0.7 0.3)
		(layers "F.Cu" "F.Paste" "F.Mask")
		(uuid "9575091e-9cd3-436e-99b7-d8f53d02928b")
	)
	(pad "13" thru_hole circle
		(at -0.5 -0.4)
		(size 0.5 0.5)
		(drill 0.2)
		(layers "*.Cu" "*.Mask")
		(remove_unused_layers no)
		(uuid "24f25237-5ed6-401a-9318-00eb04210f03")
	)
	(pad "13" thru_hole circle
		(at -0.5 0.4)
		(size 0.5 0.5)
		(drill 0.2)
		(layers "*.Cu" "*.Mask")
		(remove_unused_layers no)
		(uuid "f50d5cbc-b003-406c-bfb6-83ef40b8bc60")
	)
	(pad "13" thru_hole circle
		(at -0.25 0)
		(size 0.5 0.5)
		(drill 0.2)
		(layers "*.Cu" "*.Mask")
		(remove_unused_layers no)
		(uuid "acd9ae90-401c-4c81-9bd3-11a59c97c35b")
	)
	(pad "13" thru_hole circle
		(at 0 -0.4)
		(size 0.5 0.5)
		(drill 0.2)
		(layers "*.Cu" "*.Mask")
		(remove_unused_layers no)
		(uuid "976385c0-6934-4ab0-a70e-968fd8a5d0eb")
	)
	(pad "13" smd rect
		(at 0 0)
		(size 1.6 1.6)
		(layers "F.Cu" "F.Paste" "F.Mask")
		(uuid "09de4bec-3090-4334-b66e-a25fc9c73610")
	)
	(pad "13" thru_hole circle
		(at 0 0.4)
		(size 0.5 0.5)
		(drill 0.2)
		(layers "*.Cu" "*.Mask")
		(remove_unused_layers no)
		(uuid "bd8e27b4-e30f-4656-9fd4-19aa6beb996c")
	)
	(pad "13" thru_hole circle
		(at 0.25 0)
		(size 0.5 0.5)
		(drill 0.2)
		(layers "*.Cu" "*.Mask")
		(remove_unused_layers no)
		(uuid "e8e152bb-e051-4707-a78e-d35663ed0368")
	)
	(pad "13" thru_hole circle
		(at 0.5 -0.4)
		(size 0.5 0.5)
		(drill 0.2)
		(layers "*.Cu" "*.Mask")
		(remove_unused_layers no)
		(uuid "fe068832-4e61-49c6-a44e-ff7ae58a7756")
	)
	(pad "13" thru_hole circle
		(at 0.5 0.4)
		(size 0.5 0.5)
		(drill 0.2)
		(layers "*.Cu" "*.Mask")
		(remove_unused_layers no)
		(uuid "6ccce700-e87c-4714-a145-96ba6b7b6d1b")
	)
	(model "${LSF_KICAD_LIB}/lsf-kicad-lib.3dshapes/MMZ09332B.wrl"
		(offset
			(xyz 0 0 0)
		)
		(scale
			(xyz 1 1 1)
		)
		(rotate
			(xyz 0 0 0)
		)
	)
)
