(footprint "MountingHole_3.2mm_M3_PC104"
	(version 20240108)
	(generator "pcbnew")
	(generator_version "8.0")
	(layer "F.Cu")
	(descr "Mounting Hole 3.2mm, M3, ISO14580, https://")
	(tags "mounting hole 3.2mm m3 iso14580")
	(property "Reference" "REF**"
		(at 0 -3.75 0)
		(layer "F.SilkS")
		(uuid "9a7332c9-f744-4bc0-a002-40c39980a238")
		(effects
			(font
				(size 1 1)
				(thickness 0.15)
			)
		)
	)
	(property "Value" "MountingHole_3.2mm_M3_PC104"
		(at 0 3.75 0)
		(layer "F.Fab")
		(uuid "20d16e0b-5f0b-4511-adf9-2f9cb1d46146")
		(effects
			(font
				(size 1 1)
				(thickness 0.15)
			)
		)
	)
	(property "Footprint" ""
		(at 0 0 0)
		(layer "F.Fab")
		(hide yes)
		(uuid "10c79987-3d2d-4814-8472-06b86fef9147")
		(effects
			(font
				(size 1.27 1.27)
				(thickness 0.15)
			)
		)
	)
	(property "Datasheet" ""
		(at 0 0 0)
		(layer "F.Fab")
		(hide yes)
		(uuid "c091053f-c30d-4c03-b520-2b4413654ee0")
		(effects
			(font
				(size 1.27 1.27)
				(thickness 0.15)
			)
		)
	)
	(property "Description" ""
		(at 0 0 0)
		(layer "F.Fab")
		(hide yes)
		(uuid "e51264ba-517b-4e96-9e4b-57eb6b45ea11")
		(effects
			(font
				(size 1.27 1.27)
				(thickness 0.15)
			)
		)
	)
	(attr exclude_from_pos_files exclude_from_bom)
	(fp_circle
		(center 0 0)
		(end 3.175 0)
		(stroke
			(width 0.15)
			(type solid)
		)
		(fill none)
		(layer "Cmts.User")
		(uuid "8185e247-98dc-4ac1-ae52-8cdd002a00ee")
	)
	(fp_circle
		(center 0 0)
		(end 3.3 0)
		(stroke
			(width 0.05)
			(type solid)
		)
		(fill none)
		(layer "F.CrtYd")
		(uuid "9cf63637-ec5f-405a-b4a1-679a26dc62e5")
	)
	(fp_text user "${REFERENCE}"
		(at 0.3 0 0)
		(layer "F.Fab")
		(uuid "b3653629-8583-45b4-8d15-bd4d75b9a47e")
		(effects
			(font
				(size 1 1)
				(thickness 0.15)
			)
		)
	)
	(pad "1" thru_hole circle
		(at 0 0)
		(size 6.35 6.35)
		(drill 3.18)
		(layers "*.Cu" "*.Mask")
		(remove_unused_layers no)
		(uuid "21c47366-3509-459e-9ec2-232fdcd306eb")
	)
)
