(footprint "N_Type_Bulkhead_2-Hole_Flange" (version 20211014) (generator pcbnew)
  (layer "F.Cu")
  (tedit 61E94449)
  (descr "N-Type bulkhead connector 2-Hole Flange,  https://www.amphenolrf.com/172323.html")
  (tags "NType female chassis connector bulkhead")
  (attr through_hole)
  (fp_text reference "REF**" (at -0.01524 -13.56614) (layer "F.SilkS")
    (effects (font (size 1 1) (thickness 0.15)))
    (tstamp 4bd27511-ef7a-4419-a7dd-096ba1dad431)
  )
  (fp_text value "N_Type_Bulkhead_2-Hole_Flange" (at -0.00762 13.7033) (layer "F.Fab")
    (effects (font (size 1 1) (thickness 0.15)))
    (tstamp bd04eeef-d7cc-4a72-a97a-b549f720c700)
  )
  (fp_text user "${REFERENCE}" (at 0 0) (layer "F.Fab")
    (effects (font (size 1 1) (thickness 0.15)))
    (tstamp 6de66033-5f9d-491e-b7c7-20a7ec438821)
  )
  (fp_circle (center 12.9 0) (end 16.1 0) (layer "B.SilkS") (width 0.12) (fill none) (tstamp 368c225e-1cd6-4247-8c8a-0f51edd1f85d))
  (fp_circle (center -12.9 0) (end -9.7 0) (layer "B.SilkS") (width 0.12) (fill none) (tstamp 509c4fd9-5a3c-44b8-88ff-146629881b72))
  (fp_line (start -17.272 2.794) (end -17.272 -2.794) (layer "F.SilkS") (width 0.12) (tstamp 010a4f54-c993-4dff-ad75-0d6de93f1706))
  (fp_line (start -3.5 9.6) (end -17.272 2.794) (layer "F.SilkS") (width 0.12) (tstamp 402bd949-8cb9-4219-a307-590a80991ccd))
  (fp_line (start 17.272 2.794) (end 3.599089 9.563292) (layer "F.SilkS") (width 0.12) (tstamp 5d356faa-dd78-493d-8bad-0ac79f62cb93))
  (fp_line (start 17.272 -2.794) (end 17.272 2.794) (layer "F.SilkS") (width 0.12) (tstamp 740b112c-1990-4655-b6e1-1ad68bf0f325))
  (fp_line (start 3.5 -9.6) (end 17.272 -2.794) (layer "F.SilkS") (width 0.12) (tstamp 76d9a354-1605-4eba-8b2e-9f99616d3192))
  (fp_line (start -17.272 -2.794) (end -3.508539 -9.596882) (layer "F.SilkS") (width 0.12) (tstamp 86836fb6-cdfa-4337-8553-9d75b50cc154))
  (fp_arc (start -3.508539 -9.596882) (mid -0.004545 -10.21812) (end 3.5 -9.6) (layer "F.SilkS") (width 0.12) (tstamp 1868e995-c01a-4060-a509-52380812a269))
  (fp_arc (start 3.599089 9.563292) (mid 0.052835 10.217984) (end -3.5 9.6) (layer "F.SilkS") (width 0.12) (tstamp c8f07988-6923-43c1-86bc-6009e69a36e7))
  (fp_line (start -17.5 -3.1) (end -3.5 -10.3) (layer "F.CrtYd") (width 0.05) (tstamp 04094f8c-92e5-41b0-bfe4-ed6fa7815553))
  (fp_line (start -17.5 3.4) (end -17.5 -3.1) (layer "F.CrtYd") (width 0.05) (tstamp 30a006ce-0084-4ca3-9425-cd739ad74121))
  (fp_line (start 17.5 3.4) (end 3.6 10.4) (layer "F.CrtYd") (width 0.05) (tstamp 35b04a47-8a92-48ce-b2ae-78e128e5577c))
  (fp_line (start 17.5 -3.1) (end 17.5 3.4) (layer "F.CrtYd") (width 0.05) (tstamp 3cc0512b-abac-4166-8bc6-76d90bf870d1))
  (fp_line (start 3.6 10.4) (end -3.5 10.4) (layer "F.CrtYd") (width 0.05) (tstamp 61626756-da46-4cc8-8bfb-501b182fc2b2))
  (fp_line (start -3.5 10.4) (end -17.5 3.4) (layer "F.CrtYd") (width 0.05) (tstamp a4e3ce3f-9135-45f8-93a9-b7293b714ebf))
  (fp_line (start -3.5 -10.3) (end 3.6 -10.3) (layer "F.CrtYd") (width 0.05) (tstamp e16a93db-f517-4497-912b-02bbb46f3e46))
  (fp_line (start 3.6 -10.3) (end 17.5 -3.1) (layer "F.CrtYd") (width 0.05) (tstamp f4685c64-7003-44ca-9972-c3d418ce27d2))
  (fp_circle (center -12.9 0) (end -9.7 0) (layer "B.Fab") (width 0.1) (fill none) (tstamp 0b357a49-93c4-4903-b66a-539e8626caef))
  (fp_circle (center 12.9 0) (end 16.1 0) (layer "B.Fab") (width 0.1) (fill none) (tstamp 17f96014-b936-4786-94ec-98d669c3026a))
  (fp_line (start -15 3.65) (end -4.59 8.88) (layer "F.Fab") (width 0.1) (tstamp 6add0935-8139-4546-9aef-e5ee3da91e2c))
  (fp_line (start -15 -3.65) (end -4.59 -8.88) (layer "F.Fab") (width 0.1) (tstamp 9231178a-c5b3-45b7-8f97-57603cc57cd7))
  (fp_line (start 15 3.65) (end 4.59 8.88) (layer "F.Fab") (width 0.1) (tstamp c543ad15-52d7-424c-a6ee-ed81e4bd99fc))
  (fp_line (start 15 -3.65) (end 4.59 -8.88) (layer "F.Fab") (width 0.1) (tstamp ccd72065-fdc0-42e6-820c-b3ef4e00b09e))
  (fp_arc (start -4.594935 -8.877447) (mid -0.002778 -9.996124) (end 4.59 -8.88) (layer "F.Fab") (width 0.1) (tstamp 01205be1-00e2-4937-856d-c1021ac09a58))
  (fp_arc (start -14.998261 3.651) (mid -17.110997 0.001003) (end -15 -3.65) (layer "F.Fab") (width 0.1) (tstamp 0b8516f7-74c0-470c-ac94-55e9e070cab8))
  (fp_arc (start 14.998261 -3.651) (mid 17.110997 -0.001003) (end 15 3.65) (layer "F.Fab") (width 0.1) (tstamp 7b91f57c-cb55-4826-abf2-3818754597d9))
  (fp_arc (start 4.594935 8.877447) (mid 0.002778 9.996124) (end -4.59 8.88) (layer "F.Fab") (width 0.1) (tstamp f66fb11a-606e-4ae5-bc13-6de4d555c807))
  (pad "1" thru_hole circle (at 0 0) (size 5.4 5.4) (drill 3.4) (layers *.Cu *.Mask) (tstamp 6a539b75-6408-46df-9139-8e71f7004195))
  (pad "2" thru_hole circle (at -12.9 0) (size 6 6) (drill 3.2) (layers *.Cu *.Mask) (tstamp 372be226-6d07-405a-a7d2-5f729d9054e6))
  (pad "2" thru_hole circle (at 12.9 0) (size 6 6) (drill 3.2) (layers *.Cu *.Mask) (tstamp aa134fb9-38e1-4f81-a6ab-bdd4786e63cd))
  (model "${LSF_KICAD_LIB}/lsf-kicad-lib.3dshapes/N_Type_Bulkhead_2-Hole_Flange.wrl"
    (offset (xyz 0 0 0))
    (scale (xyz 1 1 1))
    (rotate (xyz 0 0 0))
  )
)
