(footprint "Pololu_Dual_MC33926"
	(version 20240108)
	(generator "pcbnew")
	(generator_version "8.0")
	(layer "F.Cu")
	(descr "Pin socket for pololu dual MC33926, https://www.pololu.com/product/1213")
	(tags "Pin Socket")
	(property "Reference" "REF**"
		(at 21.61 12.07 0)
		(layer "F.SilkS")
		(uuid "8c5500dc-4ad2-4513-b25a-35a2118650fd")
		(effects
			(font
				(size 1 1)
				(thickness 0.15)
			)
		)
	)
	(property "Value" "Pololu_Dual_MC33926"
		(at 21.844 10.16 0)
		(layer "F.Fab")
		(uuid "c53a5340-cfdd-42f4-bbe5-dc78babab792")
		(effects
			(font
				(size 1 1)
				(thickness 0.15)
			)
		)
	)
	(property "Footprint" ""
		(at 0 0 0)
		(layer "F.Fab")
		(hide yes)
		(uuid "ffb35c94-9390-4753-a889-7522a4973249")
		(effects
			(font
				(size 1.27 1.27)
				(thickness 0.15)
			)
		)
	)
	(property "Datasheet" ""
		(at 0 0 0)
		(layer "F.Fab")
		(hide yes)
		(uuid "0cba2381-aa3f-4e5b-989c-9b2142bde52c")
		(effects
			(font
				(size 1.27 1.27)
				(thickness 0.15)
			)
		)
	)
	(property "Description" ""
		(at 0 0 0)
		(layer "F.Fab")
		(hide yes)
		(uuid "d0649c94-d7ff-427d-9a10-1874d82e17d2")
		(effects
			(font
				(size 1.27 1.27)
				(thickness 0.15)
			)
		)
	)
	(attr through_hole)
	(fp_line
		(start -1.524 -1.524)
		(end -1.524 0)
		(stroke
			(width 0.12)
			(type solid)
		)
		(layer "F.SilkS")
		(uuid "58818ed7-6ccb-42e1-bd33-64a788db41e0")
	)
	(fp_line
		(start -1.524 1.524)
		(end 1.27 1.524)
		(stroke
			(width 0.12)
			(type solid)
		)
		(layer "F.SilkS")
		(uuid "3cc1e65a-efee-4a51-ab74-c1754ba2e382")
	)
	(fp_line
		(start -1.524 26.67)
		(end -1.524 1.524)
		(stroke
			(width 0.12)
			(type solid)
		)
		(layer "F.SilkS")
		(uuid "3c7e3d88-16dd-4a39-b9ee-58e1a719d679")
	)
	(fp_line
		(start 0 -1.524)
		(end -1.524 -1.524)
		(stroke
			(width 0.12)
			(type solid)
		)
		(layer "F.SilkS")
		(uuid "6091125d-1dec-41da-9453-9a0778db8516")
	)
	(fp_line
		(start 1.27 -1.524)
		(end 44.704 -1.524)
		(stroke
			(width 0.12)
			(type solid)
		)
		(layer "F.SilkS")
		(uuid "3958e3e8-1f7a-4c1c-b597-214f1da5fb75")
	)
	(fp_line
		(start 1.27 1.524)
		(end 1.27 -1.524)
		(stroke
			(width 0.12)
			(type solid)
		)
		(layer "F.SilkS")
		(uuid "1e9fb53e-184a-4ffa-9f08-358d0f2cb75d")
	)
	(fp_line
		(start 44.704 -1.524)
		(end 44.704 26.67)
		(stroke
			(width 0.12)
			(type solid)
		)
		(layer "F.SilkS")
		(uuid "598c5f14-5e5c-4bda-be8f-abf00c18c77f")
	)
	(fp_line
		(start 44.704 26.67)
		(end -1.524 26.67)
		(stroke
			(width 0.12)
			(type solid)
		)
		(layer "F.SilkS")
		(uuid "ce006cd2-9eee-456b-8008-d6efa4594098")
	)
	(fp_line
		(start -1.7 -1.7)
		(end -1.7 26.9)
		(stroke
			(width 0.05)
			(type solid)
		)
		(layer "F.CrtYd")
		(uuid "d26bd0a1-3fc8-45ac-9d75-cf30f299d160")
	)
	(fp_line
		(start -1.7 26.9)
		(end 44.9 26.9)
		(stroke
			(width 0.05)
			(type solid)
		)
		(layer "F.CrtYd")
		(uuid "400d7980-03d9-4193-90ab-b6b1d80eb0cf")
	)
	(fp_line
		(start 44.9 -1.7)
		(end -1.7 -1.7)
		(stroke
			(width 0.05)
			(type solid)
		)
		(layer "F.CrtYd")
		(uuid "6462af99-bc1d-481e-bfd8-6854de4776fb")
	)
	(fp_line
		(start 44.9 26.9)
		(end 44.9 -1.7)
		(stroke
			(width 0.05)
			(type solid)
		)
		(layer "F.CrtYd")
		(uuid "43eb1812-5675-47b5-95b0-92edbfbde87f")
	)
	(fp_line
		(start -1.524 -1.524)
		(end -1.524 26.67)
		(stroke
			(width 0.1)
			(type solid)
		)
		(layer "F.Fab")
		(uuid "8b433109-db18-4d46-8eb3-cc8881e7ec31")
	)
	(fp_line
		(start -1.524 26.67)
		(end 44.704 26.67)
		(stroke
			(width 0.1)
			(type solid)
		)
		(layer "F.Fab")
		(uuid "6ee0ddd4-8e07-480c-871b-7bfa6e376fbd")
	)
	(fp_line
		(start 44.704 -1.524)
		(end -1.524 -1.524)
		(stroke
			(width 0.1)
			(type solid)
		)
		(layer "F.Fab")
		(uuid "e0ff6c78-634c-41ea-8e2e-6012d3ecb750")
	)
	(fp_line
		(start 44.704 26.67)
		(end 44.704 -1.524)
		(stroke
			(width 0.1)
			(type solid)
		)
		(layer "F.Fab")
		(uuid "e3e733ee-b146-4fd4-a416-a07df4b89c31")
	)
	(fp_text user "${REFERENCE}"
		(at 21.61 12.07 0)
		(layer "F.Fab")
		(uuid "4640651f-4a39-4632-96b8-36eeb4f6bb20")
		(effects
			(font
				(size 1 1)
				(thickness 0.15)
			)
		)
	)
	(pad "" np_thru_hole circle
		(at 1.27 24.13)
		(size 2.2 2.2)
		(drill 2.2)
		(layers "*.Cu" "*.Mask" "F.SilkS")
		(uuid "f3795477-7043-478b-b56a-1b1049173449")
	)
	(pad "" np_thru_hole circle
		(at 41.91 24.13)
		(size 2.2 2.2)
		(drill 2.2)
		(layers "*.Cu" "*.Mask" "F.SilkS")
		(uuid "59cc2f8c-e39c-4e8d-bed9-b8b8e32474c7")
	)
	(pad "1" thru_hole rect
		(at 0 0)
		(size 1.6 1.8)
		(drill 1)
		(layers "*.Cu" "*.Mask")
		(remove_unused_layers no)
		(uuid "6087e5f5-18f3-449d-92f6-8d8ae503e850")
	)
	(pad "2" thru_hole oval
		(at 2.54 0)
		(size 1.6 1.8)
		(drill 1)
		(layers "*.Cu" "*.Mask")
		(remove_unused_layers no)
		(uuid "5679af82-8133-44f5-97d0-4f65a0267210")
	)
	(pad "3" thru_hole oval
		(at 5.08 0)
		(size 1.6 1.8)
		(drill 1)
		(layers "*.Cu" "*.Mask")
		(remove_unused_layers no)
		(uuid "782421dd-eadd-440d-99f4-ea379246c9bf")
	)
	(pad "4" thru_hole oval
		(at 7.62 0)
		(size 1.6 1.8)
		(drill 1)
		(layers "*.Cu" "*.Mask")
		(remove_unused_layers no)
		(uuid "d18d70cf-7919-44f4-b27f-4671f9a580d6")
	)
	(pad "5" thru_hole oval
		(at 10.16 0)
		(size 1.6 1.8)
		(drill 1)
		(layers "*.Cu" "*.Mask")
		(remove_unused_layers no)
		(uuid "91117706-e370-4d77-8013-f289411ed8c7")
	)
	(pad "6" thru_hole oval
		(at 12.7 0)
		(size 1.6 1.8)
		(drill 1)
		(layers "*.Cu" "*.Mask")
		(remove_unused_layers no)
		(uuid "0ff6cfd7-f5ca-4b0f-8fc3-a474c0e49c83")
	)
	(pad "7" thru_hole oval
		(at 15.24 0)
		(size 1.6 1.8)
		(drill 1)
		(layers "*.Cu" "*.Mask")
		(remove_unused_layers no)
		(uuid "c34b1304-bc00-41ff-861b-95985003e81b")
	)
	(pad "8" thru_hole oval
		(at 17.78 0)
		(size 1.6 1.8)
		(drill 1)
		(layers "*.Cu" "*.Mask")
		(remove_unused_layers no)
		(uuid "7331534e-e325-4267-8ec1-1c8b44f7f1b9")
	)
	(pad "9" thru_hole oval
		(at 20.32 0)
		(size 1.6 1.8)
		(drill 1)
		(layers "*.Cu" "*.Mask")
		(remove_unused_layers no)
		(uuid "1259a694-15e8-4757-a0a7-94fc72b26a6b")
	)
	(pad "10" thru_hole oval
		(at 22.86 0)
		(size 1.6 1.8)
		(drill 1)
		(layers "*.Cu" "*.Mask")
		(remove_unused_layers no)
		(uuid "b3ad76f9-5b00-4eee-9637-4c4091672bbb")
	)
	(pad "11" thru_hole oval
		(at 25.4 0)
		(size 1.6 1.8)
		(drill 1)
		(layers "*.Cu" "*.Mask")
		(remove_unused_layers no)
		(uuid "70077023-0c0f-4d3c-8c87-715bc6c1930e")
	)
	(pad "12" thru_hole oval
		(at 27.94 0)
		(size 1.6 1.8)
		(drill 1)
		(layers "*.Cu" "*.Mask")
		(remove_unused_layers no)
		(uuid "e04bb56e-298e-4608-9c62-b658e0e286f2")
	)
	(pad "13" thru_hole oval
		(at 30.48 0)
		(size 1.6 1.8)
		(drill 1)
		(layers "*.Cu" "*.Mask")
		(remove_unused_layers no)
		(uuid "7d48e682-5b50-4f81-8422-f5aa19057448")
	)
	(pad "14" thru_hole oval
		(at 33.02 0)
		(size 1.6 1.8)
		(drill 1)
		(layers "*.Cu" "*.Mask")
		(remove_unused_layers no)
		(uuid "37305e9b-7de0-4a6c-a721-a272cee3f50b")
	)
	(pad "15" thru_hole oval
		(at 35.56 0)
		(size 1.6 1.8)
		(drill 1)
		(layers "*.Cu" "*.Mask")
		(remove_unused_layers no)
		(uuid "15036c18-d246-49a5-a8b2-7b79056b554f")
	)
	(pad "16" thru_hole oval
		(at 38.1 0)
		(size 1.6 1.8)
		(drill 1)
		(layers "*.Cu" "*.Mask")
		(remove_unused_layers no)
		(uuid "4ea8d85b-2089-4e04-b084-f0f9eec6dbf6")
	)
	(pad "17" thru_hole oval
		(at 40.64 0)
		(size 1.6 1.8)
		(drill 1)
		(layers "*.Cu" "*.Mask")
		(remove_unused_layers no)
		(uuid "207e5fa7-5d2c-4a22-9cb2-116347c5ce33")
	)
	(pad "18" thru_hole oval
		(at 43.18 0)
		(size 1.6 1.8)
		(drill 1)
		(layers "*.Cu" "*.Mask")
		(remove_unused_layers no)
		(uuid "8b972462-9efb-47fe-95aa-368141a5fd96")
	)
	(pad "19" thru_hole oval
		(at 38.1 2.54)
		(size 1.6 1.8)
		(drill 1)
		(layers "*.Cu" "*.Mask")
		(remove_unused_layers no)
		(uuid "1c3e21bf-73b9-49bb-a59c-7dca7e258323")
	)
	(pad "20" thru_hole oval
		(at 35.56 2.54)
		(size 1.6 1.8)
		(drill 1)
		(layers "*.Cu" "*.Mask")
		(remove_unused_layers no)
		(uuid "79bfa889-f1df-46d7-b77b-605e4a4fcc3f")
	)
	(pad "21" thru_hole oval
		(at 27.94 2.54)
		(size 1.6 1.8)
		(drill 1)
		(layers "*.Cu" "*.Mask")
		(remove_unused_layers no)
		(uuid "c32b5d56-8c05-4769-a117-e753e5697fd6")
	)
	(pad "22" thru_hole oval
		(at 25.4 2.54)
		(size 1.6 1.8)
		(drill 1)
		(layers "*.Cu" "*.Mask")
		(remove_unused_layers no)
		(uuid "c79d6a5d-3d61-4a2c-8aed-39f5b256d473")
	)
	(pad "23" thru_hole oval
		(at 22.86 2.54)
		(size 1.6 1.8)
		(drill 1)
		(layers "*.Cu" "*.Mask")
		(remove_unused_layers no)
		(uuid "21800c8c-e2f6-41ad-bdf5-0f23742a5e34")
	)
	(pad "24" thru_hole oval
		(at 15.24 2.54)
		(size 1.6 1.8)
		(drill 1)
		(layers "*.Cu" "*.Mask")
		(remove_unused_layers no)
		(uuid "1dbedf9c-a409-4a57-ab7f-11d3fde22cba")
	)
	(pad "25" thru_hole oval
		(at 12.7 2.54)
		(size 1.6 1.8)
		(drill 1)
		(layers "*.Cu" "*.Mask")
		(remove_unused_layers no)
		(uuid "91e8950c-77ec-4271-9c07-bbf53df21d47")
	)
	(pad "26" thru_hole circle
		(at 22.8092 22.4028 90)
		(size 2.5 2.5)
		(drill 1.3)
		(layers "*.Cu" "*.Mask")
		(remove_unused_layers no)
		(uuid "0eb1a7fb-0b13-454d-819f-29d4eb471deb")
	)
	(pad "27" thru_hole circle
		(at 19.30908 22.4028)
		(size 2.5 2.5)
		(drill 1.3)
		(layers "*.Cu" "*.Mask")
		(remove_unused_layers no)
		(uuid "1491e230-3efc-44fa-b2e9-e2593bacdaec")
	)
	(model "${LSF_KICAD_LIB}/lsf-kicad-lib.3dshapes/Pololu_Dual_MC33926.wrl"
		(offset
			(xyz 0 0 0)
		)
		(scale
			(xyz 1 1 1)
		)
		(rotate
			(xyz 0 0 0)
		)
	)
)
