(footprint "POWERDI5"
	(version 20240108)
	(generator "pcbnew")
	(generator_version "8.0")
	(layer "F.Cu")
	(descr "PowerDI,Diode,Vishay,https://www.diodes.com/assets/Package-Files/PowerDI5.pdf")
	(tags "DIODE")
	(property "Reference" "REF**"
		(at 0 5.205 0)
		(layer "F.SilkS")
		(uuid "8a39c3ef-cbb2-438b-8fd2-d01d12a4eac3")
		(effects
			(font
				(size 1 1)
				(thickness 0.15)
			)
		)
	)
	(property "Value" "POWERDI5"
		(at 0 6.475 0)
		(layer "F.Fab")
		(uuid "dccfd5a0-cc29-408a-828c-ae13728c8284")
		(effects
			(font
				(size 1 1)
				(thickness 0.15)
			)
		)
	)
	(property "Footprint" ""
		(at 0 0 0)
		(layer "F.Fab")
		(hide yes)
		(uuid "a20c5c5f-e70c-4274-b82a-9eeb452e97e9")
		(effects
			(font
				(size 1.27 1.27)
				(thickness 0.15)
			)
		)
	)
	(property "Datasheet" ""
		(at 0 0 0)
		(layer "F.Fab")
		(hide yes)
		(uuid "fa58e276-4d60-4e82-a017-ec3f54659d31")
		(effects
			(font
				(size 1.27 1.27)
				(thickness 0.15)
			)
		)
	)
	(property "Description" ""
		(at 0 0 0)
		(layer "F.Fab")
		(hide yes)
		(uuid "f7f88825-697c-4e27-8c65-d85020a01082")
		(effects
			(font
				(size 1.27 1.27)
				(thickness 0.15)
			)
		)
	)
	(attr smd)
	(fp_line
		(start -2 -3.635)
		(end -2 2.865)
		(stroke
			(width 0.12)
			(type solid)
		)
		(layer "F.SilkS")
		(uuid "974e7053-c7d7-4f44-bc98-5e33ae64ba80")
	)
	(fp_line
		(start -2 2.865)
		(end -1.71 2.865)
		(stroke
			(width 0.12)
			(type solid)
		)
		(layer "F.SilkS")
		(uuid "9a9bd03b-d07b-4f4a-b665-61001da5dc4d")
	)
	(fp_line
		(start -0.16 2.865)
		(end 0.14 2.865)
		(stroke
			(width 0.12)
			(type solid)
		)
		(layer "F.SilkS")
		(uuid "98b49468-5b76-4f84-8306-754441df54d9")
	)
	(fp_line
		(start 1.72 2.865)
		(end 2 2.865)
		(stroke
			(width 0.12)
			(type solid)
		)
		(layer "F.SilkS")
		(uuid "27b861fb-0a8a-4d28-95ea-32c9e92731dc")
	)
	(fp_line
		(start 2 -3.635)
		(end -2 -3.635)
		(stroke
			(width 0.12)
			(type solid)
		)
		(layer "F.SilkS")
		(uuid "9346ab01-883b-463a-9408-88135fe63fb5")
	)
	(fp_line
		(start 2 2.865)
		(end 2 -3.635)
		(stroke
			(width 0.12)
			(type solid)
		)
		(layer "F.SilkS")
		(uuid "551ee46b-b0fc-4b88-8604-8c59204459c2")
	)
	(fp_line
		(start -2.1 -3.71)
		(end 2.1 -3.71)
		(stroke
			(width 0.05)
			(type solid)
		)
		(layer "F.CrtYd")
		(uuid "b0e1157c-a14a-42d8-930b-c80363728053")
	)
	(fp_line
		(start -2.1 3.6)
		(end -2.1 -3.71)
		(stroke
			(width 0.05)
			(type solid)
		)
		(layer "F.CrtYd")
		(uuid "d1879f91-d844-41e9-b1b8-81204a5923b8")
	)
	(fp_line
		(start 2.1 -3.71)
		(end 2.1 3.6)
		(stroke
			(width 0.05)
			(type solid)
		)
		(layer "F.CrtYd")
		(uuid "6a4c2658-5121-4e98-b0b1-07bc4ad71508")
	)
	(fp_line
		(start 2.1 3.6)
		(end -2.1 3.6)
		(stroke
			(width 0.05)
			(type solid)
		)
		(layer "F.CrtYd")
		(uuid "68b54b1d-cdde-4b82-9310-a1f173db2fc9")
	)
	(fp_line
		(start -2.1 -3.7)
		(end 2.1 -3.7)
		(stroke
			(width 0.1)
			(type solid)
		)
		(layer "F.Fab")
		(uuid "013ce4b5-6cea-42a0-b756-fb3622ea63ae")
	)
	(fp_line
		(start -2.1 3.6)
		(end -2.1 -3.7)
		(stroke
			(width 0.1)
			(type solid)
		)
		(layer "F.Fab")
		(uuid "beee7b68-8d18-4455-8216-6995808a0eb6")
	)
	(fp_line
		(start 2.1 -3.7)
		(end 2.1 3.6)
		(stroke
			(width 0.1)
			(type solid)
		)
		(layer "F.Fab")
		(uuid "ef675639-040d-45ae-b8a0-e36c11996d2d")
	)
	(fp_line
		(start 2.1 3.6)
		(end -2.1 3.6)
		(stroke
			(width 0.1)
			(type solid)
		)
		(layer "F.Fab")
		(uuid "1f1d3169-d0f7-4be4-805d-5f44fcce76d5")
	)
	(fp_text user "${REFERENCE}"
		(at 0 0 0)
		(layer "F.Fab")
		(uuid "a2275c94-773b-4c9c-aa97-dde1fb6b8750")
		(effects
			(font
				(size 0.8 0.8)
				(thickness 0.12)
			)
		)
	)
	(pad "1" smd rect
		(at 0 -1.125)
		(size 3.36 4.86)
		(layers "F.Cu" "F.Paste" "F.Mask")
		(uuid "a2c9b49a-6ba3-419d-8068-ee7bd43e9325")
	)
	(pad "2" smd rect
		(at -0.93 2.855)
		(size 1.39 1.4)
		(layers "F.Cu" "F.Paste" "F.Mask")
		(uuid "26b6eb3f-a5aa-4ab9-acb4-9d321728f07d")
	)
	(pad "2" smd rect
		(at 0.91 2.855)
		(size 1.39 1.4)
		(layers "F.Cu" "F.Paste" "F.Mask")
		(uuid "3bcac786-9e38-440b-a9f7-5791193a6317")
	)
	(model "${LSF_KICAD_LIB}/lsf-kicad-lib.3dshapes/POWERDI5.wrl"
		(offset
			(xyz 0 0 0)
		)
		(scale
			(xyz 1 1 1)
		)
		(rotate
			(xyz 0 0 0)
		)
	)
)
