(footprint "renata-smtm1632"
	(version 20240108)
	(generator "pcbnew")
	(generator_version "8.0")
	(layer "F.Cu")
	(descr "Battery Holder, https://www.renatabatteries.us/sites/default/files/2018-02/SMTM1632.pdf")
	(tags "Battery Holder")
	(property "Reference" "REF**"
		(at 0 4 0)
		(layer "F.SilkS")
		(uuid "0d8c0908-41d6-4e5e-9492-41a142ecf84f")
		(effects
			(font
				(size 1 1)
				(thickness 0.15)
			)
		)
	)
	(property "Value" "renata-smtm1632"
		(at 0 -3.5 0)
		(layer "F.Fab")
		(uuid "dc1a87ef-deba-4f10-80da-eaf490aff015")
		(effects
			(font
				(size 1 1)
				(thickness 0.15)
			)
		)
	)
	(property "Footprint" ""
		(at 0 0 0)
		(layer "F.Fab")
		(hide yes)
		(uuid "240cbe66-9218-4b6d-8aff-528c08c1a57f")
		(effects
			(font
				(size 1.27 1.27)
				(thickness 0.15)
			)
		)
	)
	(property "Datasheet" ""
		(at 0 0 0)
		(layer "F.Fab")
		(hide yes)
		(uuid "0a7949c5-6c8d-4e03-8f0b-e47229c379fa")
		(effects
			(font
				(size 1.27 1.27)
				(thickness 0.15)
			)
		)
	)
	(property "Description" ""
		(at 0 0 0)
		(layer "F.Fab")
		(hide yes)
		(uuid "553efbac-085e-437e-ab6a-541f1fe4ebbd")
		(effects
			(font
				(size 1.27 1.27)
				(thickness 0.15)
			)
		)
	)
	(attr smd)
	(fp_line
		(start -8.5 -2)
		(end -8.5 -6)
		(stroke
			(width 0.12)
			(type solid)
		)
		(layer "F.SilkS")
		(uuid "e872873c-f98a-41f9-8c35-51745623cb1d")
	)
	(fp_line
		(start -8.5 7)
		(end -8.5 2)
		(stroke
			(width 0.12)
			(type solid)
		)
		(layer "F.SilkS")
		(uuid "c5853cef-a8ab-4efc-bcf9-29beb9fffe8a")
	)
	(fp_line
		(start -8.5 7)
		(end -6 7)
		(stroke
			(width 0.12)
			(type solid)
		)
		(layer "F.SilkS")
		(uuid "1c872993-cd7f-4ffd-8d15-358532fd51d6")
	)
	(fp_line
		(start -7.5 -7)
		(end -3.4 -7)
		(stroke
			(width 0.12)
			(type solid)
		)
		(layer "F.SilkS")
		(uuid "fd6630cb-151f-41dc-8f66-fb15ebb009c4")
	)
	(fp_line
		(start 6 7)
		(end 8.5 7)
		(stroke
			(width 0.12)
			(type solid)
		)
		(layer "F.SilkS")
		(uuid "11a252aa-98a1-415d-a9e1-6f3acc7da215")
	)
	(fp_line
		(start 7.5 -7)
		(end 3.4 -7)
		(stroke
			(width 0.12)
			(type solid)
		)
		(layer "F.SilkS")
		(uuid "32b9fb0b-5d7d-4fac-93ef-206883ef1965")
	)
	(fp_line
		(start 8.5 -6)
		(end 8.5 -2)
		(stroke
			(width 0.12)
			(type solid)
		)
		(layer "F.SilkS")
		(uuid "c030468a-d468-416f-9a15-2fe570be486d")
	)
	(fp_line
		(start 8.5 2)
		(end 8.5 7)
		(stroke
			(width 0.12)
			(type solid)
		)
		(layer "F.SilkS")
		(uuid "7b4b0936-eec6-4d81-810b-aa5a5ba06f73")
	)
	(fp_arc
		(start -8.5 -6)
		(mid -8.207107 -6.707107)
		(end -7.5 -7)
		(stroke
			(width 0.12)
			(type solid)
		)
		(layer "F.SilkS")
		(uuid "c321e139-9e45-4f12-800f-23e6af99b38c")
	)
	(fp_arc
		(start -6 7)
		(mid 0 5.406613)
		(end 6 7)
		(stroke
			(width 0.12)
			(type solid)
		)
		(layer "F.SilkS")
		(uuid "ca8c6924-bf3e-431c-8b71-441f37699316")
	)
	(fp_arc
		(start 3.4 -7)
		(mid 0 -4.842341)
		(end -3.4 -7)
		(stroke
			(width 0.12)
			(type solid)
		)
		(layer "F.SilkS")
		(uuid "5bd58b01-d022-4a2c-9c8b-6f1e9ad7a6e0")
	)
	(fp_arc
		(start 7.5 -7)
		(mid 8.207107 -6.707107)
		(end 8.5 -6)
		(stroke
			(width 0.12)
			(type solid)
		)
		(layer "F.SilkS")
		(uuid "ece6e171-e775-47a8-9b1a-2bedbd3dfd19")
	)
	(fp_line
		(start -11.5 -7)
		(end -11.5 7)
		(stroke
			(width 0.05)
			(type solid)
		)
		(layer "F.CrtYd")
		(uuid "b38a64ec-b4e4-4f80-8ac4-f0c8d74e9cf5")
	)
	(fp_line
		(start -11.5 7)
		(end 11.5 7)
		(stroke
			(width 0.05)
			(type solid)
		)
		(layer "F.CrtYd")
		(uuid "66029714-a6e9-4ba7-8db5-457462d9327e")
	)
	(fp_line
		(start 11.5 -7)
		(end -11.5 -7)
		(stroke
			(width 0.05)
			(type solid)
		)
		(layer "F.CrtYd")
		(uuid "e56bad8f-f48c-493b-875f-8e7b92bbd47b")
	)
	(fp_line
		(start 11.5 -7)
		(end 11.5 7)
		(stroke
			(width 0.05)
			(type solid)
		)
		(layer "F.CrtYd")
		(uuid "bcb0be48-1413-42c9-930a-ec9683e7897b")
	)
	(fp_line
		(start -8.5 -7)
		(end -8.5 7)
		(stroke
			(width 0.1)
			(type solid)
		)
		(layer "F.Fab")
		(uuid "174b4d65-731c-4cb7-85c3-2d298efe72bf")
	)
	(fp_line
		(start -8.5 7)
		(end 8.5 7)
		(stroke
			(width 0.1)
			(type solid)
		)
		(layer "F.Fab")
		(uuid "ac4492f8-abf1-4908-aedc-2cf5b74e158a")
	)
	(fp_line
		(start 8.5 -7)
		(end -8.5 -7)
		(stroke
			(width 0.1)
			(type solid)
		)
		(layer "F.Fab")
		(uuid "dba337a2-b0e0-4a20-8f27-1b19d49f0b6b")
	)
	(fp_line
		(start 8.5 -7)
		(end 8.5 7)
		(stroke
			(width 0.1)
			(type solid)
		)
		(layer "F.Fab")
		(uuid "9a1a2046-7857-43b3-805a-38aa42ddaa86")
	)
	(fp_text user "${REFERENCE}"
		(at 0 4 0)
		(layer "F.Fab")
		(uuid "bfa9bd3e-6c00-40c9-ac42-43d7623e6f77")
		(effects
			(font
				(size 1 1)
				(thickness 0.15)
			)
		)
	)
	(pad "1" smd rect
		(at -10 0)
		(size 3 3.2)
		(layers "F.Cu" "F.Paste" "F.Mask")
		(uuid "34db8a2d-6f91-4516-af64-35725c9fe546")
	)
	(pad "1" smd rect
		(at 10 0)
		(size 3 3.2)
		(layers "F.Cu" "F.Paste" "F.Mask")
		(uuid "1cdb68db-bd7d-4c65-92b4-531978f02b83")
	)
	(pad "2" smd rect
		(at 0 0)
		(size 3 3.2)
		(layers "F.Cu" "F.Paste" "F.Mask")
		(uuid "2d7f4664-b507-4767-9e46-286ccfbcff7e")
	)
	(model "${LSF_KICAD_LIB}/lsf-kicad-lib.3dshapes/renata-smtm1632.wrl"
		(offset
			(xyz 0 0 0)
		)
		(scale
			(xyz 1 1 1)
		)
		(rotate
			(xyz 0 0 0)
		)
	)
)
