(module LOGO (layer F.Cu)
  (at 0 0)
 (fp_text reference "G***" (at 0 0) (layer F.SilkS) hide
  (effects (font (thickness 0.3)))
  )
  (fp_text value "LOGO" (at 0.75 0) (layer F.SilkS) hide
  (effects (font (thickness 0.3)))
  )
  (fp_poly (pts (xy -9.125985 -1.764466) (xy -8.777343 -1.692328) (xy -8.489427 -1.590895) (xy -8.343237 -1.529812) (xy -8.451517 -1.262323) (xy -8.507871 -1.125928) (xy -8.551943 -1.024452) (xy -8.574277 -0.979657)
     (xy -8.574363 -0.979564) (xy -8.618625 -0.984264) (xy -8.720389 -1.011364) (xy -8.853518 -1.053647) (xy -9.055106 -1.106336) (xy -9.267454 -1.138069) (xy -9.365811 -1.143001) (xy -9.519502 -1.136583)
     (xy -9.619893 -1.111263) (xy -9.697783 -1.057940) (xy -9.717424 -1.039091) (xy -9.804831 -0.922517) (xy -9.826300 -0.808083) (xy -9.778580 -0.690846) (xy -9.658422 -0.565859) (xy -9.462573 -0.428179)
     (xy -9.227607 -0.293968) (xy -8.923774 -0.121371) (xy -8.693011 0.036669) (xy -8.527473 0.190507) (xy -8.419312 0.350498) (xy -8.360682 0.527001) (xy -8.343735 0.730370) (xy -8.349889 0.864417)
     (xy -8.401483 1.134383) (xy -8.513159 1.349792) (xy -8.692765 1.522169) (xy -8.868454 1.626059) (xy -9.000423 1.686118) (xy -9.121157 1.724702) (xy -9.258414 1.747472) (xy -9.439951 1.760094)
     (xy -9.544529 1.764006) (xy -9.871358 1.761844) (xy -10.123588 1.731578) (xy -10.193977 1.714626) (xy -10.373805 1.661960) (xy -10.487466 1.613559) (xy -10.550137 1.550207) (xy -10.576997 1.452686)
     (xy -10.583221 1.301779) (xy -10.583333 1.221648) (xy -10.581661 1.053110) (xy -10.574245 0.954127) (xy -10.557489 0.909610) (xy -10.527793 0.904476) (xy -10.509250 0.910995) (xy -10.226030 1.021729)
     (xy -9.992259 1.092940) (xy -9.785475 1.129798) (xy -9.583220 1.137474) (xy -9.533629 1.135587) (xy -9.363563 1.123216) (xy -9.255141 1.102700) (xy -9.185354 1.067341) (xy -9.139406 1.020838)
     (xy -9.067502 0.875401) (xy -9.077880 0.727544) (xy -9.169495 0.589843) (xy -9.175750 0.583862) (xy -9.263577 0.516501) (xy -9.403809 0.425400) (xy -9.573352 0.325132) (xy -9.672868 0.270206)
     (xy -9.980741 0.089681) (xy -10.212977 -0.084324) (xy -10.377106 -0.261148) (xy -10.480658 -0.450133) (xy -10.531164 -0.660619) (xy -10.539141 -0.804334) (xy -10.502430 -1.077328) (xy -10.397545 -1.310078)
     (xy -10.232356 -1.499565) (xy -10.014735 -1.642767) (xy -9.752552 -1.736665) (xy -9.453678 -1.778237) (xy -9.125985 -1.764466) )(layer F.SilkS) (width  0.010000)
  )
  (fp_poly (pts (xy -6.368001 -0.942505) (xy -6.129088 -0.878182) (xy -6.047063 -0.839363) (xy -5.906900 -0.741002) (xy -5.772606 -0.615954) (xy -5.739951 -0.578250) (xy -5.609167 -0.415667) (xy -5.595942 0.660000)
     (xy -5.582717 1.735666) (xy -5.840406 1.735666) (xy -5.974330 1.735081) (xy -6.056793 1.722241) (xy -6.108651 1.680521) (xy -6.150760 1.593294) (xy -6.203042 1.446577) (xy -6.238498 1.430665)
     (xy -6.317379 1.475036) (xy -6.391965 1.535030) (xy -6.526266 1.631653) (xy -6.669884 1.708259) (xy -6.725008 1.728869) (xy -6.954941 1.770317) (xy -7.201619 1.770331) (xy -7.427758 1.730395)
     (xy -7.518355 1.697336) (xy -7.708915 1.569648) (xy -7.842398 1.383264) (xy -7.915115 1.169605) (xy -7.937437 0.949716) (xy -7.196667 0.949716) (xy -7.159603 1.076134) (xy -7.060933 1.169362)
     (xy -6.919442 1.222780) (xy -6.753916 1.229766) (xy -6.583138 1.183699) (xy -6.561667 1.173537) (xy -6.450084 1.076756) (xy -6.362729 0.924226) (xy -6.313620 0.744246) (xy -6.307733 0.660903)
     (xy -6.307667 0.496307) (xy -6.588298 0.525059) (xy -6.846447 0.568694) (xy -7.029454 0.641293) (xy -7.143087 0.746883) (xy -7.193116 0.889491) (xy -7.196667 0.949716) (xy -7.937437 0.949716)
     (xy -7.943099 0.893951) (xy -7.896424 0.656139) (xy -7.776872 0.457609) (xy -7.586223 0.299799) (xy -7.326259 0.184148) (xy -6.998762 0.112097) (xy -6.605513 0.085083) (xy -6.572250 0.084911)
     (xy -6.427830 0.082675) (xy -6.348584 0.071196) (xy -6.315037 0.042815) (xy -6.307709 -0.010133) (xy -6.307667 -0.019175) (xy -6.340760 -0.199866) (xy -6.436090 -0.328096) (xy -6.587734 -0.401629)
     (xy -6.789771 -0.418232) (xy -7.036275 -0.375669) (xy -7.154333 -0.338667) (xy -7.287919 -0.293958) (xy -7.390877 -0.263636) (xy -7.431265 -0.255383) (xy -7.471588 -0.289751) (xy -7.532343 -0.380574)
     (xy -7.590596 -0.488957) (xy -7.705830 -0.723914) (xy -7.516860 -0.807504) (xy -7.246209 -0.899111) (xy -6.949334 -0.952476) (xy -6.649007 -0.967106) (xy -6.368001 -0.942505) )(layer F.SilkS) (width  0.010000)
  )
  (fp_poly (pts (xy -4.021667 -0.931334) (xy -3.302000 -0.931334) (xy -3.302000 -0.381000) (xy -4.021667 -0.381000) (xy -4.021667 0.332105) (xy -4.020619 0.625952) (xy -4.013706 0.845318) (xy -3.995273 1.000388)
     (xy -3.959666 1.101345) (xy -3.901231 1.158376) (xy -3.814312 1.181665) (xy -3.693255 1.181397) (xy -3.556483 1.169995) (xy -3.259667 1.142408) (xy -3.259667 1.397752) (xy -3.262639 1.541108)
     (xy -3.277677 1.623696) (xy -3.313964 1.669363) (xy -3.376083 1.700111) (xy -3.493745 1.728995) (xy -3.665941 1.749762) (xy -3.863288 1.761240) (xy -4.056402 1.762255) (xy -4.215898 1.751636)
     (xy -4.291783 1.736659) (xy -4.462619 1.643860) (xy -4.616833 1.489829) (xy -4.691746 1.375833) (xy -4.717395 1.313164) (xy -4.737076 1.223285) (xy -4.751872 1.094128) (xy -4.762865 0.913631)
     (xy -4.771139 0.669726) (xy -4.776286 0.433916) (xy -4.791458 -0.381000) (xy -4.956896 -0.381000) (xy -5.063674 -0.385789) (xy -5.110498 -0.414933) (xy -5.122053 -0.490598) (xy -5.122333 -0.529558)
     (xy -5.113830 -0.621179) (xy -5.076175 -0.688925) (xy -4.991147 -0.757319) (xy -4.919030 -0.803210) (xy -4.803724 -0.881991) (xy -4.727012 -0.962932) (xy -4.667539 -1.074541) (xy -4.618050 -1.204985)
     (xy -4.520374 -1.481667) (xy -4.021667 -1.481667) (xy -4.021667 -0.931334) )(layer F.SilkS) (width  0.010000)
  )
  (fp_poly (pts (xy 2.312527 -1.705319) (xy 2.486914 -1.677331) (xy 2.673943 -1.628250) (xy 2.872163 -1.560068) (xy 3.056917 -1.482887) (xy 3.203549 -1.406812) (xy 3.276696 -1.353679) (xy 3.266318 -1.307474)
     (xy 3.209994 -1.203118) (xy 3.113307 -1.049637) (xy 2.981844 -0.856057) (xy 2.879025 -0.711105) (xy 2.736055 -0.510254) (xy 2.610644 -0.329679) (xy 2.511260 -0.181930) (xy 2.446374 -0.079558)
     (xy 2.424792 -0.038061) (xy 2.439530 0.042902) (xy 2.501467 0.123355) (xy 2.580885 0.167399) (xy 2.595940 0.168685) (xy 2.634020 0.163183) (xy 2.674637 0.141684) (xy 2.725586 0.095165)
     (xy 2.794664 0.014599) (xy 2.889664 -0.109037) (xy 3.018381 -0.284768) (xy 3.171282 -0.497417) (xy 3.313447 -0.693141) (xy 3.440154 -0.862360) (xy 3.542771 -0.993962) (xy 3.612667 -1.076836)
     (xy 3.639892 -1.100667) (xy 3.686947 -1.069109) (xy 3.769323 -0.985638) (xy 3.872880 -0.867057) (xy 3.983480 -0.730169) (xy 4.086981 -0.591778) (xy 4.162530 -0.479582) (xy 4.310288 -0.184417)
     (xy 4.407382 0.134645) (xy 4.451166 0.457361) (xy 4.438996 0.763489) (xy 4.368228 1.032786) (xy 4.362032 1.047396) (xy 4.213467 1.290116) (xy 4.000535 1.499814) (xy 3.742294 1.657903)
     (xy 3.730515 1.663238) (xy 3.535195 1.722692) (xy 3.290832 1.757109) (xy 3.029731 1.764910) (xy 2.784201 1.744515) (xy 2.650408 1.716010) (xy 2.235477 1.555868) (xy 1.849132 1.326094)
     (xy 1.503751 1.037464) (xy 1.211712 0.700756) (xy 0.985395 0.326748) (xy 0.939612 0.226523) (xy 0.866295 -0.004676) (xy 0.821444 -0.270894) (xy 0.808127 -0.538607) (xy 0.829416 -0.774291)
     (xy 0.842642 -0.832383) (xy 0.959197 -1.111766) (xy 1.139693 -1.344051) (xy 1.374703 -1.524394) (xy 1.654797 -1.647950) (xy 1.970548 -1.709873) (xy 2.312527 -1.705319) )(layer F.SilkS) (width  0.010000)
  )
  (fp_poly (pts (xy 7.198403 -1.729025) (xy 7.278551 -1.712247) (xy 7.476815 -1.664155) (xy 7.601930 -1.618785) (xy 7.663720 -1.562017) (xy 7.672013 -1.479734) (xy 7.636632 -1.357815) (xy 7.596675 -1.255132)
     (xy 7.531383 -1.103500) (xy 7.481692 -1.020287) (xy 7.438638 -0.992890) (xy 7.413443 -0.997494) (xy 7.130340 -1.089046) (xy 6.838430 -1.136248) (xy 6.560816 -1.137811) (xy 6.320602 -1.092446)
     (xy 6.244167 -1.062742) (xy 6.011001 -0.910543) (xy 5.835868 -0.698842) (xy 5.721107 -0.431906) (xy 5.669054 -0.114001) (xy 5.666015 -0.007507) (xy 5.681965 0.306580) (xy 5.732658 0.557486)
     (xy 5.822469 0.761062) (xy 5.912382 0.885566) (xy 6.048243 1.013856) (xy 6.204349 1.094006) (xy 6.400264 1.132484) (xy 6.655554 1.135760) (xy 6.667500 1.135240) (xy 6.963833 1.121833)
     (xy 6.976129 0.772583) (xy 6.988424 0.423333) (xy 6.350000 0.423333) (xy 6.350000 -0.211667) (xy 7.747000 -0.211667) (xy 7.747000 1.568428) (xy 7.630583 1.613948) (xy 7.414183 1.677514)
     (xy 7.143821 1.725645) (xy 6.844877 1.756758) (xy 6.542732 1.769270) (xy 6.262767 1.761599) (xy 6.030361 1.732162) (xy 5.969000 1.717560) (xy 5.647051 1.587709) (xy 5.378688 1.393046)
     (xy 5.166344 1.136229) (xy 5.012452 0.819912) (xy 4.949690 0.604860) (xy 4.905464 0.307768) (xy 4.897543 -0.018116) (xy 4.923641 -0.346453) (xy 4.981473 -0.650904) (xy 5.068752 -0.905130)
     (xy 5.083386 -0.935603) (xy 5.191604 -1.100896) (xy 5.346708 -1.277271) (xy 5.521078 -1.436867) (xy 5.687093 -1.551822) (xy 5.702165 -1.559786) (xy 6.032179 -1.686434) (xy 6.406332 -1.758286)
     (xy 6.802462 -1.773197) (xy 7.198403 -1.729025) )(layer F.SilkS) (width  0.010000)
  )
  (fp_poly (pts (xy 9.670975 -1.765467) (xy 9.858653 -1.743865) (xy 10.053265 -1.707055) (xy 10.236803 -1.660300) (xy 10.391262 -1.608864) (xy 10.498635 -1.558007) (xy 10.540916 -1.512993) (xy 10.541000 -1.511201)
     (xy 10.525454 -1.433970) (xy 10.485985 -1.319010) (xy 10.433349 -1.191111) (xy 10.378301 -1.075061) (xy 10.331596 -0.995649) (xy 10.308382 -0.975049) (xy 10.247740 -0.989006) (xy 10.135261 -1.023639)
     (xy 10.033000 -1.058334) (xy 9.848280 -1.106880) (xy 9.644184 -1.136980) (xy 9.554826 -1.141618) (xy 9.402262 -1.136058) (xy 9.302694 -1.111164) (xy 9.225072 -1.057822) (xy 9.205576 -1.039091)
     (xy 9.116990 -0.901705) (xy 9.110444 -0.757364) (xy 9.185591 -0.618632) (xy 9.218083 -0.585387) (xy 9.305650 -0.519601) (xy 9.446346 -0.430454) (xy 9.617331 -0.331968) (xy 9.724571 -0.274429)
     (xy 9.907194 -0.174952) (xy 10.077569 -0.074507) (xy 10.210882 0.011932) (xy 10.260520 0.048986) (xy 10.433291 0.242486) (xy 10.540796 0.473159) (xy 10.582912 0.724094) (xy 10.559514 0.978383)
     (xy 10.470480 1.219115) (xy 10.315687 1.429380) (xy 10.270903 1.471536) (xy 10.116291 1.591135) (xy 9.958584 1.672806) (xy 9.775270 1.723800) (xy 9.543838 1.751369) (xy 9.376833 1.759544)
     (xy 9.187271 1.763397) (xy 9.022665 1.762514) (xy 8.906004 1.757231) (xy 8.868833 1.752151) (xy 8.780797 1.728093) (xy 8.648271 1.689739) (xy 8.561917 1.664022) (xy 8.339667 1.597076)
     (xy 8.339667 1.238509) (xy 8.341197 1.064994) (xy 8.348027 0.961358) (xy 8.363512 0.912835) (xy 8.391008 0.904660) (xy 8.413750 0.912573) (xy 8.756327 1.044206) (xy 9.060283 1.117667)
     (xy 9.344208 1.137200) (xy 9.390357 1.135538) (xy 9.582820 1.117456) (xy 9.709398 1.079106) (xy 9.788387 1.009259) (xy 9.838085 0.896688) (xy 9.849853 0.853564) (xy 9.850097 0.756438)
     (xy 9.797086 0.656858) (xy 9.684087 0.548271) (xy 9.504367 0.424125) (xy 9.267748 0.286927) (xy 8.961940 0.106591) (xy 8.730031 -0.061617) (xy 8.564105 -0.227353) (xy 8.456244 -0.400271)
     (xy 8.398531 -0.590025) (xy 8.382930 -0.792064) (xy 8.420015 -1.080812) (xy 8.525924 -1.323814) (xy 8.696171 -1.517678) (xy 8.926269 -1.659015) (xy 9.211733 -1.744435) (xy 9.548077 -1.770546)
     (xy 9.670975 -1.765467) )(layer F.SilkS) (width  0.010000)
  )
  (fp_poly (pts (xy 0.381000 1.735666) (xy -0.571500 1.734110) (xy -1.307652 0.443722) (xy -1.478890 0.143874) (xy -1.636386 -0.131306) (xy -1.775354 -0.373504) (xy -1.891007 -0.574404) (xy -1.978559 -0.725688)
     (xy -2.033224 -0.819041) (xy -2.050326 -0.846667) (xy -2.051392 -0.806049) (xy -2.051294 -0.691033) (xy -2.050121 -0.511882) (xy -2.047961 -0.278856) (xy -2.044903 -0.002216) (xy -2.041035 0.307778)
     (xy -2.039203 0.444500) (xy -2.021559 1.735666) (xy -2.709333 1.735666) (xy -2.709333 -1.735667) (xy -1.756833 -1.733025) (xy -1.270000 -0.884489) (xy -1.111750 -0.608983) (xy -0.949899 -0.327772)
     (xy -0.795180 -0.059466) (xy -0.658329 0.177325) (xy -0.550079 0.363989) (xy -0.528375 0.401275) (xy -0.273584 0.838502) (xy -0.289848 -0.448583) (xy -0.306112 -1.735667) (xy 0.381000 -1.735667)
     (xy 0.381000 1.735666) )(layer F.SilkS) (width  0.010000)
  )
  (fp_poly (pts (xy 3.820717 -1.743531) (xy 3.884683 -1.645826) (xy 3.894667 -1.566334) (xy 3.865232 -1.440473) (xy 3.786568 -1.366564) (xy 3.726861 -1.354667) (xy 3.682452 -1.321474) (xy 3.597859 -1.228422)
     (xy 3.481034 -1.085304) (xy 3.339932 -0.901914) (xy 3.182505 -0.688043) (xy 3.159403 -0.655931) (xy 2.981877 -0.408956) (xy 2.846871 -0.223087) (xy 2.747822 -0.090443) (xy 2.678167 -0.003143)
     (xy 2.631341 0.046695) (xy 2.600782 0.066951) (xy 2.579925 0.065506) (xy 2.567071 0.055293) (xy 2.549239 0.026541) (xy 2.550153 -0.014924) (xy 2.575092 -0.078251) (xy 2.629334 -0.172592)
     (xy 2.718156 -0.307096) (xy 2.846838 -0.490914) (xy 3.020657 -0.733195) (xy 3.026833 -0.741752) (xy 3.208267 -0.996626) (xy 3.342288 -1.193813) (xy 3.434120 -1.341945) (xy 3.488986 -1.449652)
     (xy 3.512107 -1.525566) (xy 3.513667 -1.546284) (xy 3.541281 -1.686848) (xy 3.622743 -1.763566) (xy 3.704167 -1.778000) (xy 3.820717 -1.743531) )(layer F.SilkS) (width  0.010000)
  )
)
