(footprint "SIDLOC-Logo_11x3mm_Copper"
	(version 20240108)
	(generator "pcbnew")
	(generator_version "8.0")
	(layer "F.Cu")
	(descr "SIDLOC Logo")
	(tags "Logo")
	(property "Reference" "REF**"
		(at 0 0 0)
		(layer "F.SilkS")
		(hide yes)
		(uuid "fc0a4225-db46-4d48-8163-d522602d57cd")
		(effects
			(font
				(size 1 1)
				(thickness 0.15)
			)
		)
	)
	(property "Value" "SIDLOC-Logo_11x3mm_Copper"
		(at 0.75 0 0)
		(layer "F.Fab")
		(hide yes)
		(uuid "2bef89de-08c7-4a13-9d85-67948d429ca0")
		(effects
			(font
				(size 1 1)
				(thickness 0.2)
				(bold yes)
			)
		)
	)
	(property "Footprint" ""
		(at 0 0 0)
		(unlocked yes)
		(layer "F.Fab")
		(hide yes)
		(uuid "fe74fb59-b9c5-4f2f-a477-bd9854201059")
		(effects
			(font
				(size 1.27 1.27)
			)
		)
	)
	(property "Datasheet" ""
		(at 0 0 0)
		(unlocked yes)
		(layer "F.Fab")
		(hide yes)
		(uuid "4498e591-186e-49ab-b49f-b0dfe39249c7")
		(effects
			(font
				(size 1.27 1.27)
			)
		)
	)
	(property "Description" ""
		(at 0 0 0)
		(unlocked yes)
		(layer "F.Fab")
		(hide yes)
		(uuid "b7ae9324-dec7-4db0-930e-81f14f21a4b5")
		(effects
			(font
				(size 1.27 1.27)
			)
		)
	)
	(attr exclude_from_pos_files exclude_from_bom)
	(fp_poly
		(pts
			(xy 2.315749 -0.24228) (xy 2.535492 -0.24228) (xy 2.535492 -0.152129) (xy 2.315749 -0.152129) (xy 2.315749 0.073248)
			(xy 2.225599 0.073248) (xy 2.225599 -0.152129) (xy 2.000222 -0.152129) (xy 2.000222 -0.24228) (xy 2.225599 -0.24228)
			(xy 2.225599 -0.467657) (xy 2.315749 -0.467657)
		)
		(stroke
			(width 0)
			(type solid)
		)
		(fill solid)
		(layer "F.Cu")
		(uuid "b603d26a-e034-42fb-8327-b60c5bf9cdd2")
	)
	(fp_poly
		(pts
			(xy 0.056344 0.366238) (xy 1.014197 0.366238) (xy 1.014197 0.755014) (xy 0.322101 0.755014) (xy 0.234705 0.754984)
			(xy 0.15044 0.754896) (xy 0.069993 0.754755) (xy -0.005952 0.754563) (xy -0.076708 0.754325) (xy -0.141591 0.754045)
			(xy -0.199915 0.753725) (xy -0.250993 0.75337) (xy -0.294141 0.752983) (xy -0.328673 0.752569) (xy -0.353904 0.75213)
			(xy -0.369147 0.751671) (xy -0.373751 0.751257) (xy -0.377507 -1.177595) (xy 0.056344 -1.177595)
		)
		(stroke
			(width 0)
			(type solid)
		)
		(fill solid)
		(layer "F.Cu")
		(uuid "b994142f-02ac-4881-9587-6d3df53c96d2")
	)
	(fp_poly
		(pts
			(xy -3.004543 -0.212699) (xy -3.005967 0.752196) (xy -3.217661 0.753672) (xy -3.265439 0.753906)
			(xy -3.309646 0.753931) (xy -3.349023 0.753763) (xy -3.382308 0.753414) (xy -3.408243 0.752897) (xy -3.425566 0.752228)
			(xy -3.433017 0.751419) (xy -3.433178 0.751324) (xy -3.433588 0.745371) (xy -3.433986 0.728729) (xy -3.43437 0.701979)
			(xy -3.434736 0.6657) (xy -3.435084 0.620473) (xy -3.43541 0.566879) (xy -3.435712 0.505497) (xy -3.435988 0.436907)
			(xy -3.436236 0.36169) (xy -3.436453 0.280426) (xy -3.436638 0.193695) (xy -3.436787 0.102078) (xy -3.436899 0.006154)
			(xy -3.436971 -0.093496) (xy -3.437 -0.196292) (xy -3.437001 -0.215047) (xy -3.437001 -1.177595)
			(xy -3.003118 -1.177595)
		)
		(stroke
			(width 0)
			(type solid)
		)
		(fill solid)
		(layer "F.Cu")
		(uuid "37e4dc66-4492-4061-908d-7213940a2ec3")
	)
	(fp_poly
		(pts
			(xy 2.229891 -0.994286) (xy 2.228416 -0.775497) (xy 2.18334 -0.768034) (xy 2.115154 -0.752553) (xy 2.048612 -0.729442)
			(xy 1.986633 -0.699905) (xy 1.932132 -0.665148) (xy 1.929416 -0.663114) (xy 1.90467 -0.64261) (xy 1.876637 -0.616503)
			(xy 1.848039 -0.587594) (xy 1.821597 -0.558686) (xy 1.800035 -0.53258) (xy 1.792318 -0.522013) (xy 1.765474 -0.477112)
			(xy 1.741158 -0.425262) (xy 1.720777 -0.370235) (xy 1.705742 -0.315802) (xy 1.697794 -0.269044) (xy 1.694357 -0.236646)
			(xy 1.254815 -0.236646) (xy 1.258481 -0.284346) (xy 1.271532 -0.382677) (xy 1.295398 -0.481081) (xy 1.329716 -0.578222)
			(xy 1.353056 -0.630927) (xy 1.404275 -0.725844) (xy 1.464066 -0.813699) (xy 1.532021 -0.894081) (xy 1.607732 -0.96658)
			(xy 1.690791 -1.030785) (xy 1.780789 -1.086285) (xy 1.831189 -1.112043) (xy 1.928553 -1.152983) (xy 2.026454 -1.183329)
			(xy 2.124098 -1.202861) (xy 2.182016 -1.209281) (xy 2.231367 -1.213074)
		)
		(stroke
			(width 0)
			(type solid)
		)
		(fill solid)
		(layer "F.Cu")
		(uuid "2d6718e7-f18d-444d-9792-ddf1a113460c")
	)
	(fp_poly
		(pts
			(xy 2.359399 -1.209276) (xy 2.403518 -1.204284) (xy 2.453426 -1.196016) (xy 2.504858 -1.185357) (xy 2.553551 -1.173189)
			(xy 2.595226 -1.160401) (xy 2.674878 -1.128445) (xy 2.75504 -1.088394) (xy 2.832482 -1.042116) (xy 2.903973 -0.991482)
			(xy 2.943988 -0.958635) (xy 3.012053 -0.89222) (xy 3.074778 -0.817078) (xy 3.131149 -0.734887) (xy 3.180155 -0.647322)
			(xy 3.220785 -0.556062) (xy 3.252026 -0.462784) (xy 3.25892 -0.436668) (xy 3.264295 -0.412054) (xy 3.269864 -0.3816)
			(xy 3.275161 -0.34848) (xy 3.27972 -0.31587) (xy 3.283075 -0.286946) (xy 3.284761 -0.264883) (xy 3.284871 -0.259869)
			(xy 3.284871 -0.236646) (xy 2.846991 -0.236646) (xy 2.843554 -0.269044) (xy 2.834104 -0.322495) (xy 2.81741 -0.379554)
			(xy 2.794899 -0.436634) (xy 2.767998 -0.490147) (xy 2.738134 -0.536503) (xy 2.736094 -0.539223) (xy 2.684715 -0.598373)
			(xy 2.626234 -0.650237) (xy 2.562014 -0.693973) (xy 2.49342 -0.728742) (xy 2.421815 -0.753702) (xy 2.369588 -0.765059)
			(xy 2.310134 -0.774733) (xy 2.310124 -0.993899) (xy 2.310115 -1.213064)
		)
		(stroke
			(width 0)
			(type solid)
		)
		(fill solid)
		(layer "F.Cu")
		(uuid "f144a97d-c3f0-423f-b0a9-3f7dbc42478b")
	)
	(fp_poly
		(pts
			(xy 3.282556 -0.108529) (xy 3.272179 -0.024386) (xy 3.25414 0.058794) (xy 3.228085 0.141723) (xy 3.193664 0.225116)
			(xy 3.150525 0.309689) (xy 3.098318 0.396156) (xy 3.03669 0.485232) (xy 2.965291 0.577631) (xy 2.916141 0.636691)
			(xy 2.875063 0.683155) (xy 2.826633 0.735092) (xy 2.772367 0.791023) (xy 2.71378 0.849467) (xy 2.652387 0.908943)
			(xy 2.589705 0.967971) (xy 2.527247 1.02507) (xy 2.46653 1.07876) (xy 2.442524 1.099416) (xy 2.418263 1.119927)
			(xy 2.391938 1.14188) (xy 2.364984 1.16411) (xy 2.33884 1.185454) (xy 2.314944 1.204747) (xy 2.294733 1.220823)
			(xy 2.279645 1.23252) (xy 2.271117 1.238672) (xy 2.269804 1.239321) (xy 2.264764 1.235905) (xy 2.253713 1.227316)
			(xy 2.242502 1.218241) (xy 2.171138 1.159258) (xy 2.107376 1.105714) (xy 2.04978 1.056317) (xy 1.996915 1.009775)
			(xy 1.947345 0.964796) (xy 1.899634 0.920089) (xy 1.852347 0.87436) (xy 1.804049 0.826318) (xy 1.780207 0.802182)
			(xy 1.688684 0.706164) (xy 1.607056 0.614282) (xy 1.534972 0.525984) (xy 1.472081 0.440717) (xy 1.418031 0.357927)
			(xy 1.372472 0.277062) (xy 1.335051 0.197569) (xy 1.305419 0.118894) (xy 1.283223 0.040484) (xy 1.27629 0.008781)
			(xy 1.270315 -0.023715) (xy 1.264879 -0.058117) (xy 1.260685 -0.089716) (xy 1.258792 -0.108529) (xy 1.254917 -0.157897)
			(xy 1.473649 -0.156422) (xy 1.692382 -0.154946) (xy 1.699844 -0.109871) (xy 1.717231 -0.034503) (xy 1.74356 0.037977)
			(xy 1.777798 0.104926) (xy 1.793494 0.129592) (xy 1.810067 0.151228) (xy 1.832914 0.17726) (xy 1.85947 0.205092)
			(xy 1.887172 0.23213) (xy 1.913453 0.255778) (xy 1.935426 0.27321) (xy 1.999978 0.312733) (xy 2.070632 0.344142)
			(xy 2.144672 0.366337) (xy 2.184629 0.374032) (xy 2.228416 0.3808) (xy 2.229897 0.579176) (xy 2.231377 0.777551)
			(xy 2.310115 0.777551) (xy 2.310115 0.379063) (xy 2.346601 0.375325) (xy 2.400161 0.365886) (xy 2.457306 0.348817)
			(xy 2.514742 0.325413) (xy 2.569179 0.296971) (xy 2.605922 0.27321) (xy 2.628307 0.255425) (xy 2.654634 0.231699)
			(xy 2.682337 0.204627) (xy 2.708853 0.176804) (xy 2.731616 0.150824) (xy 2.747854 0.129592) (xy 2.784968 0.0656)
			(xy 2.814588 -0.004982) (xy 2.83568 -0.079511) (xy 2.841504 -0.109871) (xy 2.848966 -0.154946) (xy 3.067699 -0.156422)
			(xy 3.286432 -0.157897)
		)
		(stroke
			(width 0)
			(type solid)
		)
		(fill solid)
		(layer "F.Cu")
		(uuid "6ca3c38c-4e71-4202-b6c1-1b25f04a27ae")
	)
	(fp_poly
		(pts
			(xy 4.672495 -1.209435) (xy 4.71766 -1.207236) (xy 4.756057 -1.203789) (xy 4.759617 -1.203349) (xy 4.86714 -1.184752)
			(xy 4.968138 -1.157078) (xy 5.062995 -1.120154) (xy 5.152093 -1.073808) (xy 5.235817 -1.017865) (xy 5.31397 -0.952688)
			(xy 5.332724 -0.935098) (xy 5.344244 -0.923222) (xy 5.349722 -0.915297) (xy 5.350353 -0.909558) (xy 5.347331 -0.904242)
			(xy 5.347023 -0.903851) (xy 5.335319 -0.889599) (xy 5.318443 -0.86963) (xy 5.297412 -0.845103) (xy 5.273244 -0.817171)
			(xy 5.246957 -0.786992) (xy 5.219571 -0.75572) (xy 5.192102 -0.724511) (xy 5.165568 -0.694522) (xy 5.140989 -0.666908)
			(xy 5.119381 -0.642824) (xy 5.101763 -0.623427) (xy 5.089154 -0.609872) (xy 5.08257 -0.603315) (xy 5.081902 -0.602883)
			(xy 5.074978 -0.606363) (xy 5.063144 -0.615238) (xy 5.055506 -0.621769) (xy 5.022078 -0.649505) (xy 4.983067 -0.678435)
			(xy 4.941176 -0.706811) (xy 4.899108 -0.732892) (xy 4.859564 -0.754931) (xy 4.825247 -0.771185) (xy 4.82204 -0.772491)
			(xy 4.747235 -0.796941) (xy 4.670826 -0.81153) (xy 4.594108 -0.816361) (xy 4.518373 -0.81154) (xy 4.444914 -0.79717)
			(xy 4.375023 -0.773355) (xy 4.309994 -0.7402) (xy 4.29383 -0.729921) (xy 4.231224 -0.681668) (xy 4.17656 -0.625622)
			(xy 4.130151 -0.56229) (xy 4.092312 -0.492176) (xy 4.063358 -0.415784) (xy 4.043604 -0.333619) (xy 4.042397 -0.326613)
			(xy 4.036374 -0.27344) (xy 4.03464 -0.214927) (xy 4.037039 -0.155115) (xy 4.043415 -0.098048) (xy 4.053091 -0.049754)
			(xy 4.0789 0.029951) (xy 4.1132 0.103201) (xy 4.155492 0.169465) (xy 4.205276 0.228214) (xy 4.262051 0.278917)
			(xy 4.325316 0.321043) (xy 4.394573 0.354061) (xy 4.451574 0.37292) (xy 4.471407 0.377907) (xy 4.490088 0.381446)
			(xy 4.510223 0.383771) (xy 4.534422 0.385117) (xy 4.565292 0.385719) (xy 4.594875 0.385824) (xy 4.659007 0.384146)
			(xy 4.714838 0.37875) (xy 4.764895 0.36904) (xy 4.811706 0.354416) (xy 4.857799 0.334282) (xy 4.893355 0.315242)
			(xy 4.917704 0.300161) (xy 4.947986 0.279659) (xy 4.98158 0.25565) (xy 5.015864 0.230048) (xy 5.048215 0.204765)
			(xy 5.074063 0.183391) (xy 5.096861 0.163835) (xy 5.234644 0.302099) (xy 5.372426 0.440363) (xy 5.313265 0.496787)
			(xy 5.234289 0.566545) (xy 5.154628 0.625589) (xy 5.07333 0.674469) (xy 4.989444 0.713737) (xy 4.902016 0.743944)
			(xy 4.872373 0.75198) (xy 4.796912 0.767627) (xy 4.714396 0.778448) (xy 4.628076 0.784179) (xy 4.541202 0.784555)
			(xy 4.496273 0.782509) (xy 4.399253 0.771053) (xy 4.303198 0.749524) (xy 4.209367 0.718545) (xy 4.119021 0.67874)
			(xy 4.03342 0.63073) (xy 3.953824 0.575139) (xy 3.881493 0.51259) (xy 3.822487 0.449481) (xy 3.760759 0.367803)
			(xy 3.707334 0.280197) (xy 3.662971 0.188219) (xy 3.62843 0.093424) (xy 3.606282 0.006561) (xy 3.589932 -0.101033)
			(xy 3.584375 -0.208262) (xy 3.589464 -0.314361) (xy 3.605055 -0.418563) (xy 3.631004 -0.520104) (xy 3.667165 -0.618216)
			(xy 3.713394 -0.712135) (xy 3.755141 -0.780193) (xy 3.818356 -0.8649) (xy 3.888435 -0.940673) (xy 3.965347 -1.007494)
			(xy 4.049058 -1.06534) (xy 4.139538 -1.114191) (xy 4.236752 -1.154026) (xy 4.34067 -1.184824) (xy 4.403305 -1.198406)
			(xy 4.435103 -1.202949) (xy 4.475556 -1.206458) (xy 4.522091 -1.208897) (xy 4.57214 -1.21023) (xy 4.623132 -1.210421)
		)
		(stroke
			(width 0)
			(type solid)
		)
		(fill solid)
		(layer "F.Cu")
		(uuid "483f60da-14d7-4f88-8d01-3f9f30784c70")
	)
	(fp_poly
		(pts
			(xy -2.097416 -1.177492) (xy -2.012968 -1.177434) (xy -1.939003 -1.177296) (xy -1.874732 -1.177063)
			(xy -1.81937 -1.176723) (xy -1.772129 -1.176261) (xy -1.732222 -1.175665) (xy -1.698864 -1.174921)
			(xy -1.671267 -1.174015) (xy -1.648644 -1.172935) (xy -1.630208 -1.171667) (xy -1.615173 -1.170197)
			(xy -1.606919 -1.169136) (xy -1.498575 -1.148668) (xy -1.395771 -1.119062) (xy -1.298922 -1.08069)
			(xy -1.208442 -1.033927) (xy -1.124748 -0.979144) (xy -1.048253 -0.916715) (xy -0.979373 -0.847012)
			(xy -0.918524 -0.77041) (xy -0.866119 -0.68728) (xy -0.822575 -0.597996) (xy -0.788307 -0.502931)
			(xy -0.765871 -0.413397) (xy -0.758779 -0.368411) (xy -0.753683 -0.315671) (xy -0.750665 -0.258526)
			(xy -0.749807 -0.200327) (xy -0.751193 -0.144425) (xy -0.754903 -0.094169) (xy -0.757513 -0.073183)
			(xy -0.769857 -0.001584) (xy -0.785429 0.062777) (xy -0.805411 0.123747) (xy -0.830987 0.185168)
			(xy -0.848017 0.220838) (xy -0.879969 0.280332) (xy -0.914346 0.333965) (xy -0.953443 0.384891) (xy -0.999553 0.436265)
			(xy -1.019616 0.456786) (xy -1.097198 0.526677) (xy -1.181436 0.587513) (xy -1.272183 0.639221) (xy -1.369289 0.681727)
			(xy -1.472607 0.714959) (xy -1.581988 0.738843) (xy -1.598292 0.741518) (xy -1.611162 0.743355) (xy -1.625485 0.744965)
			(xy -1.642101 0.746371) (xy -1.661852 0.747591) (xy -1.685577 0.748647) (xy -1.714117 0.749559) (xy -1.748313 0.750347)
			(xy -1.789005 0.751032) (xy -1.837035 0.751634) (xy -1.893242 0.752174) (xy -1.958467 0.752672) (xy -2.033552 0.753148)
			(xy -2.090445 0.753469) (xy -2.159163 0.753789) (xy -2.224606 0.75399) (xy -2.285902 0.754075) (xy -2.342177 0.75405)
			(xy -2.392558 0.753916) (xy -2.43617 0.753678) (xy -2.472141 0.75334) (xy -2.499597 0.752904) (xy -2.517665 0.752375)
			(xy -2.525471 0.751757) (xy -2.525704 0.751655) (xy -2.52615 0.745666) (xy -2.526583 0.728988) (xy -2.526999 0.702203)
			(xy -2.527397 0.66589) (xy -2.527775 0.62063) (xy -2.528129 0.567003) (xy -2.528458 0.505591) (xy -2.528758 0.436973)
			(xy -2.529027 0.361729) (xy -2.529263 0.280441) (xy -2.529464 0.193689) (xy -2.529626 0.102054) (xy -2.529747 0.006115)
			(xy -2.529825 -0.093547) (xy -2.529858 -0.196351) (xy -2.529858 -0.795835) (xy -2.101642 -0.795835)
			(xy -2.101642 0.366238) (xy -1.926753 0.366238) (xy -1.880377 0.366039) (xy -1.834934 0.365476) (xy -1.792393 0.364602)
			(xy -1.754724 0.363467) (xy -1.723896 0.362124) (xy -1.701879 0.360624) (xy -1.698011 0.360233) (xy -1.615251 0.34617)
			(xy -1.539396 0.323211) (xy -1.470463 0.291369) (xy -1.408468 0.250655) (xy -1.353428 0.20108) (xy -1.305359 0.142655)
			(xy -1.264277 0.075391) (xy -1.256058 0.059162) (xy -1.234457 0.009983) (xy -1.218534 -0.03874) (xy -1.207253 -0.090834)
			(xy -1.199664 -0.149248) (xy -1.196821 -0.231611) (xy -1.204183 -0.312962) (xy -1.221473 -0.391625)
			(xy -1.248414 -0.465926) (xy -1.253974 -0.478089) (xy -1.279751 -0.527545) (xy -1.307944 -0.570404)
			(xy -1.341347 -0.610495) (xy -1.376173 -0.645491) (xy -1.433506 -0.692598) (xy -1.495484 -0.729769)
			(xy -1.558115 -0.756027) (xy -1.582506 -0.76422) (xy -1.604646 -0.770978) (xy -1.625986 -0.776462)
			(xy -1.647979 -0.780828) (xy -1.672078 -0.784236) (xy -1.699734 -0.786845) (xy -1.7324 -0.788811)
			(xy -1.771528 -0.790295) (xy -1.818571 -0.791455) (xy -1.87498 -0.792449) (xy -1.894577 -0.792748)
			(xy -2.101642 -0.795835) (xy -2.529858 -0.795835) (xy -2.529858 -1.177595)
		)
		(stroke
			(width 0)
			(type solid)
		)
		(fill solid)
		(layer "F.Cu")
		(uuid "29256b3d-9450-4c0a-a4d4-911f04b9c140")
	)
	(fp_poly
		(pts
			(xy -4.512653 -1.204047) (xy -4.464645 -1.200848) (xy -4.417595 -1.195206) (xy -4.368107 -1.186861)
			(xy -4.346961 -1.182725) (xy -4.264777 -1.16197) (xy -4.180152 -1.132862) (xy -4.096351 -1.096767)
			(xy -4.016637 -1.055049) (xy -3.96382 -1.022439) (xy -3.932549 -1.001312) (xy -3.909953 -0.985064)
			(xy -3.89502 -0.972818) (xy -3.886738 -0.9637) (xy -3.884093 -0.956831) (xy -3.884602 -0.953881)
			(xy -3.888285 -0.947824) (xy -3.897443 -0.933875) (xy -3.911134 -0.913407) (xy -3.928421 -0.887794)
			(xy -3.948364 -0.85841) (xy -3.970025 -0.826628) (xy -3.992464 -0.793823) (xy -4.014741 -0.761368)
			(xy -4.035919 -0.730636) (xy -4.055058 -0.703002) (xy -4.071219 -0.67984) (xy -4.083462 -0.662523)
			(xy -4.088758 -0.655211) (xy -4.102118 -0.637109) (xy -4.151292 -0.669229) (xy -4.190647 -0.693374)
			(xy -4.235516 -0.718321) (xy -4.282829 -0.742547) (xy -4.329515 -0.76453) (xy -4.372504 -0.782747)
			(xy -4.401974 -0.793521) (xy -4.474777 -0.813132) (xy -4.547815 -0.824364) (xy -4.618048 -0.826777)
			(xy -4.628683 -0.826323) (xy -4.685338 -0.82008) (xy -4.733112 -0.807736) (xy -4.772826 -0.788929)
			(xy -4.805298 -0.763295) (xy -4.825744 -0.73887) (xy -4.834021 -0.726094) (xy -4.839256 -0.714179)
			(xy -4.842288 -0.699758) (xy -4.843955 -0.679466) (xy -4.844653 -0.662983) (xy -4.845269 -0.637595)
			(xy -4.8445 -0.619781) (xy -4.841707 -0.60587) (xy -4.836251 -0.592193) (xy -4.830275 -0.580351)
			(xy -4.810795 -0.551709) (xy -4.784227 -0.528542) (xy -4.77103 -0.519675) (xy -4.75744 -0.511467)
			(xy -4.7425 -0.50359) (xy -4.725254 -0.495716) (xy -4.704744 -0.487518) (xy -4.680013 -0.478668)
			(xy -4.650105 -0.468838) (xy -4.614062 -0.457701) (xy -4.570927 -0.444928) (xy -4.519743 -0.430192)
			(xy -4.459553 -0.413165) (xy -4.392508 -0.394387) (xy -4.295655 -0.365089) (xy -4.209445 -0.334111)
			(xy -4.133327 -0.301083) (xy -4.066752 -0.265636) (xy -4.00917 -0.227399) (xy -3.960031 -0.186003)
			(xy -3.918785 -0.141079) (xy -3.884882 -0.092257) (xy -3.857773 -0.039167) (xy -3.855256 -0.033229)
			(xy -3.840516 0.00741) (xy -3.830161 0.049028) (xy -3.823826 0.094146) (xy -3.821147 0.145287) (xy -3.821605 0.200023)
			(xy -3.823162 0.239827) (xy -3.825392 0.271483) (xy -3.828661 0.298106) (xy -3.833334 0.322811) (xy -3.838534 0.344059)
			(xy -3.863721 0.418637) (xy -3.89811 0.486802) (xy -3.941545 0.54842) (xy -3.993872 0.603357) (xy -4.054933 0.651479)
			(xy -4.124575 0.692651) (xy -4.20264 0.72674) (xy -4.288975 0.75361) (xy -4.322836 0.761664) (xy -4.34261 0.765583)
			(xy -4.363053 0.768609) (xy -4.386129 0.770881) (xy -4.413804 0.772536) (xy -4.448044 0.773713) (xy -4.490815 0.774548)
			(xy -4.51036 0.774813) (xy -4.549247 0.775187) (xy -4.585201 0.775333) (xy -4.616416 0.77526) (xy -4.641083 0.774976)
			(xy -4.657397 0.77449) (xy -4.662489 0.774096) (xy -4.778475 0.753956) (xy -4.886057 0.727274) (xy -4.986301 0.693612)
			(xy -5.080278 0.65253) (xy -5.169054 0.603591) (xy -5.253699 0.546356) (xy -5.294936 0.514384) (xy -5.320316 0.492965)
			(xy -5.336348 0.477355) (xy -5.342954 0.467631) (xy -5.342829 0.465193) (xy -5.338321 0.459314) (xy -5.327458 0.445858)
			(xy -5.311116 0.425891) (xy -5.290174 0.400478) (xy -5.265507 0.370683) (xy -5.237994 0.337573) (xy -5.217844 0.313393)
			(xy -5.184695 0.273999) (xy -5.155559 0.240059) (xy -5.131009 0.212206) (xy -5.11162 0.191077) (xy -5.097963 0.177307)
			(xy -5.090611 0.171532) (xy -5.089776 0.171427) (xy -5.082226 0.175907) (xy -5.068206 0.185517) (xy -5.050194 0.198536)
			(xy -5.04152 0.204992) (xy -4.956753 0.263788) (xy -4.87326 0.311726) (xy -4.79039 0.34905) (xy -4.707489 0.376005)
			(xy -4.623905 0.392835) (xy -4.538984 0.399784) (xy -4.520716 0.400011) (xy -4.454151 0.396581) (xy -4.396069 0.386236)
			(xy -4.346628 0.369024) (xy -4.305988 0.34499) (xy -4.293759 0.334872) (xy -4.271897 0.312456) (xy -4.257499 0.29011)
			(xy -4.24926 0.264635) (xy -4.245872 0.232831) (xy -4.245582 0.216926) (xy -4.245941 0.191339) (xy -4.247543 0.17343)
			(xy -4.251102 0.159623) (xy -4.257334 0.146339) (xy -4.260952 0.140002) (xy -4.275673 0.119683) (xy -4.295647 0.100506)
			(xy -4.321635 0.082128) (xy -4.354394 0.064207) (xy -4.394684 0.046401) (xy -4.443265 0.028365) (xy -4.500896 0.009759)
			(xy -4.568336 -0.009762) (xy -4.628683 -0.025959) (xy -4.724494 -0.052207) (xy -4.809782 -0.078318)
			(xy -4.885281 -0.104708) (xy -4.951722 -0.131793) (xy -5.009838 -0.159991) (xy -5.060362 -0.189717)
			(xy -5.104027 -0.221388) (xy -5.141564 -0.255419) (xy -5.173707 -0.292228) (xy -5.201188 -0.33223)
			(xy -5.216957 -0.360256) (xy -5.238308 -0.407966) (xy -5.254081 -0.459198) (xy -5.265089 -0.516872)
			(xy -5.268721 -0.545847) (xy -5.272774 -0.630722) (xy -5.266359 -0.711784) (xy -5.24977 -0.788554)
			(xy -5.223305 -0.860551) (xy -5.187258 -0.927295) (xy -5.141926 -0.988306) (xy -5.087605 -1.043103)
			(xy -5.024591 -1.091206) (xy -4.953179 -1.132135) (xy -4.890757 -1.15918) (xy -4.846021 -1.174508)
			(xy -4.801589 -1.18616) (xy -4.754788 -1.194588) (xy -4.702943 -1.200246) (xy -4.643381 -1.203587)
			(xy -4.625127 -1.204164) (xy -4.565015 -1.205065)
		)
		(stroke
			(width 0)
			(type solid)
		)
		(fill solid)
		(layer "F.Cu")
		(uuid "fb03d859-dcc9-4533-b352-64830e0e5423")
	)
)