(footprint "SO-8FL"
	(version 20240108)
	(generator "pcbnew")
	(generator_version "8.0")
	(layer "F.Cu")
	(descr "SO-8FL, https://www.onsemi.com/pdf/datasheet/ntmfs4h013nf-d.pdf")
	(tags "SO-8FL")
	(property "Reference" "REF**"
		(at 0 -4.74537 0)
		(layer "F.SilkS")
		(uuid "d1ee33bf-5310-4b86-ba43-c0dc9d2059b7")
		(effects
			(font
				(size 1 1)
				(thickness 0.15)
			)
		)
	)
	(property "Value" "SO-8FL"
		(at 0 4.89943 0)
		(layer "F.Fab")
		(uuid "3f0007c5-b993-453c-a198-e94573de387c")
		(effects
			(font
				(size 1 1)
				(thickness 0.15)
			)
		)
	)
	(property "Footprint" ""
		(at 0 0 0)
		(layer "F.Fab")
		(hide yes)
		(uuid "87ce199e-c205-417c-94a8-f0235726229c")
		(effects
			(font
				(size 1.27 1.27)
				(thickness 0.15)
			)
		)
	)
	(property "Datasheet" ""
		(at 0 0 0)
		(layer "F.Fab")
		(hide yes)
		(uuid "4afe23f9-bf45-41e0-99e6-856ecd99be7e")
		(effects
			(font
				(size 1.27 1.27)
				(thickness 0.15)
			)
		)
	)
	(property "Description" ""
		(at 0 0 0)
		(layer "F.Fab")
		(hide yes)
		(uuid "c99c622d-861f-4cd1-8808-04add5468f7a")
		(effects
			(font
				(size 1.27 1.27)
				(thickness 0.15)
			)
		)
	)
	(attr smd)
	(fp_line
		(start -2.45 -0.3475)
		(end -2.45 -2.9975)
		(stroke
			(width 0.12)
			(type solid)
		)
		(layer "F.SilkS")
		(uuid "8a38ef00-abd8-4634-9b5f-73e269fb75d8")
	)
	(fp_line
		(start -2.45 2.9025)
		(end -2.45 1.1525)
		(stroke
			(width 0.12)
			(type solid)
		)
		(layer "F.SilkS")
		(uuid "afdecd55-3f90-4144-9dff-8b600404521d")
	)
	(fp_line
		(start -1.3 -2.9975)
		(end 1.3 -2.9975)
		(stroke
			(width 0.12)
			(type solid)
		)
		(layer "F.SilkS")
		(uuid "468346d5-c0d7-4808-aec0-616dfb531ab5")
	)
	(fp_line
		(start 2.45 -2.9975)
		(end 2.45 -0.3475)
		(stroke
			(width 0.12)
			(type solid)
		)
		(layer "F.SilkS")
		(uuid "708edee5-bda7-4521-b769-ba20ea329d83")
	)
	(fp_line
		(start 2.45 1.1525)
		(end 2.45 2.9025)
		(stroke
			(width 0.12)
			(type solid)
		)
		(layer "F.SilkS")
		(uuid "1e682092-4ba5-4da1-97b0-7b72d9450c1e")
	)
	(fp_circle
		(center -1.9 3.8525)
		(end -1.8 3.8525)
		(stroke
			(width 0.12)
			(type solid)
		)
		(fill none)
		(layer "F.SilkS")
		(uuid "fc78055b-3a6b-47ad-893a-8ce8a3fec235")
	)
	(fp_line
		(start -3.025 -0.2975)
		(end -2.7 -0.2975)
		(stroke
			(width 0.05)
			(type solid)
		)
		(layer "Eco1.User")
		(uuid "d828d139-f08c-419a-82a5-65d5b02edf4b")
	)
	(fp_line
		(start -3.025 1.1075)
		(end -3.025 -0.2975)
		(stroke
			(width 0.05)
			(type solid)
		)
		(layer "Eco1.User")
		(uuid "7b60858c-766e-4e92-889f-8aebeda9a61a")
	)
	(fp_line
		(start -2.7 -3.515)
		(end 2.7 -3.515)
		(stroke
			(width 0.05)
			(type solid)
		)
		(layer "Eco1.User")
		(uuid "b93ed367-1339-4dfb-9353-7392ec37721c")
	)
	(fp_line
		(start -2.7 -0.2975)
		(end -2.7 -3.515)
		(stroke
			(width 0.05)
			(type solid)
		)
		(layer "Eco1.User")
		(uuid "6b360f00-eb9a-4165-b61e-325081d1f29c")
	)
	(fp_line
		(start -2.7 1.1075)
		(end -3.025 1.1075)
		(stroke
			(width 0.05)
			(type solid)
		)
		(layer "Eco1.User")
		(uuid "f0dcdf0d-1b06-454d-a9dd-387f336887ae")
	)
	(fp_line
		(start -2.7 3.4975)
		(end -2.7 1.1075)
		(stroke
			(width 0.05)
			(type solid)
		)
		(layer "Eco1.User")
		(uuid "5901cf7e-4058-45fc-b44b-9d8f6a6ce880")
	)
	(fp_line
		(start 2.7 -3.515)
		(end 2.7 -0.2975)
		(stroke
			(width 0.05)
			(type solid)
		)
		(layer "Eco1.User")
		(uuid "2fd9323c-c0bc-4674-b307-d9d8a0eef128")
	)
	(fp_line
		(start 2.7 -0.2975)
		(end 3.025 -0.2975)
		(stroke
			(width 0.05)
			(type solid)
		)
		(layer "Eco1.User")
		(uuid "95c7ff4d-fe77-4ffc-afed-98f3a10466c8")
	)
	(fp_line
		(start 2.7 1.1075)
		(end 2.7 3.4975)
		(stroke
			(width 0.05)
			(type solid)
		)
		(layer "Eco1.User")
		(uuid "6536164a-e34d-4f66-95b5-996c2bb4df1a")
	)
	(fp_line
		(start 2.7 3.4975)
		(end -2.7 3.4975)
		(stroke
			(width 0.05)
			(type solid)
		)
		(layer "Eco1.User")
		(uuid "1bc044ec-4d8c-4e0e-89d0-d61f366168a3")
	)
	(fp_line
		(start 3.025 -0.2975)
		(end 3.025 1.1075)
		(stroke
			(width 0.05)
			(type solid)
		)
		(layer "Eco1.User")
		(uuid "df844e02-4ffc-477f-9434-f1e5ad0168af")
	)
	(fp_line
		(start 3.025 1.1075)
		(end 2.7 1.1075)
		(stroke
			(width 0.05)
			(type solid)
		)
		(layer "Eco1.User")
		(uuid "40efcd16-696e-40da-bb7e-a8b8be6d469e")
	)
	(fp_line
		(start -2.45 -2.9975)
		(end 2.45 -2.9975)
		(stroke
			(width 0.127)
			(type solid)
		)
		(layer "Eco2.User")
		(uuid "dfd2f124-528f-4ed1-96b9-322592602054")
	)
	(fp_line
		(start -2.45 2.9025)
		(end -2.45 -2.9975)
		(stroke
			(width 0.127)
			(type solid)
		)
		(layer "Eco2.User")
		(uuid "266416d9-47dc-4ca4-91cd-75959c33a57d")
	)
	(fp_line
		(start 2.45 -2.9975)
		(end 2.45 2.9025)
		(stroke
			(width 0.127)
			(type solid)
		)
		(layer "Eco2.User")
		(uuid "a3199674-24be-44dc-a406-677747f8b428")
	)
	(fp_line
		(start 2.45 2.9025)
		(end -2.45 2.9025)
		(stroke
			(width 0.127)
			(type solid)
		)
		(layer "Eco2.User")
		(uuid "7a70fe0b-f841-4ad5-a5f9-e5bc8e20f0f6")
	)
	(fp_circle
		(center -1.9 1.8525)
		(end -1.8 1.8525)
		(stroke
			(width 0.2)
			(type solid)
		)
		(fill none)
		(layer "Eco2.User")
		(uuid "4f482f24-7608-4ee4-9018-8b06b0089cc2")
	)
	(fp_line
		(start -3.02 -3.5)
		(end -3.02 4.2)
		(stroke
			(width 0.05)
			(type solid)
		)
		(layer "F.CrtYd")
		(uuid "62694985-e8af-4e67-87f4-eee9b53b76e2")
	)
	(fp_line
		(start -3.02 -3.5)
		(end 3.03 -3.5)
		(stroke
			(width 0.05)
			(type solid)
		)
		(layer "F.CrtYd")
		(uuid "2efadbbb-f0bd-4ef2-86d1-f0594adf4e5b")
	)
	(fp_line
		(start 3.03 4.2)
		(end -3.02 4.2)
		(stroke
			(width 0.05)
			(type solid)
		)
		(layer "F.CrtYd")
		(uuid "858ad987-b2c6-4ff8-885a-864bb4e731de")
	)
	(fp_line
		(start 3.03 4.2)
		(end 3.03 -3.5)
		(stroke
			(width 0.05)
			(type solid)
		)
		(layer "F.CrtYd")
		(uuid "5002cf4e-03cb-4480-866f-ea47ac22ec04")
	)
	(fp_line
		(start -2.45 -3)
		(end 2.45 -3)
		(stroke
			(width 0.1)
			(type solid)
		)
		(layer "F.Fab")
		(uuid "a56b6ea9-8b6b-406c-85f0-788968227d95")
	)
	(fp_line
		(start -2.45 2.4)
		(end -2.45 -3)
		(stroke
			(width 0.1)
			(type solid)
		)
		(layer "F.Fab")
		(uuid "f29506f1-62b1-4073-ac37-746b41c693c5")
	)
	(fp_line
		(start -1.95 2.9)
		(end -2.45 2.4)
		(stroke
			(width 0.1)
			(type solid)
		)
		(layer "F.Fab")
		(uuid "e961753f-0c28-4c47-b7b0-a9806ec792c6")
	)
	(fp_line
		(start 2.45 -3)
		(end 2.45 2.9)
		(stroke
			(width 0.1)
			(type solid)
		)
		(layer "F.Fab")
		(uuid "69b37057-d2d5-4a6a-834c-beadbf1191eb")
	)
	(fp_line
		(start 2.45 2.9)
		(end -1.95 2.9)
		(stroke
			(width 0.1)
			(type solid)
		)
		(layer "F.Fab")
		(uuid "f77a8d51-5ca5-4327-8abc-43ae6e75495b")
	)
	(fp_text user "${REFERENCE}"
		(at 0 -0.0005 0)
		(layer "F.Fab")
		(uuid "6677ef9f-fa21-4fcb-932c-0dd2f2e00457")
		(effects
			(font
				(size 1 1)
				(thickness 0.15)
			)
		)
	)
	(pad "1" smd rect
		(at -1.905 2.7475)
		(size 0.75 1)
		(layers "F.Cu" "F.Paste" "F.Mask")
		(uuid "2576b983-b407-4bb3-870d-6fa0fab97bf4")
	)
	(pad "2" smd rect
		(at -0.635 2.7475)
		(size 0.75 1)
		(layers "F.Cu" "F.Paste" "F.Mask")
		(uuid "3f88f4fd-0cab-4fe2-9180-3894c0e75c9e")
	)
	(pad "3" smd rect
		(at 0.635 2.7475)
		(size 0.75 1)
		(layers "F.Cu" "F.Paste" "F.Mask")
		(uuid "8964c3b8-554c-4e16-bed1-e0494298e753")
	)
	(pad "4" smd rect
		(at 1.905 2.7475)
		(size 0.75 1)
		(layers "F.Cu" "F.Paste" "F.Mask")
		(uuid "89a5c195-5184-414f-b907-fe80bd5ac5ae")
	)
	(pad "5" smd rect
		(at -2.5275 0.405 90)
		(size 0.905 0.495)
		(layers "F.Cu" "F.Paste" "F.Mask")
		(uuid "57ea8d30-216a-4d6e-a3ea-3d1f0acdb4b0")
	)
	(pad "5" smd rect
		(at -1.905 -2.96)
		(size 0.75 0.575)
		(layers "F.Cu" "F.Paste" "F.Mask")
		(uuid "65d7df29-1bfe-4ff2-a4d9-06523619769d")
	)
	(pad "5" smd rect
		(at 0 -0.695 90)
		(size 3.955 4.56)
		(layers "F.Cu" "F.Paste" "F.Mask")
		(uuid "b8c7af6e-8242-479f-99b4-42b9c4f7b6a2")
	)
	(pad "5" smd rect
		(at 1.905 -2.96)
		(size 0.75 0.575)
		(layers "F.Cu" "F.Paste" "F.Mask")
		(uuid "37fa008f-e4dc-4737-8404-c51b2eba0090")
	)
	(pad "5" smd rect
		(at 2.5275 0.405 90)
		(size 0.905 0.495)
		(layers "F.Cu" "F.Paste" "F.Mask")
		(uuid "bcdd78f2-db20-46e1-9296-5736e9d8c783")
	)
	(model "${LSF_KICAD_LIB}/lsf-kicad-lib.3dshapes/SO-8FL.wrl"
		(offset
			(xyz 0 0 0)
		)
		(scale
			(xyz 1 1 1)
		)
		(rotate
			(xyz 0 0 0)
		)
	)
)
