(footprint "SOT-26-6"
	(version 20240108)
	(generator "pcbnew")
	(generator_version "8.0")
	(layer "F.Cu")
	(descr "Base on AP255xx (http://www.diodes.com/package-outlines.html)")
	(tags "SOT TO_SOT_SMD")
	(property "Reference" "REF**"
		(at -0.01 -2.44 0)
		(layer "F.SilkS")
		(uuid "ec2a989f-3c75-46a2-b1a6-5df24d4b1b28")
		(effects
			(font
				(size 1 1)
				(thickness 0.15)
			)
		)
	)
	(property "Value" "SOT-26-6"
		(at 0 2.4 0)
		(layer "F.Fab")
		(uuid "535b30f9-3ad1-4b22-b606-4d7dee21bba5")
		(effects
			(font
				(size 1 1)
				(thickness 0.15)
			)
		)
	)
	(property "Footprint" ""
		(at 0 0 0)
		(unlocked yes)
		(layer "F.Fab")
		(uuid "cafcdc49-e800-42b5-bed5-bdc335b2d724")
		(effects
			(font
				(size 1.27 1.27)
				(thickness 0.15)
			)
		)
	)
	(property "Datasheet" ""
		(at 0 0 0)
		(unlocked yes)
		(layer "F.Fab")
		(hide yes)
		(uuid "358e5e09-97ee-45f6-acd7-bc90ae53fa1e")
		(effects
			(font
				(size 1.27 1.27)
				(thickness 0.15)
			)
		)
	)
	(property "Description" ""
		(at 0 0 0)
		(unlocked yes)
		(layer "F.Fab")
		(hide yes)
		(uuid "2c02ce92-970a-421d-aa4f-24eb67fcbef6")
		(effects
			(font
				(size 1.27 1.27)
				(thickness 0.15)
			)
		)
	)
	(attr smd)
	(fp_line
		(start 0 -1.56)
		(end -0.8 -1.56)
		(stroke
			(width 0.12)
			(type solid)
		)
		(layer "F.SilkS")
		(uuid "ad0b8899-fe61-486a-961b-4b3af7d8b962")
	)
	(fp_line
		(start 0 -1.56)
		(end 0.8 -1.56)
		(stroke
			(width 0.12)
			(type solid)
		)
		(layer "F.SilkS")
		(uuid "adbb9e4b-f68b-44ab-ae47-507043d13e11")
	)
	(fp_line
		(start 0 1.56)
		(end -0.8 1.56)
		(stroke
			(width 0.12)
			(type solid)
		)
		(layer "F.SilkS")
		(uuid "2e180a24-fb8d-4e21-903b-f5942a398f46")
	)
	(fp_line
		(start 0 1.56)
		(end 0.8 1.56)
		(stroke
			(width 0.12)
			(type solid)
		)
		(layer "F.SilkS")
		(uuid "dbea7f9c-d532-4246-8f21-ebe253ee9d91")
	)
	(fp_poly
		(pts
			(xy -1.3 -1.51) (xy -1.54 -1.84) (xy -1.06 -1.84) (xy -1.3 -1.51)
		)
		(stroke
			(width 0.12)
			(type solid)
		)
		(fill solid)
		(layer "F.SilkS")
		(uuid "9a6d4a6d-b563-467c-9502-3c8db65862f9")
	)
	(fp_line
		(start -2.05 -1.7)
		(end -2.05 1.7)
		(stroke
			(width 0.05)
			(type solid)
		)
		(layer "F.CrtYd")
		(uuid "f7866022-77d4-4a10-a352-2f1205b231e7")
	)
	(fp_line
		(start -2.05 1.7)
		(end 2.05 1.7)
		(stroke
			(width 0.05)
			(type solid)
		)
		(layer "F.CrtYd")
		(uuid "56ce3698-b0a0-4ed5-9020-b13e3a22ffa4")
	)
	(fp_line
		(start 2.05 -1.7)
		(end -2.05 -1.7)
		(stroke
			(width 0.05)
			(type solid)
		)
		(layer "F.CrtYd")
		(uuid "7dcf9277-533c-4a32-84fd-19106af004e0")
	)
	(fp_line
		(start 2.05 1.7)
		(end 2.05 -1.7)
		(stroke
			(width 0.05)
			(type solid)
		)
		(layer "F.CrtYd")
		(uuid "875a72f0-b3e2-469d-87dd-fb97d3cbb411")
	)
	(fp_line
		(start -0.8 -1.05)
		(end -0.4 -1.45)
		(stroke
			(width 0.1)
			(type solid)
		)
		(layer "F.Fab")
		(uuid "7e98d800-d685-42be-ba72-89277e4aa0f4")
	)
	(fp_line
		(start -0.8 1.45)
		(end -0.8 -1.05)
		(stroke
			(width 0.1)
			(type solid)
		)
		(layer "F.Fab")
		(uuid "9d673b3b-1e19-4c9c-9752-27332c9434ce")
	)
	(fp_line
		(start -0.4 -1.45)
		(end 0.8 -1.45)
		(stroke
			(width 0.1)
			(type solid)
		)
		(layer "F.Fab")
		(uuid "0a5a9fb5-d494-4dcc-9bef-6b9048540864")
	)
	(fp_line
		(start 0.8 -1.45)
		(end 0.8 1.45)
		(stroke
			(width 0.1)
			(type solid)
		)
		(layer "F.Fab")
		(uuid "de564b8f-abab-494c-b08d-480fe06b2062")
	)
	(fp_line
		(start 0.8 1.45)
		(end -0.8 1.45)
		(stroke
			(width 0.1)
			(type solid)
		)
		(layer "F.Fab")
		(uuid "4e9fdc90-0127-4d4b-b52a-63c2d64d3147")
	)
	(fp_text user "${REFERENCE}"
		(at 0 0 0)
		(layer "F.Fab")
		(uuid "6ddd523e-4c7c-4f94-b9c5-80cc33bd13fc")
		(effects
			(font
				(size 0.5 0.5)
				(thickness 0.06)
			)
		)
	)
	(pad "1" smd roundrect
		(at -1.2 -0.95)
		(size 0.8 0.55)
		(layers "F.Cu" "F.Paste" "F.Mask")
		(roundrect_rratio 0.25)
		(uuid "fd5b5e31-bb6e-40f8-8d25-9686358fd0ce")
	)
	(pad "2" smd roundrect
		(at -1.2 0)
		(size 0.8 0.55)
		(layers "F.Cu" "F.Paste" "F.Mask")
		(roundrect_rratio 0.25)
		(uuid "4d2dbb91-b77c-4dda-9fab-5571a77dee6a")
	)
	(pad "3" smd roundrect
		(at -1.2 0.95)
		(size 0.8 0.55)
		(layers "F.Cu" "F.Paste" "F.Mask")
		(roundrect_rratio 0.25)
		(uuid "6180b67f-3b5b-460b-ae1b-e4f3919ac654")
	)
	(pad "4" smd roundrect
		(at 1.2 0.95)
		(size 0.8 0.55)
		(layers "F.Cu" "F.Paste" "F.Mask")
		(roundrect_rratio 0.25)
		(uuid "c61cd774-6e3e-466a-806c-2ec9a681fdac")
	)
	(pad "5" smd roundrect
		(at 1.2 0)
		(size 0.8 0.55)
		(layers "F.Cu" "F.Paste" "F.Mask")
		(roundrect_rratio 0.25)
		(uuid "e16731c5-e512-4da7-8854-95b0e99f2b08")
	)
	(pad "6" smd roundrect
		(at 1.2 -0.95)
		(size 0.8 0.55)
		(layers "F.Cu" "F.Paste" "F.Mask")
		(roundrect_rratio 0.25)
		(uuid "641ab340-db6e-4a7c-adba-e23f8b0fa6d3")
	)
	(model "${LSF_KICAD_LIB}/lsf-kicad-lib.3dshapes/SOT-26-6.wrl"
		(offset
			(xyz 0 0 0)
		)
		(scale
			(xyz 1 1 1)
		)
		(rotate
			(xyz 0 0 0)
		)
	)
)
