(footprint "SRP1270"
	(version 20240108)
	(generator "pcbnew")
	(generator_version "8.0")
	(layer "F.Cu")
	(descr "Bourns SRP1270, https://www.bourns.com/docs/product-datasheets/srp1270.pdf")
	(tags "Bourns SRP1270 L")
	(property "Reference" "REF**"
		(at 0 0.5 0)
		(layer "F.SilkS")
		(uuid "c428476c-4290-4c68-ac71-c958a869f6c8")
		(effects
			(font
				(size 1 1)
				(thickness 0.15)
			)
		)
	)
	(property "Value" "SRP1270"
		(at 0 -0.5 0)
		(layer "F.Fab")
		(uuid "9bd74752-bad8-4a6b-9c09-ebd51cef38b5")
		(effects
			(font
				(size 1 1)
				(thickness 0.15)
			)
		)
	)
	(property "Footprint" ""
		(at 0 0 0)
		(layer "F.Fab")
		(hide yes)
		(uuid "ca0b319f-27b1-439d-8db0-4e0f0499876a")
		(effects
			(font
				(size 1.27 1.27)
				(thickness 0.15)
			)
		)
	)
	(property "Datasheet" ""
		(at 0 0 0)
		(layer "F.Fab")
		(hide yes)
		(uuid "8feb60ac-44d2-4049-b2d5-f3f6f95c4e04")
		(effects
			(font
				(size 1.27 1.27)
				(thickness 0.15)
			)
		)
	)
	(property "Description" ""
		(at 0 0 0)
		(layer "F.Fab")
		(hide yes)
		(uuid "aef4dde6-22cf-4bc2-8992-27a7e4d7ba53")
		(effects
			(font
				(size 1.27 1.27)
				(thickness 0.15)
			)
		)
	)
	(attr smd)
	(fp_line
		(start -7.25 -7.25)
		(end -7.25 -2.5)
		(stroke
			(width 0.12)
			(type solid)
		)
		(layer "F.SilkS")
		(uuid "d092cb92-476b-4964-a9b8-4d078d2df1f3")
	)
	(fp_line
		(start -7.25 -7.25)
		(end 7.25 -7.25)
		(stroke
			(width 0.12)
			(type solid)
		)
		(layer "F.SilkS")
		(uuid "a8ecd463-2cb3-477e-97a5-bbfd2888fb4f")
	)
	(fp_line
		(start -7.25 2.5)
		(end -7.25 7.25)
		(stroke
			(width 0.12)
			(type solid)
		)
		(layer "F.SilkS")
		(uuid "04a07e1c-3ef1-4126-9c83-230d9bf02d61")
	)
	(fp_line
		(start -7.25 7.25)
		(end 7.25 7.25)
		(stroke
			(width 0.12)
			(type solid)
		)
		(layer "F.SilkS")
		(uuid "2cd1dcd9-a163-4468-9353-e5e28165d645")
	)
	(fp_line
		(start 7.25 -7.25)
		(end 7.25 -2.5)
		(stroke
			(width 0.12)
			(type solid)
		)
		(layer "F.SilkS")
		(uuid "728da75e-935f-47b2-9ac1-a3957aae00c8")
	)
	(fp_line
		(start 7.25 7.25)
		(end 7.25 2.5)
		(stroke
			(width 0.12)
			(type solid)
		)
		(layer "F.SilkS")
		(uuid "70746b2f-a3bd-470c-ace3-3eddf6486f2b")
	)
	(fp_line
		(start -7.75 -7.1)
		(end -7.75 7.1)
		(stroke
			(width 0.05)
			(type solid)
		)
		(layer "F.CrtYd")
		(uuid "7937b0e2-add7-4f7a-827f-bc162e49c8e4")
	)
	(fp_line
		(start -7.75 -7.1)
		(end 7.75 -7.1)
		(stroke
			(width 0.05)
			(type solid)
		)
		(layer "F.CrtYd")
		(uuid "f3ebf793-1bd3-4e38-825c-e06aa199af1f")
	)
	(fp_line
		(start 7.75 7.1)
		(end -7.75 7.1)
		(stroke
			(width 0.05)
			(type solid)
		)
		(layer "F.CrtYd")
		(uuid "63d27536-829e-4e25-8e65-2e816b886681")
	)
	(fp_line
		(start 7.75 7.1)
		(end 7.75 -7.1)
		(stroke
			(width 0.05)
			(type solid)
		)
		(layer "F.CrtYd")
		(uuid "b464403d-d80d-47b1-bae2-37d48ac71b69")
	)
	(fp_line
		(start -6.85 -6.85)
		(end -6.85 6.85)
		(stroke
			(width 0.1)
			(type solid)
		)
		(layer "F.Fab")
		(uuid "98558867-41d7-4147-a57f-d5111e4ef02e")
	)
	(fp_line
		(start -6.85 -6.85)
		(end 6.85 -6.85)
		(stroke
			(width 0.1)
			(type solid)
		)
		(layer "F.Fab")
		(uuid "daee66e3-1acf-4bf2-888e-d1288a5b77db")
	)
	(fp_line
		(start -6.85 6.85)
		(end 6.85 6.85)
		(stroke
			(width 0.1)
			(type solid)
		)
		(layer "F.Fab")
		(uuid "dac8ace8-82da-4a53-beaf-bd55bdb3f444")
	)
	(fp_line
		(start 6.85 -6.85)
		(end 6.85 6.85)
		(stroke
			(width 0.1)
			(type solid)
		)
		(layer "F.Fab")
		(uuid "eba3b551-eef0-4917-8a86-62fe56872b10")
	)
	(fp_text user "${REFERENCE}"
		(at 0 0 0)
		(layer "F.Fab")
		(uuid "9afd1ebf-8cbb-4ad2-b0ee-0c24c552f5a2")
		(effects
			(font
				(size 1 1)
				(thickness 0.15)
			)
		)
	)
	(pad "1" smd rect
		(at -5.5 0 180)
		(size 4 4.5)
		(layers "F.Cu" "F.Paste" "F.Mask")
		(uuid "eca4347b-73c1-4be3-8267-51e2e4b5048c")
	)
	(pad "2" smd rect
		(at 5.5 0 180)
		(size 4 4.5)
		(layers "F.Cu" "F.Paste" "F.Mask")
		(uuid "811f3d1a-881c-44c1-a82d-9e36a7350232")
	)
	(model "${LSF_KICAD_LIB}/lsf-kicad-lib.3dshapes/SRP1270.wrl"
		(offset
			(xyz 0 0 0)
		)
		(scale
			(xyz 1 1 1)
		)
		(rotate
			(xyz 0 0 0)
		)
	)
)
