(footprint "TDFN-14-1EP_3x3mm_P0.4mm_EP1.7x2.3mm" (version 20211014) (generator pcbnew)
  (layer "F.Cu")
  (tedit 61E6EC33)
  (descr "TDFN, 14 Pin (https://pdfserv.maximintegrated.com/package_dwgs/21-0137.PDF), generated with kicad-footprint-generator ipc_noLead_generator.py")
  (tags "TDFN NoLead")
  (attr smd)
  (fp_text reference "REF**" (at 0 -2.45) (layer "F.SilkS")
    (effects (font (size 1 1) (thickness 0.15)))
    (tstamp 756db9ba-ea46-447a-95bd-3eb129ab5c8e)
  )
  (fp_text value "TDFN-14-1EP_3x3mm_P0.4mm_EP1.7x2.3mm" (at 0 2.45) (layer "F.Fab")
    (effects (font (size 1 1) (thickness 0.15)))
    (tstamp d91d6dad-8863-4e47-b907-bd84a7a2d0c6)
  )
  (fp_text user "${REFERENCE}" (at 0 0) (layer "F.Fab")
    (effects (font (size 0.75 0.75) (thickness 0.11)))
    (tstamp 39d2e5a2-18d4-4918-864d-106edbf0ba60)
  )
  (fp_line (start 0 -1.61) (end 1.5 -1.61) (layer "F.SilkS") (width 0.12) (tstamp abb36f04-67a1-4cbb-8fcc-00bd9537706a))
  (fp_line (start -1.5 1.61) (end 1.5 1.61) (layer "F.SilkS") (width 0.12) (tstamp d41ce63c-c5ca-413d-b059-cc1af056be7b))
  (fp_line (start -2.12 -1.75) (end -2.12 1.75) (layer "F.CrtYd") (width 0.05) (tstamp 2adba3ba-b601-438f-86ce-1fe9b6d0bd03))
  (fp_line (start 2.12 1.75) (end 2.12 -1.75) (layer "F.CrtYd") (width 0.05) (tstamp 744e5426-493f-449e-b1b2-e8911e298177))
  (fp_line (start 2.12 -1.75) (end -2.12 -1.75) (layer "F.CrtYd") (width 0.05) (tstamp 8c9ea492-98a6-4bc2-9d36-2432e6f8f097))
  (fp_line (start -2.12 1.75) (end 2.12 1.75) (layer "F.CrtYd") (width 0.05) (tstamp f56a3304-5b75-4f77-a48f-8d3630fb3d34))
  (fp_line (start -1.5 1.5) (end -1.5 -0.75) (layer "F.Fab") (width 0.1) (tstamp 01fa4f34-4343-4e26-8f31-1955f8b15a31))
  (fp_line (start 1.5 1.5) (end -1.5 1.5) (layer "F.Fab") (width 0.1) (tstamp 2f19377f-9447-4030-94da-fb9ba00c6b67))
  (fp_line (start 1.5 -1.5) (end 1.5 1.5) (layer "F.Fab") (width 0.1) (tstamp 61b55344-9121-48d9-ab18-3c49750df50d))
  (fp_line (start -1.5 -0.75) (end -0.75 -1.5) (layer "F.Fab") (width 0.1) (tstamp cc8f4bd6-ece2-481c-a770-4694caa4e202))
  (fp_line (start -0.75 -1.5) (end 1.5 -1.5) (layer "F.Fab") (width 0.1) (tstamp cfd281d6-2bf8-4362-ad72-85c8bbfac9f7))
  (pad "" smd roundrect (at -0.425 0.575) (size 0.69 0.93) (layers "F.Paste") (roundrect_rratio 0.25) (tstamp 030a0f26-7aa7-4fc3-96de-1bb7d78c5290))
  (pad "" smd roundrect (at 0.425 0.575) (size 0.69 0.93) (layers "F.Paste") (roundrect_rratio 0.25) (tstamp 2e7aafa8-71b2-489a-8523-7ad697f1e571))
  (pad "" smd roundrect (at 0.425 -0.575) (size 0.69 0.93) (layers "F.Paste") (roundrect_rratio 0.25) (tstamp 5b4a2079-840b-4541-b75c-2b07e44939a4))
  (pad "" smd roundrect (at -0.425 -0.575) (size 0.69 0.93) (layers "F.Paste") (roundrect_rratio 0.25) (tstamp a4a8cf8f-65da-4f9c-915e-9c8b5c764fda))
  (pad "1" smd roundrect (at -1.5 -1.2) (size 0.75 0.2) (layers "F.Cu" "F.Paste" "F.Mask") (roundrect_rratio 0.25) (tstamp a3dbbb51-13c1-4c07-9e96-a5a64860a7a9))
  (pad "2" smd roundrect (at -1.5 -0.8) (size 0.75 0.2) (layers "F.Cu" "F.Paste" "F.Mask") (roundrect_rratio 0.25) (tstamp e9ded06d-2b15-4a20-ac22-a612c45dc056))
  (pad "3" smd roundrect (at -1.5 -0.4) (size 0.75 0.2) (layers "F.Cu" "F.Paste" "F.Mask") (roundrect_rratio 0.25) (tstamp 6f73b041-4859-4b46-947b-7916cfc9b1b1))
  (pad "4" smd roundrect (at -1.5 0) (size 0.75 0.2) (layers "F.Cu" "F.Paste" "F.Mask") (roundrect_rratio 0.25) (tstamp 96b930ce-db24-4d38-bc0a-afff37df2fc3))
  (pad "5" smd roundrect (at -1.5 0.4) (size 0.75 0.2) (layers "F.Cu" "F.Paste" "F.Mask") (roundrect_rratio 0.25) (tstamp 79c148ea-0a8c-4a40-8fcc-6784e81809b3))
  (pad "6" smd roundrect (at -1.5 0.8) (size 0.75 0.2) (layers "F.Cu" "F.Paste" "F.Mask") (roundrect_rratio 0.25) (tstamp 450adf50-b746-48e8-918b-43d8cc37dcc0))
  (pad "7" smd roundrect (at -1.5 1.2) (size 0.75 0.2) (layers "F.Cu" "F.Paste" "F.Mask") (roundrect_rratio 0.25) (tstamp ac06daf8-0bf8-4e65-b05a-6a92b073a6d3))
  (pad "8" smd roundrect (at 1.5 1.2) (size 0.75 0.2) (layers "F.Cu" "F.Paste" "F.Mask") (roundrect_rratio 0.25) (tstamp 583c7fa1-bd36-4d5b-96bf-22e914952933))
  (pad "9" smd roundrect (at 1.5 0.8) (size 0.75 0.2) (layers "F.Cu" "F.Paste" "F.Mask") (roundrect_rratio 0.25) (tstamp e2fa9711-3d7d-4e5d-8fbf-91fef7771b86))
  (pad "10" smd roundrect (at 1.5 0.4) (size 0.75 0.2) (layers "F.Cu" "F.Paste" "F.Mask") (roundrect_rratio 0.25) (tstamp 92c15665-1e6a-4988-9e34-0d95cec1090d))
  (pad "11" smd roundrect (at 1.5 0) (size 0.75 0.2) (layers "F.Cu" "F.Paste" "F.Mask") (roundrect_rratio 0.25) (tstamp e2095985-1603-42cf-96ad-06fa1c19e4da))
  (pad "12" smd roundrect (at 1.5 -0.4) (size 0.75 0.2) (layers "F.Cu" "F.Paste" "F.Mask") (roundrect_rratio 0.25) (tstamp 5ab3f23c-3564-4ba0-9468-c6758d5477ae))
  (pad "13" smd roundrect (at 1.5 -0.8) (size 0.75 0.2) (layers "F.Cu" "F.Paste" "F.Mask") (roundrect_rratio 0.25) (tstamp 8d8422c9-363a-4aa0-8abd-18bd43c231ae))
  (pad "14" smd roundrect (at 1.5 -1.2) (size 0.75 0.2) (layers "F.Cu" "F.Paste" "F.Mask") (roundrect_rratio 0.25) (tstamp 6fa6f021-7d9e-4df7-bb55-385a7929636f))
  (pad "15" smd roundrect (at 0 0) (size 1.7 2.3) (layers "F.Cu" "F.Paste" "F.Mask") (roundrect_rratio 0.147) (tstamp 3dc0aa93-062a-47a6-8cf1-824927df40de))
  (model "${LSF_KICAD_LIB}/lsf-kicad-lib.3dshapes/TDFN-14-1EP_3x3mm_P0.4mm_EP1.7x2.3mm.wrl"
    (offset (xyz 0 0 0))
    (scale (xyz 1 1 1))
    (rotate (xyz 0 0 0))
  )
)
