(footprint "Texas_VQFN-10-HR_2x2_Pitch0.5mm"
	(version 20240108)
	(generator "pcbnew")
	(generator_version "8.0")
	(layer "F.Cu")
	(descr "Texas VQFN-10, https://www.ti.com/lit/ds/symlink/tps62913.pdf")
	(tags "VQFN")
	(property "Reference" "REF**"
		(at 0 -2.6 0)
		(layer "F.SilkS")
		(uuid "7e4d311e-8566-48ba-8d55-33841c9896cb")
		(effects
			(font
				(size 1 1)
				(thickness 0.15)
			)
		)
	)
	(property "Value" "Texas_VQFN-10-HR_2x2_Pitch0.5mm"
		(at 0 2.6 0)
		(layer "F.Fab")
		(uuid "5762fbf1-3b3d-4848-9fb9-2d9c5189c8cb")
		(effects
			(font
				(size 1 1)
				(thickness 0.15)
			)
		)
	)
	(property "Footprint" ""
		(at 0 0 0)
		(layer "F.Fab")
		(hide yes)
		(uuid "72870643-c872-4da1-8ed6-653fd55e4605")
		(effects
			(font
				(size 1.27 1.27)
				(thickness 0.15)
			)
		)
	)
	(property "Datasheet" ""
		(at 0 0 0)
		(layer "F.Fab")
		(hide yes)
		(uuid "a4968ea5-4a28-4ac6-9493-83c5db225a24")
		(effects
			(font
				(size 1.27 1.27)
				(thickness 0.15)
			)
		)
	)
	(property "Description" ""
		(at 0 0 0)
		(layer "F.Fab")
		(hide yes)
		(uuid "b6b9e847-484a-4766-a147-a04179b6ee89")
		(effects
			(font
				(size 1.27 1.27)
				(thickness 0.15)
			)
		)
	)
	(attr smd)
	(fp_line
		(start -1.15 1.15)
		(end -1.15 0.93)
		(stroke
			(width 0.12)
			(type solid)
		)
		(layer "F.SilkS")
		(uuid "59a59b15-011a-49ae-86ff-052f3c5c776d")
	)
	(fp_line
		(start -0.96 -1.15)
		(end -1.375 -1.15)
		(stroke
			(width 0.12)
			(type solid)
		)
		(layer "F.SilkS")
		(uuid "3461597e-f344-46b7-b821-6f765fbd641f")
	)
	(fp_line
		(start -0.8 1.15)
		(end -1.15 1.15)
		(stroke
			(width 0.12)
			(type solid)
		)
		(layer "F.SilkS")
		(uuid "924863e9-b667-45d3-8b4d-4b91bf7f0b4e")
	)
	(fp_line
		(start 0.8 1.15)
		(end 1.15 1.15)
		(stroke
			(width 0.12)
			(type solid)
		)
		(layer "F.SilkS")
		(uuid "fa196e3c-9080-4b16-98be-160cc95b16f0")
	)
	(fp_line
		(start 0.95 -1.15)
		(end 1.15 -1.15)
		(stroke
			(width 0.12)
			(type solid)
		)
		(layer "F.SilkS")
		(uuid "4de6a35a-c034-4bfe-8eaf-ffb8f8ba6404")
	)
	(fp_line
		(start 1.15 -1.15)
		(end 1.15 -0.8)
		(stroke
			(width 0.12)
			(type solid)
		)
		(layer "F.SilkS")
		(uuid "c39f303f-f5db-40c1-8c5e-e2f5a745dddf")
	)
	(fp_line
		(start 1.15 1.15)
		(end 1.15 0.93)
		(stroke
			(width 0.12)
			(type solid)
		)
		(layer "F.SilkS")
		(uuid "01fa8187-3eb9-410b-a4d9-7d78acdab620")
	)
	(fp_line
		(start -1.6 -1.6)
		(end 1.6 -1.6)
		(stroke
			(width 0.05)
			(type solid)
		)
		(layer "F.CrtYd")
		(uuid "17812d8f-02af-43e0-a714-cd0c75a4b609")
	)
	(fp_line
		(start -1.6 1.6)
		(end -1.6 -1.6)
		(stroke
			(width 0.05)
			(type solid)
		)
		(layer "F.CrtYd")
		(uuid "5c8842ff-17b2-4f95-95eb-7a5ea651d2cd")
	)
	(fp_line
		(start 1.6 -1.6)
		(end 1.6 1.6)
		(stroke
			(width 0.05)
			(type solid)
		)
		(layer "F.CrtYd")
		(uuid "aac9a0a8-ac2c-41d0-bd46-29c918b7b2c8")
	)
	(fp_line
		(start 1.6 1.6)
		(end -1.6 1.6)
		(stroke
			(width 0.05)
			(type solid)
		)
		(layer "F.CrtYd")
		(uuid "13d94101-fea5-4e8f-91db-eb41d37b7c7b")
	)
	(fp_line
		(start -1 0)
		(end -1 1)
		(stroke
			(width 0.1)
			(type solid)
		)
		(layer "F.Fab")
		(uuid "58354ef7-1fb0-4400-bab1-9d524e44e37a")
	)
	(fp_line
		(start -1 1)
		(end 1 1)
		(stroke
			(width 0.1)
			(type solid)
		)
		(layer "F.Fab")
		(uuid "79466a7c-4f54-4674-8d2e-82037ca01640")
	)
	(fp_line
		(start 0 -1)
		(end -1 0)
		(stroke
			(width 0.1)
			(type solid)
		)
		(layer "F.Fab")
		(uuid "6970d4af-1e45-4062-8774-2d165ad9f2ce")
	)
	(fp_line
		(start 1 -1)
		(end 0 -1)
		(stroke
			(width 0.1)
			(type solid)
		)
		(layer "F.Fab")
		(uuid "25d79262-6abf-47db-956b-b1a0b9ac37ff")
	)
	(fp_line
		(start 1 1)
		(end 1 -1)
		(stroke
			(width 0.1)
			(type solid)
		)
		(layer "F.Fab")
		(uuid "5f6d4c94-127c-4f12-ad9e-e468cf7ea863")
	)
	(fp_text user "${REFERENCE}"
		(at 0 0 0)
		(layer "F.Fab")
		(uuid "31c2d059-0c3b-40a8-9ee8-3985cde7c094")
		(effects
			(font
				(size 0.5 0.5)
				(thickness 0.075)
			)
		)
	)
	(pad "1" smd roundrect
		(at -0.875 -0.25 90)
		(size 0.2 0.65)
		(layers "F.Cu" "F.Paste" "F.Mask")
		(roundrect_rratio 0.25)
		(uuid "538299a6-6981-4a27-9798-53a9e121c893")
	)
	(pad "2" smd roundrect
		(at -0.7 0.25 90)
		(size 0.2 1)
		(layers "F.Cu" "F.Paste" "F.Mask")
		(roundrect_rratio 0.25)
		(uuid "60f14820-21e3-4241-967a-cff1ecd6b872")
	)
	(pad "3" smd roundrect
		(at -0.875 0.75 90)
		(size 0.2 0.65)
		(layers "F.Cu" "F.Paste" "F.Mask")
		(roundrect_rratio 0.25)
		(uuid "c3ec1047-4d62-4630-8305-efeb805ca216")
	)
	(pad "4" smd roundrect
		(at 0.7 0.75 90)
		(size 0.2 1)
		(layers "F.Cu" "F.Paste" "F.Mask")
		(roundrect_rratio 0.25)
		(uuid "ec5aca93-00c2-4ef2-bda6-1fe1093ef84d")
	)
	(pad "5" smd roundrect
		(at 0.875 0.25 90)
		(size 0.2 0.65)
		(layers "F.Cu" "F.Paste" "F.Mask")
		(roundrect_rratio 0.25)
		(uuid "901411eb-40d5-448b-8f8d-539085a34e40")
	)
	(pad "6" smd roundrect
		(at 0.7 -0.25 90)
		(size 0.2 1)
		(layers "F.Cu" "F.Paste" "F.Mask")
		(roundrect_rratio 0.25)
		(uuid "3bb39713-2ae7-4ac2-84da-2b519b1644ed")
	)
	(pad "7" smd roundrect
		(at 0.75 -0.925 180)
		(size 0.25 0.55)
		(layers "F.Cu" "F.Paste" "F.Mask")
		(roundrect_rratio 0.25)
		(uuid "8875699f-de15-4c59-b8a5-cc54edc64176")
	)
	(pad "8" smd roundrect
		(at 0.25 -0.925 180)
		(size 0.25 0.55)
		(layers "F.Cu" "F.Paste" "F.Mask")
		(roundrect_rratio 0.25)
		(uuid "c350c31d-6d4c-41a3-a7ae-343625b06c20")
	)
	(pad "9" smd roundrect
		(at -0.25 -0.925 180)
		(size 0.25 0.55)
		(layers "F.Cu" "F.Paste" "F.Mask")
		(roundrect_rratio 0.25)
		(uuid "02a32618-18f9-42f9-81f8-f9779e95ab54")
	)
	(pad "10" smd roundrect
		(at -0.75 -0.925)
		(size 0.25 0.55)
		(layers "F.Cu" "F.Paste" "F.Mask")
		(roundrect_rratio 0.25)
		(uuid "8a0300cb-8ef9-4b6b-8edf-95955eb889f8")
	)
	(model "${LSF_KICAD_LIB}/lsf-kicad-lib.3dshapes/Texas_VQFN-10-HR_2x2_Pitch0.5mm.wrl"
		(offset
			(xyz 0 0 0)
		)
		(scale
			(xyz 1 1 1)
		)
		(rotate
			(xyz 0 0 0)
		)
	)
)
