(footprint "Texas-VSON-7-HR"
	(version 20240108)
	(generator "pcbnew")
	(generator_version "8.0")
	(layer "F.Cu")
	(descr "Texas-VSON-7-HR, http://www.ti.com/lit/ds/symlink/tps62085.pdf")
	(tags "VSON")
	(property "Reference" "REF**"
		(at -0.035 2 0)
		(layer "F.SilkS")
		(uuid "ae6778fb-525f-4380-8cef-5a934abcfe99")
		(effects
			(font
				(size 1 1)
				(thickness 0.15)
			)
		)
	)
	(property "Value" "Texas-VSON-7-HR"
		(at -0.035 -2 0)
		(layer "F.Fab")
		(uuid "ee18daa9-b76b-4985-803a-2562d4192f3b")
		(effects
			(font
				(size 1 1)
				(thickness 0.15)
			)
		)
	)
	(property "Footprint" ""
		(at 0 0 0)
		(layer "F.Fab")
		(hide yes)
		(uuid "63210341-ea59-477b-b069-454ee7301a8c")
		(effects
			(font
				(size 1.27 1.27)
				(thickness 0.15)
			)
		)
	)
	(property "Datasheet" ""
		(at 0 0 0)
		(layer "F.Fab")
		(hide yes)
		(uuid "48a90447-edd7-4d5f-bb19-c546fe732e1b")
		(effects
			(font
				(size 1.27 1.27)
				(thickness 0.15)
			)
		)
	)
	(property "Description" ""
		(at 0 0 0)
		(layer "F.Fab")
		(hide yes)
		(uuid "43fa1609-06ff-48f3-84b7-74da784c21bb")
		(effects
			(font
				(size 1.27 1.27)
				(thickness 0.15)
			)
		)
	)
	(attr smd)
	(fp_line
		(start -1.35 -0.8)
		(end -1.35 1.1)
		(stroke
			(width 0.12)
			(type solid)
		)
		(layer "F.SilkS")
		(uuid "9e1063f0-69ed-41df-9a73-aa6b8a7befb5")
	)
	(fp_line
		(start -1.35 1.1)
		(end 1.3 1.1)
		(stroke
			(width 0.12)
			(type solid)
		)
		(layer "F.SilkS")
		(uuid "7684afe5-3609-477b-8d4f-7e598ea0b73c")
	)
	(fp_line
		(start 1.3 -1.1)
		(end -1.05 -1.1)
		(stroke
			(width 0.12)
			(type solid)
		)
		(layer "F.SilkS")
		(uuid "ca8dd999-f5de-4b8a-8817-5a5159999d5f")
	)
	(fp_line
		(start 1.3 1.1)
		(end 1.3 -1.1)
		(stroke
			(width 0.12)
			(type solid)
		)
		(layer "F.SilkS")
		(uuid "e159c5f6-2cff-4f1f-b21e-2e124900de6b")
	)
	(fp_line
		(start -1.48 -1.25)
		(end -1.48 1.25)
		(stroke
			(width 0.05)
			(type solid)
		)
		(layer "F.CrtYd")
		(uuid "d898faa7-4978-4720-bf18-e329a580e10c")
	)
	(fp_line
		(start -1.48 -1.25)
		(end 1.48 -1.25)
		(stroke
			(width 0.05)
			(type solid)
		)
		(layer "F.CrtYd")
		(uuid "9054fad8-e204-4e31-86ee-7e2cdad30daa")
	)
	(fp_line
		(start 1.48 1.25)
		(end -1.48 1.25)
		(stroke
			(width 0.05)
			(type solid)
		)
		(layer "F.CrtYd")
		(uuid "c98ee8ee-9eb2-489d-bfec-2b75a63b5544")
	)
	(fp_line
		(start 1.48 1.25)
		(end 1.48 -1.25)
		(stroke
			(width 0.05)
			(type solid)
		)
		(layer "F.CrtYd")
		(uuid "41fd51a3-3322-4a1e-8d81-8a68b8b76595")
	)
	(fp_line
		(start -1.35 -1.1)
		(end 1.3 -1.1)
		(stroke
			(width 0.1)
			(type solid)
		)
		(layer "F.Fab")
		(uuid "a7e79a7d-4066-4e83-99f6-2c2d3cd88656")
	)
	(fp_line
		(start -1.35 1.1)
		(end -1.35 -1.1)
		(stroke
			(width 0.1)
			(type solid)
		)
		(layer "F.Fab")
		(uuid "109d4b00-fcc4-4224-aa5c-815d355690f3")
	)
	(fp_line
		(start 1.3 -1.1)
		(end 1.3 1.1)
		(stroke
			(width 0.1)
			(type solid)
		)
		(layer "F.Fab")
		(uuid "f9169e4f-7389-4d8a-877b-06f5ea37a3df")
	)
	(fp_line
		(start 1.3 1.1)
		(end -1.35 1.1)
		(stroke
			(width 0.1)
			(type solid)
		)
		(layer "F.Fab")
		(uuid "8a2d5bb9-8888-4f04-ad64-7f615b30cc9a")
	)
	(fp_text user "${REFERENCE}"
		(at -0.035 0 0)
		(layer "F.Fab")
		(uuid "61a6382a-e40a-48ac-b5de-131aef706692")
		(effects
			(font
				(size 0.5 0.5)
				(thickness 0.075)
			)
		)
	)
	(pad "" smd rect
		(at 0.025 -0.6)
		(size 0.65 0.3)
		(layers "F.Paste")
		(uuid "b35a3649-dbf6-4cfb-9adb-bc7e1702f919")
	)
	(pad "" smd rect
		(at 0.025 0)
		(size 0.65 0.3)
		(layers "F.Paste")
		(uuid "76129aff-9863-4b9d-8e51-14a07df5d74b")
	)
	(pad "" smd rect
		(at 0.025 0.6)
		(size 0.65 0.3)
		(layers "F.Paste")
		(uuid "4c78b6c9-04c0-4247-91cb-6dfc7878bc5f")
	)
	(pad "" smd rect
		(at 0.875 -0.6)
		(size 0.65 0.3)
		(layers "F.Paste")
		(uuid "f109964d-d164-4929-9c70-5f514b339e6d")
	)
	(pad "" smd rect
		(at 0.875 0)
		(size 0.65 0.3)
		(layers "F.Paste")
		(uuid "1ef90fd4-954b-4bac-8ffa-df9128d1c790")
	)
	(pad "" smd rect
		(at 0.875 0.6)
		(size 0.65 0.3)
		(layers "F.Paste")
		(uuid "4bf93005-e411-4b06-a297-73acf197327f")
	)
	(pad "1" smd rect
		(at -0.935 -0.75)
		(size 0.6 0.25)
		(layers "F.Cu" "F.Paste" "F.Mask")
		(uuid "5ff7cba2-850a-455a-926f-f8f9b7c972ca")
	)
	(pad "2" smd oval
		(at -0.935 -0.25)
		(size 0.6 0.25)
		(layers "F.Cu" "F.Paste" "F.Mask")
		(uuid "0575f4d2-78d1-4164-a8bf-7476be63f204")
	)
	(pad "3" smd oval
		(at -0.935 0.25)
		(size 0.6 0.25)
		(layers "F.Cu" "F.Paste" "F.Mask")
		(uuid "82c119ae-ee18-4a34-a679-9c9b5ce3a491")
	)
	(pad "4" smd oval
		(at -0.935 0.75)
		(size 0.6 0.25)
		(layers "F.Cu" "F.Paste" "F.Mask")
		(uuid "78592f47-d6f5-4765-824d-af895a814b01")
	)
	(pad "5" smd rect
		(at 0.415 0.6)
		(size 1.64 0.44)
		(layers "F.Cu" "F.Mask")
		(solder_mask_margin -0.07)
		(uuid "0c7fff46-94ec-4a77-bed0-d75780e7813c")
	)
	(pad "6" smd rect
		(at 0.415 0)
		(size 1.64 0.44)
		(layers "F.Cu" "F.Mask")
		(solder_mask_margin -0.07)
		(uuid "19c9a294-760c-40fe-a895-19d0314ddeab")
	)
	(pad "7" smd rect
		(at 0.415 -0.6)
		(size 1.64 0.44)
		(layers "F.Cu" "F.Mask")
		(solder_mask_margin -0.07)
		(uuid "b931b042-88f4-4e1c-a928-af4cd0fc4cd2")
	)
	(model "${LSF_KICAD_LIB}/lsf-kicad-lib.3dshapes/Texas-VSON-7-HR.wrl"
		(offset
			(xyz 0 0 0)
		)
		(scale
			(xyz 1 1 1)
		)
		(rotate
			(xyz 0 0 0)
		)
	)
)
