(footprint "Texas_RGX0011A"
	(version 20240108)
	(generator "pcbnew")
	(generator_version "8.0")
	(layer "F.Cu")
	(descr "Texas VQFN RGX0011A, https://www.ti.com/lit/ml/mpqf454/mpqf454.pdf")
	(tags "VQFN")
	(property "Reference" "REF**"
		(at -2.475 0 90)
		(layer "F.SilkS")
		(uuid "1b4b159b-b324-489b-a7c0-c23320c1b6b7")
		(effects
			(font
				(size 1 1)
				(thickness 0.15)
			)
		)
	)
	(property "Value" "Texas_RGX0011A"
		(at 0 0 0)
		(layer "F.Fab")
		(uuid "2ff751f4-3143-402f-b67a-432eeb7ba37f")
		(effects
			(font
				(size 1 1)
				(thickness 0.15)
			)
		)
	)
	(property "Footprint" ""
		(at 0 0 0)
		(unlocked yes)
		(layer "F.Fab")
		(hide yes)
		(uuid "dcd7d99a-236a-4e37-abb3-773f6eb9fe3c")
		(effects
			(font
				(size 1.27 1.27)
				(thickness 0.15)
			)
		)
	)
	(property "Datasheet" ""
		(at 0 0 0)
		(unlocked yes)
		(layer "F.Fab")
		(hide yes)
		(uuid "7cdcebe4-b13d-4bf6-ad35-3773089f0721")
		(effects
			(font
				(size 1.27 1.27)
				(thickness 0.15)
			)
		)
	)
	(property "Description" ""
		(at 0 0 0)
		(unlocked yes)
		(layer "F.Fab")
		(hide yes)
		(uuid "14f59096-d36e-4509-bc8d-4389f01dea96")
		(effects
			(font
				(size 1.27 1.27)
				(thickness 0.15)
			)
		)
	)
	(attr smd)
	(fp_rect
		(start -1.3 -1.8)
		(end 1.3 1.8)
		(stroke
			(width 0.12)
			(type solid)
		)
		(fill none)
		(layer "F.SilkS")
		(uuid "20b466aa-0f4a-405a-bad3-1c7d162dab83")
	)
	(fp_circle
		(center -1.5 2)
		(end -1.5 2)
		(stroke
			(width 0.12)
			(type solid)
		)
		(fill none)
		(layer "F.SilkS")
		(uuid "d129b27f-be19-4bec-b962-e62d2f6062d5")
	)
	(fp_rect
		(start -1.3 -1.8)
		(end 1.3 1.8)
		(stroke
			(width 0.05)
			(type solid)
		)
		(fill none)
		(layer "F.CrtYd")
		(uuid "df2a3f50-6f93-46c6-98d4-a3b14c8f843a")
	)
	(fp_rect
		(start -1 -1.5)
		(end 1 1.5)
		(stroke
			(width 0.1)
			(type solid)
		)
		(fill none)
		(layer "F.Fab")
		(uuid "c39a1357-cf8b-4a48-9c47-791e194f4ee6")
	)
	(fp_text user "${REFERENCE}"
		(at -2.5 0 90)
		(unlocked yes)
		(layer "F.Fab")
		(uuid "2697210d-9785-447e-921a-ea41effd7a7e")
		(effects
			(font
				(size 1 1)
				(thickness 0.15)
			)
		)
	)
	(pad "" smd roundrect
		(at -0.86 -0.5)
		(size 0.66 0.25)
		(layers "F.Paste")
		(roundrect_rratio 0.25)
		(uuid "ea6e1eea-7ada-400d-ab37-d09ae2adaa92")
	)
	(pad "" smd roundrect
		(at -0.86 0)
		(size 0.66 0.25)
		(layers "F.Paste")
		(roundrect_rratio 0.25)
		(uuid "47bb27db-9cb0-47ee-9bc7-987908fcc1cc")
	)
	(pad "" smd roundrect
		(at -0.86 0.5)
		(size 0.66 0.25)
		(layers "F.Paste")
		(roundrect_rratio 0.25)
		(uuid "27df436e-9b2d-49aa-8d81-27545b6a3aa4")
	)
	(pad "" smd roundrect
		(at 0 -0.5)
		(size 0.66 0.25)
		(layers "F.Paste")
		(roundrect_rratio 0.25)
		(uuid "173e975a-053e-410d-b362-3904efb50afe")
	)
	(pad "" smd roundrect
		(at 0 0)
		(size 0.66 0.25)
		(layers "F.Paste")
		(roundrect_rratio 0.25)
		(uuid "f34d8360-9dea-4bf6-8804-c890d450b719")
	)
	(pad "" smd roundrect
		(at 0 0.5)
		(size 0.66 0.25)
		(layers "F.Paste")
		(roundrect_rratio 0.25)
		(uuid "00a97a41-2aea-4ea5-b50e-8ecdd4ade130")
	)
	(pad "" smd roundrect
		(at 0.86 -0.5)
		(size 0.66 0.25)
		(layers "F.Paste")
		(roundrect_rratio 0.25)
		(uuid "ddeaa36b-62ed-4590-a59f-e3ff97667b55")
	)
	(pad "" smd roundrect
		(at 0.86 0)
		(size 0.66 0.25)
		(layers "F.Paste")
		(roundrect_rratio 0.25)
		(uuid "8c6ba8ae-4620-4e9b-bdfa-2ee87eb93a89")
	)
	(pad "" smd roundrect
		(at 0.86 0.5)
		(size 0.66 0.25)
		(layers "F.Paste")
		(roundrect_rratio 0.25)
		(uuid "33f4dd01-8c8c-4ce6-a478-a34e832e9b64")
	)
	(pad "1" smd roundrect
		(at 0 -0.5)
		(size 2.4 0.25)
		(layers "F.Cu" "F.Mask")
		(roundrect_rratio 0.25)
		(uuid "160a8fa1-d1d5-48e7-a96c-73d4983bf47c")
	)
	(pad "2" smd roundrect
		(at 0 0)
		(size 2.4 0.25)
		(layers "F.Cu" "F.Mask")
		(roundrect_rratio 0.25)
		(uuid "0771a052-1b8d-45ed-8e44-0268d2d9937b")
	)
	(pad "3" smd roundrect
		(at 0 0.5)
		(size 2.4 0.25)
		(layers "F.Cu" "F.Mask")
		(roundrect_rratio 0.25)
		(uuid "94de04fe-da65-49b2-ac2e-bcb6cfa978d5")
	)
	(pad "4" smd roundrect
		(at -0.75 1.4)
		(size 0.25 0.6)
		(layers "F.Cu" "F.Paste" "F.Mask")
		(roundrect_rratio 0.25)
		(uuid "b86504e6-89c5-4b70-b1e0-2affce0426ff")
	)
	(pad "5" smd roundrect
		(at -0.25 1.4)
		(size 0.25 0.6)
		(layers "F.Cu" "F.Paste" "F.Mask")
		(roundrect_rratio 0.25)
		(uuid "a08f6b1d-2939-4545-b860-1cf4e0fa621d")
	)
	(pad "6" smd roundrect
		(at 0.25 1.4)
		(size 0.25 0.6)
		(layers "F.Cu" "F.Paste" "F.Mask")
		(roundrect_rratio 0.25)
		(uuid "13b557f5-d71c-40a7-9e11-3f2f14197e88")
	)
	(pad "7" smd roundrect
		(at 0.75 1.4)
		(size 0.25 0.6)
		(layers "F.Cu" "F.Paste" "F.Mask")
		(roundrect_rratio 0.25)
		(uuid "6b55b730-edbc-4112-8ffd-941b42a198cc")
	)
	(pad "8" smd roundrect
		(at 0.75 -1.4)
		(size 0.25 0.6)
		(layers "F.Cu" "F.Paste" "F.Mask")
		(roundrect_rratio 0.25)
		(uuid "a3acaa0e-332c-4e43-85d7-b4c612d44b66")
	)
	(pad "9" smd roundrect
		(at 0.25 -1.4)
		(size 0.25 0.6)
		(layers "F.Cu" "F.Paste" "F.Mask")
		(roundrect_rratio 0.25)
		(uuid "d65e37e4-2aa5-48f5-8f11-d6e2d5e1787f")
	)
	(pad "10" smd roundrect
		(at -0.25 -1.4)
		(size 0.25 0.6)
		(layers "F.Cu" "F.Paste" "F.Mask")
		(roundrect_rratio 0.25)
		(uuid "fd9f4ab0-b4a4-4548-9fc1-0eac16d281f2")
	)
	(pad "11" smd roundrect
		(at -0.75 -1.4)
		(size 0.25 0.6)
		(layers "F.Cu" "F.Paste" "F.Mask")
		(roundrect_rratio 0.25)
		(uuid "89c8ae7e-33d2-4264-a126-05b9f6e119c9")
	)
	(model "${LSF_KICAD_LIB}/lsf-kicad-lib.3dshapes/Texas_RGX0011A.wrl"
		(offset
			(xyz 0 0 0)
		)
		(scale
			(xyz 1 1 1)
		)
		(rotate
			(xyz 0 0 0)
		)
	)
)
