#VRML V2.0 utf8
#modeled using blender3d http://blender.org

# 'Shape_IndexedFaceSet'
Shape {
	appearance Appearance {
		material Material {
		}
	}
	geometry IndexedFaceSet {
		coord Coordinate {
			point [ -2.374800 3.825005 0.005963 -2.374800 -0.111995 0.005962 -2.374800 3.825005 0.635883 -2.374800 2.604535 0.635883 -2.374800 2.589139 0.636637 -2.374800 2.573818 0.638907 -2.374800 2.567767 0.640235 -2.374800 2.558799 0.642670 -2.374800 2.544293 0.647860 -2.374800 2.533047 0.653044 -2.374800 2.530346 0.654452 -2.374800 2.517052 0.662417 -2.374800 2.504610 0.671646 -2.374800 2.502253 0.673620 -2.374800 2.493191 0.681995 -2.374800 2.482831 0.693421 -2.374800 2.477133 0.700795 -2.374800 2.473598 0.705867 -2.374800 2.465634 0.719156 -2.374800 2.459045 0.733090 -2.374800 2.459042 0.733098 -2.374800 2.453848 0.747607 -2.374800 2.450081 0.762638 -2.374800 2.447809 0.777964 -2.374800 2.447055 0.793363 -2.374800 2.447809 0.808759 -2.374800 2.450079 0.824079 -2.374800 2.450081 0.824085 -2.374800 2.453842 0.839098 -2.374800 2.459032 0.853604 -2.374800 2.459042 0.853627 -2.374800 2.465624 0.867551 -2.374800 2.473589 0.880845 -2.374800 2.477134 0.885931 -2.374800 2.482818 0.893287 -2.374800 2.493167 0.904706 -2.374800 2.502254 0.913106 -2.374800 2.504593 0.915066 -2.374800 2.517038 0.924299 -2.374800 2.530327 0.932263 -2.374800 2.533048 0.933682 -2.374800 2.544261 0.938852 -2.374800 2.558779 0.944049 -2.374800 2.567768 0.946490 -2.374800 2.573810 0.947816 -2.374800 2.589136 0.950088 -2.374800 3.825005 0.950843 -2.374800 2.604535 0.950842 -2.374800 1.620284 1.738243 -2.374800 -0.111996 1.738242 -2.374800 3.825005 1.974463 -2.374800 1.620284 1.974463 -2.099211 3.825005 0.163442 -2.099211 1.856505 0.163442 -2.099211 3.825005 0.635883 -2.099211 2.604535 0.635883 -2.099211 2.589136 0.636637 -2.099211 2.573810 0.638909 -2.099211 2.558779 0.642676 -2.099211 2.544270 0.647870 -2.099211 2.544261 0.647873 -2.099211 2.530327 0.654463 -2.099211 2.517038 0.662426 -2.099211 2.511967 0.665961 -2.099211 2.504593 0.671660 -2.099211 2.493167 0.682019 -2.099211 2.484792 0.691081 -2.099211 2.482818 0.693438 -2.099211 2.473589 0.705880 -2.099211 2.465624 0.719174 -2.099211 2.464216 0.721875 -2.099211 2.459032 0.733121 -2.099211 2.453842 0.747627 -2.099211 2.451407 0.756595 -2.099211 2.450079 0.762646 -2.099211 2.447809 0.777966 -2.099211 2.447055 0.793363 -2.099211 2.447809 0.808761 -2.099211 2.450081 0.824087 -2.099211 2.453848 0.839118 -2.099211 2.459042 0.853628 -2.099211 2.459045 0.853635 -2.099211 2.465634 0.867570 -2.099211 2.473598 0.880859 -2.099211 2.477133 0.885930 -2.099211 2.482831 0.893304 -2.099211 2.493191 0.904730 -2.099211 2.502253 0.913106 -2.099211 2.504610 0.915080 -2.099211 2.517052 0.924309 -2.099211 2.530346 0.932273 -2.099211 2.533047 0.933682 -2.099211 2.544293 0.938865 -2.099211 2.558799 0.944055 -2.099211 2.567767 0.946490 -2.099211 2.573818 0.947818 -2.099211 2.589139 0.950089 -2.099211 3.825005 0.950842 -2.099211 2.604535 0.950842 -2.099211 3.057290 1.816983 -2.099211 1.856504 1.816983 -2.099211 3.825005 1.974463 -2.099211 3.057290 1.974463 -1.981100 0.675405 0.005962 -1.981100 -0.111995 0.005962 -1.981100 1.285640 0.466592 -1.981100 0.675404 0.466592 -1.981100 1.285640 1.738242 -1.981100 -0.111996 1.738242 -1.941730 3.825005 0.005963 -1.941730 3.057290 0.005963 -1.941730 3.825005 0.163442 -1.941730 3.057290 0.163442 -1.685825 0.891940 -1.017658 -1.685825 0.695090 -1.017658 -1.685825 0.104540 -1.017658 -1.685825 -0.092310 -1.017658 -1.685825 0.911624 0.005962 -1.685825 0.891940 0.005962 -1.685825 0.695090 0.005962 -1.685825 0.675405 0.005962 -1.685825 0.891940 0.340608 -1.685825 0.695090 0.340608 -1.685825 0.894168 0.367010 -1.685825 0.697687 0.383437 -1.685825 0.900793 0.392665 -1.685825 0.911624 0.416847 -1.685825 0.705443 0.425638 -1.685825 0.954931 0.466592 -1.685825 0.718243 0.466592 -1.685825 0.675404 0.466592 -1.685825 0.983914 0.483817 -1.685825 1.015898 0.494479 -1.685825 2.880125 0.498088 -1.685825 1.856505 0.498087 -1.685825 1.285640 0.498087 -1.685825 1.049419 0.498087 -1.685825 0.770664 0.559343 -1.685825 0.848285 0.632318 -1.685825 0.944091 0.678920 -1.685825 2.880125 0.694938 -1.685825 1.856505 0.694937 -1.685825 1.285640 0.694937 -1.685825 1.049419 0.694937 -1.685825 0.104540 1.128008 -1.685825 -0.092310 1.128008 -1.685825 0.109906 1.168766 -1.685825 0.125638 1.206747 -1.685825 -0.080237 1.219715 -1.685825 0.150664 1.239363 -1.685825 0.183279 1.264390 -1.685825 0.221261 1.280121 -1.685825 2.880125 1.285488 -1.685825 1.856505 1.285488 -1.685825 1.285640 1.285488 -1.685825 0.262019 1.285488 -1.685825 -0.044839 1.305172 -1.685825 0.011470 1.378557 -1.685825 0.084854 1.434866 -1.685825 0.170312 1.470264 -1.685825 2.880125 1.482338 -1.685825 1.856504 1.482338 -1.685825 1.285640 1.482338 -1.685825 0.262019 1.482338 -1.646455 0.852569 -1.175137 -1.646455 0.734460 -1.175137 -1.646455 0.065170 -1.175138 -1.646455 -0.052941 -1.175138 -1.646455 3.037605 0.537458 -1.646455 3.037605 0.655567 -1.646455 3.037605 1.324858 -1.646455 3.037605 1.442968 -1.528346 0.852569 -1.175137 -1.528346 0.734460 -1.175137 -1.528346 0.065170 -1.175138 -1.528346 -0.052941 -1.175138 -1.528345 3.037605 0.537458 -1.528345 3.037605 0.655567 -1.528345 3.037605 1.324858 -1.528345 3.037605 1.442968 -1.488975 0.891940 -1.017658 -1.488975 0.695090 -1.017658 -1.488975 0.104540 -1.017658 -1.488975 -0.092310 -1.017658 -1.488975 0.911624 0.005962 -1.488975 0.891940 0.005962 -1.488975 0.695090 0.005962 -1.488975 0.675405 0.005962 -1.488975 0.891940 0.340608 -1.488975 0.695090 0.340608 -1.488975 0.894168 0.367010 -1.488975 0.697687 0.383437 -1.488975 0.900793 0.392665 -1.488975 0.911624 0.416847 -1.488975 0.705443 0.425638 -1.488975 0.954931 0.466591 -1.488975 0.718243 0.466591 -1.488975 0.675404 0.466591 -1.488975 0.983914 0.483817 -1.488975 1.015898 0.494478 -1.488975 2.880125 0.498088 -1.488975 1.856505 0.498087 -1.488975 1.285640 0.498087 -1.488975 1.049419 0.498087 -1.488975 0.770664 0.559342 -1.488975 0.848285 0.632318 -1.488975 0.944091 0.678920 -1.488975 2.880125 0.694938 -1.488975 1.856505 0.694937 -1.488975 1.285640 0.694937 -1.488975 1.049419 0.694937 -1.488975 0.104540 1.128008 -1.488975 -0.092310 1.128008 -1.488975 0.109906 1.168766 -1.488975 0.125638 1.206747 -1.488975 -0.080237 1.219715 -1.488975 0.150664 1.239363 -1.488975 0.183279 1.264390 -1.488975 0.221261 1.280121 -1.488975 2.880125 1.285488 -1.488975 1.856505 1.285488 -1.488975 1.285640 1.285488 -1.488975 0.262019 1.285487 -1.488975 -0.044839 1.305172 -1.488975 0.011470 1.378557 -1.488975 0.084854 1.434866 -1.488975 0.170312 1.470264 -1.488975 2.880125 1.482338 -1.488975 1.856504 1.482338 -1.488975 1.285640 1.482338 -1.488975 0.262019 1.482337 -1.390550 1.285640 0.466592 -1.390550 0.675404 0.466591 -1.390550 1.285640 0.793362 -1.390550 0.675404 0.793362 -1.390550 1.285640 1.187063 -1.390550 1.226585 1.187063 -1.390550 1.285640 1.738242 -1.390550 1.226585 1.738242 -0.996850 1.285640 0.466591 -0.996850 0.675404 0.466591 -0.996850 1.285640 0.793362 -0.996850 0.675404 0.793362 -0.996850 1.285640 1.187063 -0.996850 1.226585 1.187063 -0.996850 1.285640 1.738242 -0.996850 1.226585 1.738242 -0.898425 0.891940 -1.017658 -0.898425 0.695090 -1.017658 -0.898425 0.104540 -1.017658 -0.898425 -0.092310 -1.017658 -0.898425 0.911624 0.005962 -0.898425 0.891940 0.005962 -0.898425 0.695090 0.005962 -0.898425 0.675405 0.005962 -0.898425 0.891940 0.340608 -0.898425 0.695090 0.340608 -0.898425 0.894168 0.367010 -0.898425 0.697687 0.383436 -0.898425 0.900793 0.392665 -0.898425 0.911624 0.416847 -0.898425 0.705443 0.425638 -0.898425 0.954931 0.466591 -0.898425 0.718243 0.466591 -0.898425 0.675404 0.466591 -0.898425 0.983914 0.483817 -0.898425 1.015898 0.494478 -0.898425 2.880125 0.498087 -0.898425 1.856505 0.498087 -0.898425 1.285640 0.498087 -0.898425 1.049419 0.498087 -0.898425 0.770664 0.559342 -0.898425 0.848285 0.632318 -0.898425 0.944091 0.678920 -0.898425 2.880125 0.694937 -0.898425 1.856505 0.694937 -0.898425 1.285640 0.694937 -0.898425 1.049419 0.694937 -0.898425 0.104540 1.128008 -0.898425 -0.092310 1.128008 -0.898425 0.109906 1.168766 -0.898425 0.125638 1.206747 -0.898425 -0.080237 1.219715 -0.898425 0.150664 1.239363 -0.898425 0.183279 1.264390 -0.898425 0.221261 1.280121 -0.898425 2.880125 1.285488 -0.898425 1.856505 1.285488 -0.898425 1.285640 1.285487 -0.898425 0.262019 1.285487 -0.898425 -0.044839 1.305172 -0.898425 0.011470 1.378557 -0.898425 0.084854 1.434866 -0.898425 0.170312 1.470264 -0.898425 2.880125 1.482338 -0.898425 1.856504 1.482338 -0.898425 1.285640 1.482337 -0.898425 0.262019 1.482337 -0.859055 0.852569 -1.175138 -0.859055 0.734460 -1.175138 -0.859055 0.065170 -1.175138 -0.859055 -0.052941 -1.175138 -0.859055 3.037605 0.537458 -0.859055 3.037605 0.655567 -0.859055 3.037605 1.324858 -0.859055 3.037605 1.442967 -0.740946 0.852569 -1.175138 -0.740946 0.734460 -1.175138 -0.740946 0.065170 -1.175138 -0.740946 -0.052941 -1.175138 -0.740945 3.037605 0.537458 -0.740945 3.037605 0.655567 -0.740945 3.037605 1.324858 -0.740945 3.037605 1.442967 -0.701575 0.891940 -1.017658 -0.701575 0.695090 -1.017658 -0.701575 0.104540 -1.017658 -0.701575 -0.092310 -1.017658 -0.701575 0.911624 0.005962 -0.701575 0.891940 0.005962 -0.701575 0.695090 0.005962 -0.701575 0.675405 0.005962 -0.701575 0.891940 0.340608 -0.701575 0.695090 0.340608 -0.701575 0.894168 0.367010 -0.701575 0.697687 0.383436 -0.701575 0.900793 0.392665 -0.701575 0.911624 0.416847 -0.701575 0.705443 0.425638 -0.701575 0.954931 0.466591 -0.701575 0.718243 0.466591 -0.701575 0.675404 0.466591 -0.701575 0.983914 0.483817 -0.701575 1.015898 0.494478 -0.701575 2.880125 0.498087 -0.701575 1.856505 0.498087 -0.701575 1.285640 0.498087 -0.701575 1.049419 0.498087 -0.701575 0.770664 0.559342 -0.701575 0.848285 0.632318 -0.701575 0.944091 0.678920 -0.701575 2.880125 0.694937 -0.701575 1.856505 0.694937 -0.701575 1.285640 0.694937 -0.701575 1.049419 0.694937 -0.701575 0.104540 1.128008 -0.701575 -0.092310 1.128008 -0.701575 0.109906 1.168766 -0.701575 0.125638 1.206747 -0.701575 -0.080237 1.219715 -0.701575 0.150664 1.239363 -0.701575 0.183279 1.264390 -0.701575 0.221261 1.280121 -0.701575 2.880125 1.285488 -0.701575 1.856505 1.285487 -0.701575 1.285640 1.285487 -0.701575 0.262019 1.285487 -0.701575 -0.044839 1.305172 -0.701575 0.011470 1.378557 -0.701575 0.084854 1.434866 -0.701575 0.170312 1.470264 -0.701575 2.880125 1.482338 -0.701575 1.856504 1.482337 -0.701575 1.285640 1.482337 -0.701575 0.262019 1.482337 -0.603150 1.285640 0.466591 -0.603150 0.675404 0.466591 -0.603150 1.285640 0.793362 -0.603150 0.675404 0.793362 -0.603150 1.285640 1.187063 -0.603150 1.226585 1.187063 -0.603150 1.285640 1.738242 -0.603150 1.226585 1.738242 -0.209450 1.285640 0.466591 -0.209450 0.675404 0.466591 -0.209450 1.285640 0.793362 -0.209450 0.675404 0.793362 -0.209450 1.285640 1.187063 -0.209450 1.226585 1.187063 -0.209450 1.285640 1.738242 -0.209450 1.226585 1.738242 -0.111025 0.891940 -1.017658 -0.111025 0.695090 -1.017658 -0.111025 0.104540 -1.017658 -0.111025 -0.092310 -1.017658 -0.111025 0.911624 0.005962 -0.111025 0.891940 0.005962 -0.111025 0.695090 0.005962 -0.111025 0.675405 0.005962 -0.111025 0.891940 0.340607 -0.111025 0.695090 0.340607 -0.111025 0.894168 0.367010 -0.111025 0.697687 0.383436 -0.111025 0.900793 0.392665 -0.111025 0.911624 0.416847 -0.111025 0.705443 0.425638 -0.111025 0.954931 0.466591 -0.111025 0.718243 0.466591 -0.111025 0.675404 0.466591 -0.111025 0.983914 0.483817 -0.111025 1.015898 0.494478 -0.111025 2.880125 0.498087 -0.111025 1.856505 0.498087 -0.111025 1.285640 0.498087 -0.111025 1.049419 0.498087 -0.111025 0.770664 0.559342 -0.111025 0.848285 0.632318 -0.111025 0.944091 0.678920 -0.111025 2.880125 0.694937 -0.111025 1.856505 0.694937 -0.111025 1.285640 0.694937 -0.111025 1.049419 0.694937 -0.111025 0.104540 1.128008 -0.111025 -0.092310 1.128008 -0.111025 0.109906 1.168766 -0.111025 0.125638 1.206747 -0.111025 -0.080237 1.219715 -0.111025 0.150664 1.239363 -0.111025 0.183279 1.264389 -0.111025 0.221261 1.280121 -0.111025 2.880125 1.285487 -0.111025 1.856505 1.285487 -0.111025 1.285640 1.285487 -0.111025 0.262019 1.285487 -0.111025 -0.044839 1.305172 -0.111025 0.011470 1.378557 -0.111025 0.084854 1.434866 -0.111025 0.170312 1.470264 -0.111025 2.880125 1.482337 -0.111025 1.856504 1.482337 -0.111025 1.285640 1.482337 -0.111025 0.262019 1.482337 -0.071655 0.852569 -1.175138 -0.071655 0.734460 -1.175138 -0.071655 0.065170 -1.175138 -0.071655 -0.052941 -1.175138 -0.071655 3.037605 0.537458 -0.071655 3.037605 0.655567 -0.071655 3.037605 1.324858 -0.071655 3.037605 1.442967 0.046454 0.852569 -1.175138 0.046454 0.734460 -1.175138 0.046454 0.065170 -1.175138 0.046454 -0.052941 -1.175138 0.046455 3.037605 0.537458 0.046455 3.037605 0.655567 0.046455 3.037605 1.324858 0.046455 3.037605 1.442967 0.085825 0.891940 -1.017658 0.085825 0.695090 -1.017658 0.085825 0.104540 -1.017658 0.085825 -0.092310 -1.017658 0.085825 0.911624 0.005962 0.085825 0.891940 0.005962 0.085825 0.695090 0.005962 0.085825 0.675405 0.005962 0.085825 0.891940 0.340607 0.085825 0.695090 0.340607 0.085825 0.894168 0.367010 0.085825 0.697687 0.383436 0.085825 0.900793 0.392665 0.085825 0.911624 0.416847 0.085825 0.705443 0.425638 0.085825 0.954931 0.466591 0.085825 0.718243 0.466591 0.085825 0.675404 0.466591 0.085825 0.983914 0.483817 0.085825 1.015898 0.494478 0.085825 2.880125 0.498087 0.085825 1.856505 0.498087 0.085825 1.285640 0.498087 0.085825 1.049419 0.498087 0.085825 0.770664 0.559342 0.085825 0.848285 0.632318 0.085825 0.944091 0.678920 0.085825 2.880125 0.694937 0.085825 1.856505 0.694937 0.085825 1.285640 0.694937 0.085825 1.049419 0.694937 0.085825 0.104540 1.128008 0.085825 -0.092310 1.128008 0.085825 0.109906 1.168766 0.085825 0.125638 1.206747 0.085825 -0.080237 1.219715 0.085825 0.150664 1.239363 0.085825 0.183279 1.264389 0.085825 0.221261 1.280121 0.085825 2.880125 1.285487 0.085825 1.856505 1.285487 0.085825 1.285640 1.285487 0.085825 0.262019 1.285487 0.085825 -0.044839 1.305172 0.085825 0.011470 1.378557 0.085825 0.084854 1.434866 0.085825 0.170312 1.470264 0.085825 2.880125 1.482337 0.085825 1.856504 1.482337 0.085825 1.285640 1.482337 0.085825 0.262019 1.482337 0.341730 3.825005 0.005962 0.341730 3.057290 0.005962 0.341730 3.825005 0.163442 0.341730 3.057290 0.163442 0.381100 0.675405 0.005962 0.381100 -0.111995 0.005962 0.381100 1.285640 0.466591 0.381100 0.675404 0.466591 0.381100 1.285640 1.738242 0.381100 -0.111996 1.738242 0.499209 3.825005 0.163442 0.499209 1.856505 0.163442 0.499209 3.825005 0.635883 0.499209 2.604535 0.635882 0.499209 2.589136 0.636637 0.499209 2.573810 0.638909 0.499210 2.558779 0.642676 0.499210 2.544270 0.647870 0.499210 2.544261 0.647873 0.499210 2.530327 0.654463 0.499210 2.517038 0.662426 0.499210 2.511967 0.665961 0.499210 2.504593 0.671659 0.499210 2.493167 0.682019 0.499210 2.484792 0.691081 0.499210 2.482818 0.693438 0.499210 2.473589 0.705880 0.499210 2.465624 0.719174 0.499210 2.464216 0.721875 0.499210 2.459032 0.733121 0.499210 2.453842 0.747627 0.499210 2.451407 0.756595 0.499210 2.450079 0.762646 0.499210 2.447809 0.777966 0.499210 2.447055 0.793362 0.499210 2.447809 0.808761 0.499210 2.450081 0.824087 0.499210 2.453848 0.839118 0.499210 2.459042 0.853628 0.499210 2.459045 0.853635 0.499210 2.465634 0.867569 0.499210 2.473598 0.880859 0.499210 2.477133 0.885930 0.499210 2.482831 0.893304 0.499210 2.493191 0.904730 0.499210 2.502253 0.913105 0.499210 2.504610 0.915080 0.499210 2.517052 0.924308 0.499210 2.530346 0.932273 0.499210 2.533047 0.933681 0.499210 2.544293 0.938865 0.499210 2.558799 0.944055 0.499210 2.567767 0.946490 0.499210 2.573818 0.947818 0.499210 2.589139 0.950088 0.499210 3.825005 0.950842 0.499210 2.604535 0.950842 0.499210 3.057290 1.816983 0.499210 1.856504 1.816983 0.499210 3.825005 1.974462 0.499210 3.057290 1.974462 0.774800 3.825005 0.005962 0.774800 -0.111995 0.005962 0.774800 3.825005 0.635882 0.774800 2.604535 0.635882 0.774800 2.589139 0.636637 0.774800 2.573818 0.638907 0.774800 2.567767 0.640235 0.774800 2.558799 0.642670 0.774800 2.544293 0.647860 0.774800 2.533047 0.653043 0.774800 2.530346 0.654452 0.774800 2.517052 0.662416 0.774800 2.504610 0.671646 0.774800 2.502253 0.673619 0.774800 2.493191 0.681995 0.774800 2.482831 0.693420 0.774800 2.477133 0.700795 0.774800 2.473598 0.705866 0.774800 2.465634 0.719155 0.774800 2.459045 0.733089 0.774800 2.459042 0.733098 0.774800 2.453848 0.747607 0.774800 2.450081 0.762638 0.774800 2.447809 0.777964 0.774800 2.447055 0.793362 0.774800 2.447809 0.808758 0.774800 2.450079 0.824079 0.774800 2.450081 0.824085 0.774800 2.453842 0.839098 0.774800 2.459032 0.853604 0.774800 2.459042 0.853627 0.774800 2.465624 0.867551 0.774800 2.473589 0.880845 0.774800 2.477134 0.885931 0.774800 2.482818 0.893287 0.774800 2.493167 0.904705 0.774800 2.502254 0.913106 0.774800 2.504593 0.915065 0.774800 2.517038 0.924299 0.774800 2.530327 0.932263 0.774800 2.533048 0.933682 0.774800 2.544261 0.938851 0.774800 2.558779 0.944049 0.774800 2.567768 0.946490 0.774800 2.573810 0.947816 0.774800 2.589136 0.950087 0.774800 3.825005 0.950842 0.774800 2.604535 0.950842 0.774800 1.620284 1.738242 0.774800 -0.111996 1.738242 0.774800 3.825005 1.974462 0.774800 1.620284 1.974462 ]
		}
		colorPerVertex TRUE
		color Color {
			color [ 0.37 0.37 0.37 0.37 0.37 0.37 0.37 0.37 0.37 0.37 0.37 0.37 0.37 0.37 0.37 0.37 0.37 0.37 0.37 0.37 0.37 0.37 0.37 0.37 0.37 0.37 0.37 0.37 0.37 0.37 0.37 0.37 0.37 0.37 0.37 0.37 0.37 0.37 0.37 0.37 0.37 0.37 0.37 0.37 0.37 0.37 0.37 0.37 0.37 0.37 0.37 0.37 0.37 0.37 0.37 0.37 0.37 0.37 0.37 0.37 0.37 0.37 0.37 0.37 0.37 0.37 0.37 0.37 0.37 0.37 0.37 0.37 0.37 0.37 0.37 0.37 0.37 0.37 0.37 0.37 0.37 0.37 0.37 0.37 0.37 0.37 0.37 0.37 0.37 0.37 0.37 0.37 0.37 0.37 0.37 0.37 0.37 0.37 0.37 0.37 0.37 0.37 0.37 0.37 0.37 0.37 0.37 0.37 0.37 0.37 0.37 0.37 0.37 0.37 0.37 0.37 0.37 0.37 0.37 0.37 0.37 0.37 0.37 0.37 0.37 0.37 0.37 0.37 0.37 0.37 0.37 0.37 0.37 0.37 0.37 0.37 0.37 0.37 0.37 0.37 0.37 0.37 0.37 0.37 0.37 0.37 0.37 0.37 0.37 0.37 0.37 0.37 0.37 0.37 0.37 0.37 0.37 0.37 0.37 0.37 0.37 0.37 0.37 0.37 0.37 0.37 0.37 0.37 0.37 0.37 0.37 0.37 0.37 0.37 0.37 0.37 0.37 0.37 0.37 0.37 0.37 0.37 0.37 0.37 0.37 0.37 0.37 0.37 0.37 0.37 0.37 0.37 0.37 0.37 0.37 0.37 0.37 0.37 0.37 0.37 0.37 0.37 0.37 0.37 0.37 0.37 0.37 0.37 0.37 0.37 0.37 0.37 0.37 0.37 0.37 0.37 0.37 0.37 0.37 0.37 0.37 0.37 0.37 0.37 0.37 0.37 0.37 0.37 0.37 0.37 0.37 0.37 0.37 0.37 0.37 0.37 0.37 0.37 0.37 0.37 0.37 0.37 0.37 0.37 0.37 0.37 0.37 0.37 0.37 0.37 0.37 0.37 0.37 0.37 0.37 0.37 0.37 0.37 0.37 0.37 0.37 0.37 0.37 0.37 0.37 0.37 0.37 0.37 0.37 0.37 0.37 0.37 0.37 0.37 0.37 0.37 0.37 0.37 0.37 0.37 0.37 0.37 0.37 0.37 0.37 0.37 0.37 0.37 0.37 0.37 0.37 0.37 0.37 0.37 0.37 0.37 0.37 0.37 0.37 0.37 0.37 0.37 0.37 0.37 0.37 0.37 0.37 0.37 0.37 0.37 0.37 0.37 0.37 0.37 0.37 0.37 0.37 0.37 0.37 0.37 0.37 0.37 0.37 0.37 0.37 0.37 0.37 0.37 0.37 0.37 0.37 0.37 0.37 0.37 0.37 0.37 0.37 0.37 0.37 1.00 0.80 0.00 1.00 0.80 0.00 1.00 0.80 0.00 1.00 0.80 0.00 0.37 0.37 0.37 1.00 0.80 0.00 0.37 0.37 0.37 0.37 0.37 0.37 0.37 0.37 0.37 1.00 0.80 0.00 0.37 0.37 0.37 1.00 0.80 0.00 0.37 0.37 0.37 0.37 0.37 0.37 1.00 0.80 0.00 0.37 0.37 0.37 1.00 0.80 0.00 0.37 0.37 0.37 0.37 0.37 0.37 1.00 0.80 0.00 1.00 0.80 0.00 0.37 0.37 0.37 0.37 0.37 0.37 1.00 0.80 0.00 1.00 0.80 0.00 1.00 0.80 0.00 1.00 0.80 0.00 1.00 0.80 0.00 0.37 0.37 0.37 0.37 0.37 0.37 1.00 0.80 0.00 1.00 0.80 0.00 1.00 0.80 0.00 1.00 0.80 0.00 1.00 0.80 0.00 1.00 0.80 0.00 1.00 0.80 0.00 1.00 0.80 0.00 1.00 0.80 0.00 1.00 0.80 0.00 1.00 0.80 0.00 0.37 0.37 0.37 1.00 0.80 0.00 1.00 0.80 0.00 1.00 0.80 0.00 1.00 0.80 0.00 1.00 0.80 0.00 1.00 0.80 0.00 1.00 0.80 0.00 1.00 0.80 0.00 1.00 0.80 0.00 1.00 0.80 0.00 1.00 0.80 0.00 1.00 0.80 0.00 1.00 0.80 0.00 1.00 0.80 0.00 1.00 0.80 0.00 1.00 0.80 0.00 1.00 0.80 0.00 1.00 0.80 0.00 1.00 0.80 0.00 1.00 0.80 0.00 1.00 0.80 0.00 1.00 0.80 0.00 1.00 0.80 0.00 1.00 0.80 0.00 1.00 0.80 0.00 1.00 0.80 0.00 1.00 0.80 0.00 1.00 0.80 0.00 1.00 0.80 0.00 0.37 0.37 0.37 0.37 0.37 0.37 0.37 0.37 0.37 0.37 0.37 0.37 0.37 0.37 0.37 1.00 0.80 0.00 0.37 0.37 0.37 1.00 0.80 0.00 0.37 0.37 0.37 0.37 0.37 0.37 0.37 0.37 0.37 1.00 0.80 0.00 1.00 0.80 0.00 0.37 0.37 0.37 1.00 0.80 0.00 0.37 0.37 0.37 1.00 0.80 0.00 0.37 0.37 0.37 0.37 0.37 0.37 0.37 0.37 0.37 1.00 0.80 0.00 1.00 0.80 0.00 1.00 0.80 0.00 1.00 0.80 0.00 1.00 0.80 0.00 1.00 0.80 0.00 1.00 0.80 0.00 1.00 0.80 0.00 1.00 0.80 0.00 1.00 0.80 0.00 1.00 0.80 0.00 1.00 0.80 0.00 1.00 0.80 0.00 1.00 0.80 0.00 1.00 0.80 0.00 1.00 0.80 0.00 1.00 0.80 0.00 0.37 0.37 0.37 1.00 0.80 0.00 1.00 0.80 0.00 1.00 0.80 0.00 1.00 0.80 0.00 1.00 0.80 0.00 1.00 0.80 0.00 1.00 0.80 0.00 1.00 0.80 0.00 1.00 0.80 0.00 0.37 0.37 0.37 0.37 0.37 0.37 0.37 0.37 0.37 0.37 0.37 0.37 0.37 0.37 0.37 0.37 0.37 0.37 0.37 0.37 0.37 0.37 0.37 0.37 0.37 0.37 0.37 0.37 0.37 0.37 0.37 0.37 0.37 0.37 0.37 0.37 0.37 0.37 0.37 0.37 0.37 0.37 0.37 0.37 0.37 0.37 0.37 0.37 1.00 0.80 0.00 1.00 0.80 0.00 1.00 0.80 0.00 1.00 0.80 0.00 0.37 0.37 0.37 0.37 0.37 0.37 1.00 0.80 0.00 0.37 0.37 0.37 1.00 0.80 0.00 1.00 0.80 0.00 0.37 0.37 0.37 1.00 0.80 0.00 0.37 0.37 0.37 0.37 0.37 0.37 1.00 0.80 0.00 0.37 0.37 0.37 1.00 0.80 0.00 0.37 0.37 0.37 1.00 0.80 0.00 1.00 0.80 0.00 1.00 0.80 0.00 1.00 0.80 0.00 0.37 0.37 0.37 1.00 0.80 0.00 1.00 0.80 0.00 1.00 0.80 0.00 1.00 0.80 0.00 1.00 0.80 0.00 1.00 0.80 0.00 0.37 0.37 0.37 1.00 0.80 0.00 1.00 0.80 0.00 1.00 0.80 0.00 1.00 0.80 0.00 1.00 0.80 0.00 1.00 0.80 0.00 1.00 0.80 0.00 1.00 0.80 0.00 1.00 0.80 0.00 1.00 0.80 0.00 0.37 0.37 0.37 1.00 0.80 0.00 1.00 0.80 0.00 1.00 0.80 0.00 1.00 0.80 0.00 1.00 0.80 0.00 1.00 0.80 0.00 1.00 0.80 0.00 1.00 0.80 0.00 1.00 0.80 0.00 1.00 0.80 0.00 1.00 0.80 0.00 1.00 0.80 0.00 1.00 0.80 0.00 1.00 0.80 0.00 1.00 0.80 0.00 1.00 0.80 0.00 1.00 0.80 0.00 1.00 0.80 0.00 1.00 0.80 0.00 1.00 0.80 0.00 1.00 0.80 0.00 1.00 0.80 0.00 1.00 0.80 0.00 1.00 0.80 0.00 1.00 0.80 0.00 1.00 0.80 0.00 1.00 0.80 0.00 1.00 0.80 0.00 1.00 0.80 0.00 1.00 0.80 0.00 0.37 0.37 0.37 1.00 0.80 0.00 1.00 0.80 0.00 0.37 0.37 0.37 1.00 0.80 0.00 0.37 0.37 0.37 0.37 0.37 0.37 1.00 0.80 0.00 0.37 0.37 0.37 0.37 0.37 0.37 0.37 0.37 0.37 0.37 0.37 0.37 1.00 0.80 0.00 0.37 0.37 0.37 1.00 0.80 0.00 1.00 0.80 0.00 1.00 0.80 0.00 0.37 0.37 0.37 0.37 0.37 0.37 1.00 0.80 0.00 1.00 0.80 0.00 1.00 0.80 0.00 1.00 0.80 0.00 1.00 0.80 0.00 1.00 0.80 0.00 0.37 0.37 0.37 1.00 0.80 0.00 1.00 0.80 0.00 1.00 0.80 0.00 1.00 0.80 0.00 1.00 0.80 0.00 1.00 0.80 0.00 1.00 0.80 0.00 1.00 0.80 0.00 1.00 0.80 0.00 1.00 0.80 0.00 1.00 0.80 0.00 1.00 0.80 0.00 1.00 0.80 0.00 1.00 0.80 0.00 1.00 0.80 0.00 1.00 0.80 0.00 1.00 0.80 0.00 1.00 0.80 0.00 0.37 0.37 0.37 0.37 0.37 0.37 1.00 0.80 0.00 0.37 0.37 0.37 0.37 0.37 0.37 0.37 0.37 0.37 0.37 0.37 0.37 0.37 0.37 0.37 0.37 0.37 0.37 0.37 0.37 0.37 0.37 0.37 0.37 0.37 0.37 0.37 0.37 0.37 0.37 0.37 0.37 0.37 0.37 0.37 0.37 0.37 0.37 0.37 0.37 0.37 0.37 0.37 0.37 0.37 0.37 0.37 0.37 1.00 0.80 0.00 1.00 0.80 0.00 1.00 0.80 0.00 1.00 0.80 0.00 0.37 0.37 0.37 1.00 0.80 0.00 1.00 0.80 0.00 0.37 0.37 0.37 1.00 0.80 0.00 1.00 0.80 0.00 0.37 0.37 0.37 0.37 0.37 0.37 0.37 0.37 0.37 0.37 0.37 0.37 1.00 0.80 0.00 1.00 0.80 0.00 1.00 0.80 0.00 0.37 0.37 0.37 1.00 0.80 0.00 1.00 0.80 0.00 1.00 0.80 0.00 1.00 0.80 0.00 0.37 0.37 0.37 1.00 0.80 0.00 1.00 0.80 0.00 1.00 0.80 0.00 1.00 0.80 0.00 1.00 0.80 0.00 0.37 0.37 0.37 1.00 0.80 0.00 1.00 0.80 0.00 1.00 0.80 0.00 1.00 0.80 0.00 1.00 0.80 0.00 1.00 0.80 0.00 1.00 0.80 0.00 1.00 0.80 0.00 1.00 0.80 0.00 1.00 0.80 0.00 1.00 0.80 0.00 0.37 0.37 0.37 1.00 0.80 0.00 1.00 0.80 0.00 1.00 0.80 0.00 1.00 0.80 0.00 1.00 0.80 0.00 1.00 0.80 0.00 1.00 0.80 0.00 0.37 0.37 0.37 1.00 0.80 0.00 1.00 0.80 0.00 1.00 0.80 0.00 1.00 0.80 0.00 1.00 0.80 0.00 1.00 0.80 0.00 1.00 0.80 0.00 1.00 0.80 0.00 1.00 0.80 0.00 1.00 0.80 0.00 1.00 0.80 0.00 1.00 0.80 0.00 1.00 0.80 0.00 1.00 0.80 0.00 1.00 0.80 0.00 1.00 0.80 0.00 1.00 0.80 0.00 1.00 0.80 0.00 1.00 0.80 0.00 1.00 0.80 0.00 1.00 0.80 0.00 1.00 0.80 0.00 0.37 0.37 0.37 1.00 0.80 0.00 1.00 0.80 0.00 0.37 0.37 0.37 0.37 0.37 0.37 0.37 0.37 0.37 0.37 0.37 0.37 1.00 0.80 0.00 0.37 0.37 0.37 0.37 0.37 0.37 0.37 0.37 0.37 1.00 0.80 0.00 0.37 0.37 0.37 0.37 0.37 0.37 0.37 0.37 0.37 0.37 0.37 0.37 1.00 0.80 0.00 1.00 0.80 0.00 0.37 0.37 0.37 1.00 0.80 0.00 1.00 0.80 0.00 1.00 0.80 0.00 1.00 0.80 0.00 1.00 0.80 0.00 0.37 0.37 0.37 1.00 0.80 0.00 1.00 0.80 0.00 1.00 0.80 0.00 1.00 0.80 0.00 1.00 0.80 0.00 1.00 0.80 0.00 1.00 0.80 0.00 1.00 0.80 0.00 1.00 0.80 0.00 1.00 0.80 0.00 1.00 0.80 0.00 0.37 0.37 0.37 0.37 0.37 0.37 1.00 0.80 0.00 1.00 0.80 0.00 1.00 0.80 0.00 1.00 0.80 0.00 1.00 0.80 0.00 1.00 0.80 0.00 1.00 0.80 0.00 1.00 0.80 0.00 1.00 0.80 0.00 0.37 0.37 0.37 0.37 0.37 0.37 0.37 0.37 0.37 0.37 0.37 0.37 0.37 0.37 0.37 0.37 0.37 0.37 0.37 0.37 0.37 0.37 0.37 0.37 0.37 0.37 0.37 0.37 0.37 0.37 0.37 0.37 0.37 0.37 0.37 0.37 0.37 0.37 0.37 0.37 0.37 0.37 0.37 0.37 0.37 0.37 0.37 0.37 0.37 0.37 0.37 0.37 0.37 0.37 0.37 0.37 0.37 0.37 0.37 0.37 0.37 0.37 0.37 0.37 0.37 0.37 0.37 0.37 0.37 0.37 0.37 0.37 0.37 0.37 0.37 0.37 0.37 0.37 0.37 0.37 0.37 0.37 0.37 0.37 0.37 0.37 0.37 0.37 0.37 0.37 0.37 0.37 0.37 0.37 0.37 0.37 0.37 0.37 0.37 0.37 0.37 0.37 0.37 0.37 0.37 0.37 0.37 0.37 0.37 0.37 0.37 0.37 0.37 0.37 0.37 0.37 0.37 0.37 0.37 0.37 0.37 0.37 0.37 0.37 0.37 0.37 0.37 0.37 0.37 0.37 0.37 0.37 0.37 0.37 0.37 0.37 0.37 0.37 0.37 0.37 0.37 0.37 0.37 0.37 0.37 0.37 0.37 0.37 0.37 0.37 0.37 0.37 0.37 0.37 0.37 0.37 0.37 0.37 0.37 0.37 0.37 0.37 0.37 0.37 0.37 0.37 0.37 0.37 0.37 0.37 0.37 0.37 0.37 0.37 0.37 0.37 0.37 0.37 0.37 0.37 0.37 0.37 0.37 0.37 0.37 0.37 0.37 0.37 0.37 0.37 0.37 0.37 0.37 0.37 0.37 0.37 0.37 0.37 0.37 0.37 0.37 0.37 0.37 0.37 0.37 0.37 0.37 0.37 0.37 0.37 0.37 0.37 0.37 0.37 0.37 0.37 0.37 0.37 0.37 0.37 0.37 0.37 0.37 0.37 0.37 0.37 0.37 0.37 0.37 0.37 0.37 0.37 0.37 0.37 0.37 0.37 0.37 0.37 0.37 0.37 0.37 0.37 0.37 0.37 0.37 0.37 0.37 0.37 0.37 0.37 0.37 0.37 0.37 0.37 0.37 0.37 0.37 0.37 0.37 0.37 0.37 0.37 0.37 0.37 0.37 0.37 0.37 0.37 0.37 0.37 0.37 0.37 0.37 0.37 0.37 0.37 0.37 0.37 0.37 0.37 0.37 0.37 0.37 0.37 0.37 0.37 0.37 0.37 0.37 0.37 0.37 0.37 0.37 0.37 0.37 0.37 0.37 0.37 0.37 0.37 0.37 0.37 0.37 0.37 0.37 0.37 0.37 0.37 0.37 0.37 0.37 0.37 0.37 0.37 0.37 0.37 0.37 0.37 0.37 0.37 0.37 0.37 0.37 0.37 0.37 0.37 0.37 0.37 0.37 0.37 0.37 0.37 0.37 0.37 0.37 0.37 0.37 0.37 0.37 ]
		}
		coordIndex [ 0 1 6 -1 0 2 52 -1 0 3 2 -1 0 4 3 -1 0 5 4 -1 0 6 5 -1 0 52 109 -1 0 103 1 -1 0 109 110 -1 0 110 103 -1 1 7 6 -1 1 8 7 -1 1 9 8 -1 1 10 9 -1 1 11 10 -1 1 12 11 -1 1 13 12 -1 1 14 13 -1 1 15 14 -1 1 16 15 -1 1 17 16 -1 1 18 17 -1 1 19 18 -1 1 21 19 -1 1 22 21 -1 1 48 22 -1 1 49 48 -1 1 103 104 -1 1 104 108 -1 1 108 49 -1 2 3 54 -1 2 54 52 -1 3 4 55 -1 3 55 54 -1 4 5 56 -1 4 56 55 -1 5 6 57 -1 5 57 56 -1 6 7 58 -1 6 58 57 -1 7 8 58 -1 8 9 60 -1 8 59 58 -1 8 60 59 -1 9 10 61 -1 9 61 60 -1 10 11 61 -1 11 12 63 -1 11 62 61 -1 11 63 62 -1 12 13 64 -1 12 64 63 -1 13 14 65 -1 13 65 64 -1 14 15 66 -1 14 66 65 -1 15 16 67 -1 15 67 66 -1 16 17 68 -1 16 68 67 -1 17 18 68 -1 18 19 70 -1 18 69 68 -1 18 70 69 -1 19 20 71 -1 19 71 70 -1 20 21 71 -1 21 22 73 -1 21 72 71 -1 21 73 72 -1 22 23 74 -1 22 48 23 -1 22 74 73 -1 23 24 75 -1 23 48 24 -1 23 75 74 -1 24 25 76 -1 24 48 25 -1 24 76 75 -1 25 26 77 -1 25 48 27 -1 25 77 76 -1 26 27 78 -1 26 78 77 -1 27 28 78 -1 27 48 28 -1 28 29 79 -1 28 48 29 -1 28 79 78 -1 29 30 80 -1 29 48 30 -1 29 80 79 -1 30 31 81 -1 30 48 31 -1 30 81 80 -1 31 32 82 -1 31 48 32 -1 31 82 81 -1 32 33 83 -1 32 48 33 -1 32 83 82 -1 33 34 84 -1 33 48 34 -1 33 84 83 -1 34 35 85 -1 34 48 35 -1 34 85 84 -1 35 36 86 -1 35 48 36 -1 35 86 85 -1 36 37 87 -1 36 48 37 -1 36 87 86 -1 37 38 88 -1 37 48 38 -1 37 88 87 -1 38 39 89 -1 38 48 39 -1 38 89 88 -1 39 40 90 -1 39 48 40 -1 39 90 89 -1 40 41 91 -1 40 48 41 -1 40 91 90 -1 41 42 92 -1 41 48 42 -1 41 92 91 -1 42 43 93 -1 42 48 43 -1 42 93 92 -1 43 44 94 -1 43 48 44 -1 43 94 93 -1 44 45 95 -1 44 48 45 -1 44 95 94 -1 45 47 96 -1 45 48 51 -1 45 51 47 -1 45 96 95 -1 46 47 50 -1 46 50 101 -1 46 97 47 -1 46 101 97 -1 47 51 50 -1 47 97 98 -1 47 98 96 -1 48 49 107 -1 48 107 237 -1 48 237 245 -1 48 245 371 -1 48 371 608 -1 48 608 611 -1 48 611 51 -1 49 108 107 -1 50 51 102 -1 50 102 101 -1 51 559 102 -1 51 611 559 -1 52 53 112 -1 52 54 55 -1 52 55 53 -1 52 111 109 -1 52 112 111 -1 53 55 56 -1 53 56 57 -1 53 57 58 -1 53 58 60 -1 53 60 61 -1 53 61 62 -1 53 62 63 -1 53 63 64 -1 53 64 65 -1 53 65 66 -1 53 66 67 -1 53 67 68 -1 53 68 69 -1 53 69 70 -1 53 70 71 -1 53 71 72 -1 53 72 73 -1 53 73 74 -1 53 74 75 -1 53 75 76 -1 53 76 77 -1 53 77 78 -1 53 78 100 -1 53 100 153 -1 53 134 201 -1 53 141 134 -1 53 153 141 -1 53 201 268 -1 53 268 335 -1 53 335 510 -1 53 510 112 -1 78 79 100 -1 79 81 100 -1 81 82 100 -1 82 83 100 -1 83 84 100 -1 84 85 100 -1 85 86 100 -1 86 87 100 -1 87 88 100 -1 88 89 100 -1 89 90 100 -1 90 91 100 -1 91 92 100 -1 92 93 100 -1 93 94 100 -1 94 95 100 -1 95 96 99 -1 95 99 100 -1 96 98 99 -1 97 99 98 -1 97 101 99 -1 99 101 102 -1 99 102 559 -1 99 556 100 -1 99 559 556 -1 100 161 153 -1 100 228 161 -1 100 295 228 -1 100 362 295 -1 100 556 557 -1 100 557 362 -1 103 106 104 -1 103 110 117 -1 103 117 118 -1 103 118 119 -1 103 119 120 -1 103 120 106 -1 104 106 108 -1 105 106 128 -1 105 107 106 -1 105 128 231 -1 105 135 142 -1 105 142 154 -1 105 154 107 -1 105 231 135 -1 106 107 108 -1 106 120 130 -1 106 129 128 -1 106 130 129 -1 107 154 162 -1 107 162 237 -1 109 111 112 -1 109 112 110 -1 110 112 500 -1 110 184 117 -1 110 251 184 -1 110 500 251 -1 112 502 500 -1 112 510 502 -1 113 114 119 -1 113 118 180 -1 113 119 118 -1 113 164 165 -1 113 165 114 -1 113 180 164 -1 114 165 181 -1 114 181 119 -1 115 116 145 -1 115 144 182 -1 115 145 144 -1 115 166 116 -1 115 182 166 -1 116 166 167 -1 116 167 183 -1 116 183 212 -1 116 212 145 -1 117 121 118 -1 117 126 121 -1 117 184 126 -1 118 121 188 -1 118 185 180 -1 118 188 185 -1 119 122 120 -1 119 181 186 -1 119 186 189 -1 119 189 122 -1 120 122 130 -1 121 123 190 -1 121 126 123 -1 121 190 188 -1 122 124 130 -1 122 189 191 -1 122 191 124 -1 123 125 192 -1 123 126 125 -1 123 192 190 -1 124 127 130 -1 124 191 127 -1 125 126 193 -1 125 193 192 -1 126 184 193 -1 127 129 130 -1 127 191 194 -1 127 194 129 -1 128 129 137 -1 128 131 198 -1 128 137 138 -1 128 138 131 -1 128 195 231 -1 128 198 195 -1 129 194 196 -1 129 196 204 -1 129 204 137 -1 131 132 199 -1 131 138 139 -1 131 139 132 -1 131 199 198 -1 132 136 203 -1 132 139 143 -1 132 143 136 -1 132 203 199 -1 133 134 141 -1 133 140 169 -1 133 141 140 -1 133 168 200 -1 133 169 168 -1 133 200 201 -1 133 201 134 -1 135 136 142 -1 135 202 203 -1 135 203 136 -1 135 231 202 -1 136 143 142 -1 137 204 138 -1 138 204 205 -1 138 205 206 -1 138 206 139 -1 139 206 210 -1 139 210 143 -1 140 141 208 -1 140 207 169 -1 140 208 207 -1 141 153 220 -1 141 220 208 -1 142 143 209 -1 142 209 233 -1 142 233 154 -1 143 210 209 -1 144 145 146 -1 144 146 211 -1 144 211 182 -1 145 148 146 -1 145 212 148 -1 146 147 213 -1 146 148 156 -1 146 156 147 -1 146 213 211 -1 147 149 216 -1 147 156 149 -1 147 214 213 -1 147 216 214 -1 148 212 215 -1 148 215 223 -1 148 223 156 -1 149 150 216 -1 149 156 157 -1 149 157 158 -1 149 158 150 -1 150 151 218 -1 150 158 151 -1 150 217 216 -1 150 218 217 -1 151 155 222 -1 151 158 159 -1 151 159 155 -1 151 222 218 -1 152 153 160 -1 152 160 170 -1 152 170 219 -1 152 219 153 -1 153 161 160 -1 153 219 220 -1 154 155 162 -1 154 221 222 -1 154 222 155 -1 154 233 235 -1 154 235 221 -1 155 159 163 -1 155 163 162 -1 156 223 157 -1 157 223 224 -1 157 224 225 -1 157 225 158 -1 158 225 226 -1 158 226 159 -1 159 226 230 -1 159 230 163 -1 160 161 228 -1 160 171 170 -1 160 227 171 -1 160 228 227 -1 162 163 230 -1 162 229 237 -1 162 230 229 -1 164 172 173 -1 164 173 165 -1 164 180 172 -1 165 173 181 -1 166 174 175 -1 166 175 167 -1 166 182 174 -1 167 175 183 -1 168 169 177 -1 168 176 200 -1 168 177 176 -1 169 207 177 -1 170 171 178 -1 170 178 219 -1 171 179 178 -1 171 227 179 -1 172 180 173 -1 173 180 181 -1 174 182 183 -1 174 183 175 -1 176 177 200 -1 177 207 200 -1 178 179 227 -1 178 227 219 -1 180 185 186 -1 180 186 181 -1 182 211 183 -1 183 211 212 -1 184 185 188 -1 184 188 193 -1 184 251 252 -1 184 252 185 -1 185 252 186 -1 186 187 189 -1 186 252 253 -1 186 253 254 -1 186 254 187 -1 187 197 189 -1 187 232 197 -1 187 254 232 -1 188 190 193 -1 189 197 191 -1 190 192 193 -1 191 197 194 -1 194 197 196 -1 195 196 232 -1 195 198 205 -1 195 204 196 -1 195 205 204 -1 195 232 231 -1 196 197 232 -1 198 199 206 -1 198 206 205 -1 199 203 210 -1 199 210 206 -1 200 207 208 -1 200 208 201 -1 201 208 275 -1 201 275 268 -1 202 209 203 -1 202 231 209 -1 203 209 210 -1 208 220 287 -1 208 287 275 -1 209 231 233 -1 211 213 212 -1 212 213 215 -1 213 214 215 -1 214 216 223 -1 214 223 215 -1 216 217 225 -1 216 224 223 -1 216 225 224 -1 217 218 226 -1 217 226 225 -1 218 222 226 -1 219 227 220 -1 220 227 228 -1 220 228 287 -1 221 229 230 -1 221 230 222 -1 221 235 229 -1 222 230 226 -1 228 295 287 -1 229 235 237 -1 231 232 233 -1 232 234 233 -1 232 240 234 -1 232 254 240 -1 233 234 242 -1 233 241 235 -1 233 242 241 -1 234 240 242 -1 235 236 237 -1 235 241 243 -1 235 243 236 -1 236 238 237 -1 236 243 244 -1 236 244 246 -1 236 246 238 -1 237 238 245 -1 238 246 245 -1 239 240 262 -1 239 241 240 -1 239 262 329 -1 239 269 276 -1 239 276 241 -1 239 329 365 -1 239 365 269 -1 240 241 242 -1 240 254 264 -1 240 263 262 -1 240 264 263 -1 241 276 343 -1 241 343 367 -1 241 367 243 -1 243 245 244 -1 243 288 296 -1 243 296 245 -1 243 355 288 -1 243 367 369 -1 243 369 355 -1 244 245 246 -1 245 296 371 -1 247 248 253 -1 247 252 314 -1 247 253 252 -1 247 298 299 -1 247 299 248 -1 247 314 298 -1 248 299 315 -1 248 315 253 -1 249 250 279 -1 249 278 316 -1 249 279 278 -1 249 300 250 -1 249 316 300 -1 250 300 301 -1 250 301 317 -1 250 317 346 -1 250 346 279 -1 251 255 252 -1 251 260 255 -1 251 318 327 -1 251 327 260 -1 251 500 318 -1 252 255 322 -1 252 319 314 -1 252 322 319 -1 253 256 254 -1 253 315 320 -1 253 320 323 -1 253 323 256 -1 254 256 264 -1 255 257 324 -1 255 260 257 -1 255 324 322 -1 256 258 264 -1 256 323 325 -1 256 325 258 -1 257 259 326 -1 257 260 259 -1 257 326 324 -1 258 261 264 -1 258 325 261 -1 259 260 327 -1 259 327 326 -1 261 263 264 -1 261 325 328 -1 261 328 263 -1 262 263 271 -1 262 265 332 -1 262 271 272 -1 262 272 265 -1 262 332 329 -1 263 328 330 -1 263 330 338 -1 263 338 271 -1 265 266 333 -1 265 272 273 -1 265 273 266 -1 265 333 332 -1 266 270 337 -1 266 273 277 -1 266 277 270 -1 266 337 333 -1 267 268 275 -1 267 274 303 -1 267 275 274 -1 267 302 334 -1 267 303 302 -1 267 334 335 -1 267 335 268 -1 269 270 276 -1 269 336 337 -1 269 337 270 -1 269 365 336 -1 270 277 276 -1 271 338 272 -1 272 338 339 -1 272 339 340 -1 272 340 273 -1 273 340 344 -1 273 344 277 -1 274 275 342 -1 274 341 303 -1 274 342 341 -1 275 287 354 -1 275 354 342 -1 276 277 343 -1 277 344 343 -1 278 279 280 -1 278 280 345 -1 278 345 316 -1 279 282 280 -1 279 346 282 -1 280 281 347 -1 280 282 290 -1 280 290 281 -1 280 347 345 -1 281 283 350 -1 281 290 283 -1 281 348 347 -1 281 350 348 -1 282 346 349 -1 282 349 357 -1 282 357 290 -1 283 284 350 -1 283 290 291 -1 283 291 292 -1 283 292 284 -1 284 285 352 -1 284 292 285 -1 284 351 350 -1 284 352 351 -1 285 289 356 -1 285 292 293 -1 285 293 289 -1 285 356 352 -1 286 287 294 -1 286 294 304 -1 286 304 353 -1 286 353 287 -1 287 295 294 -1 287 353 354 -1 288 289 296 -1 288 355 356 -1 288 356 289 -1 289 293 297 -1 289 297 296 -1 290 357 291 -1 291 357 358 -1 291 358 359 -1 291 359 292 -1 292 359 360 -1 292 360 293 -1 293 360 364 -1 293 364 297 -1 294 295 362 -1 294 305 304 -1 294 361 305 -1 294 362 361 -1 296 297 364 -1 296 363 371 -1 296 364 363 -1 298 306 307 -1 298 307 299 -1 298 314 306 -1 299 307 315 -1 300 308 309 -1 300 309 301 -1 300 316 308 -1 301 309 317 -1 302 303 311 -1 302 310 334 -1 302 311 310 -1 303 341 311 -1 304 305 312 -1 304 312 353 -1 305 313 312 -1 305 361 313 -1 306 314 307 -1 307 314 315 -1 308 316 317 -1 308 317 309 -1 310 311 334 -1 311 341 334 -1 312 313 361 -1 312 361 353 -1 314 319 320 -1 314 320 315 -1 316 345 317 -1 317 345 346 -1 318 319 322 -1 318 322 327 -1 318 385 319 -1 318 500 385 -1 319 385 386 -1 319 386 320 -1 320 321 323 -1 320 386 387 -1 320 387 321 -1 321 331 323 -1 321 366 331 -1 321 387 388 -1 321 388 366 -1 322 324 327 -1 323 331 325 -1 324 326 327 -1 325 331 328 -1 328 331 330 -1 329 330 366 -1 329 332 339 -1 329 338 330 -1 329 339 338 -1 329 366 365 -1 330 331 366 -1 332 333 340 -1 332 340 339 -1 333 337 344 -1 333 344 340 -1 334 341 342 -1 334 342 335 -1 335 342 409 -1 335 402 510 -1 335 409 402 -1 336 343 337 -1 336 365 343 -1 337 343 344 -1 342 354 421 -1 342 421 409 -1 343 365 367 -1 345 347 346 -1 346 347 349 -1 347 348 349 -1 348 350 357 -1 348 357 349 -1 350 351 359 -1 350 358 357 -1 350 359 358 -1 351 352 360 -1 351 360 359 -1 352 356 360 -1 353 361 354 -1 354 361 362 -1 354 362 421 -1 355 363 364 -1 355 364 356 -1 355 369 363 -1 356 364 360 -1 362 429 421 -1 362 557 429 -1 363 369 371 -1 365 366 368 -1 365 368 367 -1 366 374 368 -1 366 388 374 -1 367 368 375 -1 367 375 369 -1 368 374 376 -1 368 376 375 -1 369 370 371 -1 369 375 377 -1 369 377 378 -1 369 378 370 -1 370 372 371 -1 370 378 372 -1 371 372 379 -1 371 379 608 -1 372 378 380 -1 372 380 379 -1 373 374 396 -1 373 375 376 -1 373 376 374 -1 373 396 463 -1 373 403 410 -1 373 410 375 -1 373 463 505 -1 373 470 403 -1 373 505 470 -1 374 388 398 -1 374 397 396 -1 374 398 397 -1 375 410 477 -1 375 477 489 -1 375 489 377 -1 377 379 378 -1 377 422 430 -1 377 430 379 -1 377 489 422 -1 378 379 380 -1 379 430 497 -1 379 497 507 -1 379 507 608 -1 381 382 387 -1 381 386 448 -1 381 387 386 -1 381 432 433 -1 381 433 382 -1 381 448 432 -1 382 433 449 -1 382 449 387 -1 383 384 413 -1 383 412 450 -1 383 413 412 -1 383 434 384 -1 383 450 434 -1 384 434 435 -1 384 435 451 -1 384 451 480 -1 384 480 413 -1 385 389 386 -1 385 394 389 -1 385 452 461 -1 385 461 394 -1 385 500 452 -1 386 389 456 -1 386 453 448 -1 386 456 453 -1 387 390 388 -1 387 449 454 -1 387 454 457 -1 387 457 390 -1 388 390 398 -1 389 391 458 -1 389 394 391 -1 389 458 456 -1 390 392 398 -1 390 457 459 -1 390 459 392 -1 391 393 460 -1 391 394 393 -1 391 460 458 -1 392 395 398 -1 392 459 395 -1 393 394 461 -1 393 461 460 -1 395 397 398 -1 395 459 462 -1 395 462 397 -1 396 397 405 -1 396 399 466 -1 396 405 406 -1 396 406 399 -1 396 466 463 -1 397 462 464 -1 397 464 472 -1 397 472 405 -1 399 400 467 -1 399 406 407 -1 399 407 400 -1 399 467 466 -1 400 404 471 -1 400 407 411 -1 400 411 404 -1 400 471 467 -1 401 402 409 -1 401 408 437 -1 401 409 408 -1 401 436 468 -1 401 437 436 -1 401 468 469 -1 401 469 402 -1 402 469 510 -1 403 404 410 -1 403 470 471 -1 403 471 404 -1 404 411 410 -1 405 472 406 -1 406 472 473 -1 406 473 474 -1 406 474 407 -1 407 474 478 -1 407 478 411 -1 408 409 476 -1 408 475 437 -1 408 476 475 -1 409 421 488 -1 409 488 476 -1 410 411 477 -1 411 478 477 -1 412 413 414 -1 412 414 479 -1 412 479 450 -1 413 416 414 -1 413 480 416 -1 414 415 481 -1 414 416 424 -1 414 424 415 -1 414 481 479 -1 415 417 484 -1 415 424 417 -1 415 482 481 -1 415 484 482 -1 416 480 483 -1 416 483 491 -1 416 491 424 -1 417 418 484 -1 417 424 425 -1 417 425 426 -1 417 426 418 -1 418 419 486 -1 418 426 419 -1 418 485 484 -1 418 486 485 -1 419 423 490 -1 419 426 427 -1 419 427 423 -1 419 490 486 -1 420 421 428 -1 420 428 438 -1 420 438 487 -1 420 487 421 -1 421 429 428 -1 421 487 488 -1 422 423 430 -1 422 489 490 -1 422 490 423 -1 423 427 431 -1 423 431 430 -1 424 491 425 -1 425 491 492 -1 425 492 493 -1 425 493 426 -1 426 493 494 -1 426 494 427 -1 427 494 498 -1 427 498 431 -1 428 429 496 -1 428 439 438 -1 428 495 439 -1 428 496 495 -1 429 557 496 -1 430 431 498 -1 430 498 497 -1 432 440 441 -1 432 441 433 -1 432 448 440 -1 433 441 449 -1 434 442 443 -1 434 443 435 -1 434 450 442 -1 435 443 451 -1 436 437 445 -1 436 444 468 -1 436 445 444 -1 437 475 445 -1 438 439 446 -1 438 446 487 -1 439 447 446 -1 439 495 447 -1 440 448 441 -1 441 448 449 -1 442 450 451 -1 442 451 443 -1 444 445 468 -1 445 475 468 -1 446 447 495 -1 446 495 487 -1 448 453 454 -1 448 454 449 -1 450 479 451 -1 451 479 480 -1 452 453 456 -1 452 456 461 -1 452 500 503 -1 452 503 453 -1 453 503 454 -1 454 455 457 -1 454 503 455 -1 455 465 457 -1 455 503 506 -1 455 506 465 -1 456 458 461 -1 457 465 459 -1 458 460 461 -1 459 465 462 -1 462 465 464 -1 463 464 506 -1 463 466 473 -1 463 472 464 -1 463 473 472 -1 463 506 505 -1 464 465 506 -1 466 467 474 -1 466 474 473 -1 467 471 478 -1 467 478 474 -1 468 475 476 -1 468 476 469 -1 469 476 510 -1 470 477 471 -1 470 505 477 -1 471 477 478 -1 476 488 510 -1 477 505 489 -1 479 481 480 -1 480 481 483 -1 481 482 483 -1 482 484 491 -1 482 491 483 -1 484 485 493 -1 484 492 491 -1 484 493 492 -1 485 486 494 -1 485 494 493 -1 486 490 494 -1 487 495 488 -1 488 495 496 -1 488 496 557 -1 488 557 510 -1 489 497 498 -1 489 498 490 -1 489 505 507 -1 489 507 497 -1 490 498 494 -1 499 500 502 -1 499 501 509 -1 499 502 501 -1 499 509 560 -1 499 560 500 -1 500 560 503 -1 501 502 509 -1 502 510 509 -1 503 504 506 -1 503 560 561 -1 503 561 504 -1 504 508 506 -1 504 561 508 -1 505 506 507 -1 506 508 507 -1 507 508 609 -1 507 609 608 -1 508 561 609 -1 509 510 512 -1 509 511 562 -1 509 512 511 -1 509 562 560 -1 510 513 512 -1 510 514 513 -1 510 515 514 -1 510 517 515 -1 510 518 517 -1 510 519 518 -1 510 520 519 -1 510 521 520 -1 510 522 521 -1 510 523 522 -1 510 524 523 -1 510 525 524 -1 510 526 525 -1 510 527 526 -1 510 528 527 -1 510 529 528 -1 510 530 529 -1 510 531 530 -1 510 532 531 -1 510 533 532 -1 510 534 533 -1 510 535 534 -1 510 557 535 -1 511 512 563 -1 511 563 562 -1 512 513 564 -1 512 564 563 -1 513 514 565 -1 513 565 564 -1 514 515 566 -1 514 566 565 -1 515 516 568 -1 515 567 566 -1 515 568 567 -1 516 517 568 -1 517 518 569 -1 517 569 568 -1 518 519 571 -1 518 570 569 -1 518 571 570 -1 519 520 571 -1 520 521 572 -1 520 572 571 -1 521 522 573 -1 521 573 572 -1 522 523 574 -1 522 574 573 -1 523 524 575 -1 523 575 574 -1 524 525 576 -1 524 576 575 -1 525 526 578 -1 525 577 576 -1 525 578 577 -1 526 527 578 -1 527 528 579 -1 527 579 578 -1 528 529 581 -1 528 580 579 -1 528 581 580 -1 529 530 581 -1 530 531 582 -1 530 582 581 -1 531 532 583 -1 531 583 582 -1 532 533 584 -1 532 584 583 -1 533 534 585 -1 533 585 584 -1 534 535 586 -1 534 586 585 -1 535 536 588 -1 535 557 536 -1 535 587 586 -1 535 588 587 -1 536 537 589 -1 536 557 538 -1 536 589 588 -1 537 538 590 -1 537 590 589 -1 538 539 591 -1 538 557 539 -1 538 591 590 -1 539 540 592 -1 539 557 540 -1 539 592 591 -1 540 541 593 -1 540 557 541 -1 540 593 592 -1 541 542 594 -1 541 557 542 -1 541 594 593 -1 542 543 595 -1 542 557 543 -1 542 595 594 -1 543 544 596 -1 543 557 544 -1 543 596 595 -1 544 545 597 -1 544 557 545 -1 544 597 596 -1 545 546 598 -1 545 557 546 -1 545 598 597 -1 546 547 599 -1 546 557 547 -1 546 599 598 -1 547 548 600 -1 547 557 548 -1 547 600 599 -1 548 549 601 -1 548 557 549 -1 548 601 600 -1 549 550 602 -1 549 557 550 -1 549 602 601 -1 550 551 603 -1 550 557 551 -1 550 603 602 -1 551 552 604 -1 551 557 552 -1 551 604 603 -1 552 553 605 -1 552 556 553 -1 552 557 556 -1 552 605 604 -1 553 555 607 -1 553 556 555 -1 553 607 605 -1 554 555 556 -1 554 556 558 -1 554 558 606 -1 554 606 607 -1 554 607 555 -1 556 559 558 -1 558 559 610 -1 558 610 606 -1 559 611 610 -1 560 562 563 -1 560 563 564 -1 560 564 565 -1 560 565 566 -1 560 566 561 -1 561 566 567 -1 561 567 568 -1 561 568 569 -1 561 569 570 -1 561 570 571 -1 561 571 572 -1 561 572 573 -1 561 573 574 -1 561 574 575 -1 561 575 576 -1 561 576 577 -1 561 577 578 -1 561 578 579 -1 561 579 581 -1 561 581 582 -1 561 582 608 -1 561 608 609 -1 582 583 608 -1 583 584 608 -1 584 585 608 -1 585 587 608 -1 587 588 608 -1 588 589 608 -1 589 590 608 -1 590 591 608 -1 591 592 608 -1 592 593 608 -1 593 594 608 -1 594 595 608 -1 595 596 608 -1 596 597 608 -1 597 598 608 -1 598 599 608 -1 599 600 608 -1 600 601 608 -1 601 602 608 -1 602 603 608 -1 603 604 608 -1 604 605 608 -1 605 607 611 -1 605 611 608 -1 606 610 607 -1 607 610 611 -1 ]
	}
}
