ISO-10303-21;
HEADER;
FILE_DESCRIPTION(('FreeCAD Model'),'2;1');
FILE_NAME(
'lsf-kicad-lib.3dshapes/KEYSTONE-7698.step',
'2020-04-08T19:20:23',('kicad StepUp'),('ksu MCAD'),
  'Open CASCADE STEP processor 7.3','FreeCAD','Unknown');
FILE_SCHEMA(('AUTOMOTIVE_DESIGN { 1 0 10303 214 1 1 1 1 }'));
ENDSEC;
DATA;
#1 = APPLICATION_PROTOCOL_DEFINITION('international standard',
  'automotive_design',2000,#2);
#2 = APPLICATION_CONTEXT(
  'core data for automotive mechanical design processes');
#3 = SHAPE_DEFINITION_REPRESENTATION(#4,#10);
#4 = PRODUCT_DEFINITION_SHAPE('','',#5);
#5 = PRODUCT_DEFINITION('design','',#6,#9);
#6 = PRODUCT_DEFINITION_FORMATION('','',#7);
#7 = PRODUCT('KEYSTONE-7698','KEYSTONE-7698','',(#8));
#8 = PRODUCT_CONTEXT('',#2,'mechanical');
#9 = PRODUCT_DEFINITION_CONTEXT('part definition',#2,'design');
#10 = ADVANCED_BREP_SHAPE_REPRESENTATION('',(#11,#15),#1214);
#11 = AXIS2_PLACEMENT_3D('',#12,#13,#14);
#12 = CARTESIAN_POINT('',(0.,0.,0.));
#13 = DIRECTION('',(0.,0.,1.));
#14 = DIRECTION('',(1.,0.,-0.));
#15 = MANIFOLD_SOLID_BREP('',#16);
#16 = CLOSED_SHELL('',(#17,#157,#188,#213,#237,#261,#335,#360,#385,#409,
    #482,#506,#530,#554,#578,#603,#628,#645,#674,#702,#719,#747,#864,
    #981,#998,#1015,#1032,#1049,#1066,#1083,#1100,#1117,#1134,#1151,
    #1168,#1185,#1202));
#17 = ADVANCED_FACE('',(#18),#152,.F.);
#18 = FACE_BOUND('',#19,.F.);
#19 = EDGE_LOOP('',(#20,#30,#38,#46,#54,#62,#70,#78,#87,#95,#104,#112,
    #120,#128,#137,#145));
#20 = ORIENTED_EDGE('',*,*,#21,.F.);
#21 = EDGE_CURVE('',#22,#24,#26,.T.);
#22 = VERTEX_POINT('',#23);
#23 = CARTESIAN_POINT('',(-0.75,-7.5,5.E-02));
#24 = VERTEX_POINT('',#25);
#25 = CARTESIAN_POINT('',(-0.75,-7.5,-4.));
#26 = LINE('',#27,#28);
#27 = CARTESIAN_POINT('',(-0.75,-7.5,5.E-02));
#28 = VECTOR('',#29,1.);
#29 = DIRECTION('',(4.440892098501E-16,-4.440892098501E-16,-1.));
#30 = ORIENTED_EDGE('',*,*,#31,.F.);
#31 = EDGE_CURVE('',#32,#22,#34,.T.);
#32 = VERTEX_POINT('',#33);
#33 = CARTESIAN_POINT('',(-1.5,-7.5,5.E-02));
#34 = LINE('',#35,#36);
#35 = CARTESIAN_POINT('',(-1.5,-7.5,5.E-02));
#36 = VECTOR('',#37,1.);
#37 = DIRECTION('',(1.,-2.22044604925E-16,4.440892098501E-16));
#38 = ORIENTED_EDGE('',*,*,#39,.F.);
#39 = EDGE_CURVE('',#40,#32,#42,.T.);
#40 = VERTEX_POINT('',#41);
#41 = CARTESIAN_POINT('',(-1.5,-7.5,5.75));
#42 = LINE('',#43,#44);
#43 = CARTESIAN_POINT('',(-1.5,-7.5,6.5));
#44 = VECTOR('',#45,1.);
#45 = DIRECTION('',(4.440892098501E-16,-4.440892098501E-16,-1.));
#46 = ORIENTED_EDGE('',*,*,#47,.T.);
#47 = EDGE_CURVE('',#40,#48,#50,.T.);
#48 = VERTEX_POINT('',#49);
#49 = CARTESIAN_POINT('',(6.5,-7.5,5.75));
#50 = LINE('',#51,#52);
#51 = CARTESIAN_POINT('',(-1.5,-7.5,5.75));
#52 = VECTOR('',#53,1.);
#53 = DIRECTION('',(1.,-2.22044604925E-16,1.33408920985E-15));
#54 = ORIENTED_EDGE('',*,*,#55,.T.);
#55 = EDGE_CURVE('',#48,#56,#58,.T.);
#56 = VERTEX_POINT('',#57);
#57 = CARTESIAN_POINT('',(6.5,-7.5,5.000000000001E-02));
#58 = LINE('',#59,#60);
#59 = CARTESIAN_POINT('',(6.5,-7.5,6.5));
#60 = VECTOR('',#61,1.);
#61 = DIRECTION('',(4.440892098501E-16,-4.440892098501E-16,-1.));
#62 = ORIENTED_EDGE('',*,*,#63,.T.);
#63 = EDGE_CURVE('',#56,#64,#66,.T.);
#64 = VERTEX_POINT('',#65);
#65 = CARTESIAN_POINT('',(5.75,-7.5,5.000000000001E-02));
#66 = LINE('',#67,#68);
#67 = CARTESIAN_POINT('',(6.5,-7.5,5.000000000001E-02));
#68 = VECTOR('',#69,1.);
#69 = DIRECTION('',(-1.,2.22044604925E-16,-4.440892098501E-16));
#70 = ORIENTED_EDGE('',*,*,#71,.T.);
#71 = EDGE_CURVE('',#64,#72,#74,.T.);
#72 = VERTEX_POINT('',#73);
#73 = CARTESIAN_POINT('',(5.75,-7.5,-4.));
#74 = LINE('',#75,#76);
#75 = CARTESIAN_POINT('',(5.75,-7.5,5.000000000001E-02));
#76 = VECTOR('',#77,1.);
#77 = DIRECTION('',(4.440892098501E-16,-4.440892098501E-16,-1.));
#78 = ORIENTED_EDGE('',*,*,#79,.T.);
#79 = EDGE_CURVE('',#72,#80,#82,.T.);
#80 = VERTEX_POINT('',#81);
#81 = CARTESIAN_POINT('',(5.05,-7.5,-4.7));
#82 = CIRCLE('',#83,0.7);
#83 = AXIS2_PLACEMENT_3D('',#84,#85,#86);
#84 = CARTESIAN_POINT('',(5.05,-7.5,-4.));
#85 = DIRECTION('',(2.22044604925E-16,1.,-2.240892098501E-16));
#86 = DIRECTION('',(-4.440892098501E-16,2.240892098501E-16,1.));
#87 = ORIENTED_EDGE('',*,*,#88,.F.);
#88 = EDGE_CURVE('',#89,#80,#91,.T.);
#89 = VERTEX_POINT('',#90);
#90 = CARTESIAN_POINT('',(4.95,-7.5,-4.7));
#91 = LINE('',#92,#93);
#92 = CARTESIAN_POINT('',(-1.5,-7.5,-4.7));
#93 = VECTOR('',#94,1.);
#94 = DIRECTION('',(1.,-2.22044604925E-16,8.840892098501E-16));
#95 = ORIENTED_EDGE('',*,*,#96,.T.);
#96 = EDGE_CURVE('',#89,#97,#99,.T.);
#97 = VERTEX_POINT('',#98);
#98 = CARTESIAN_POINT('',(4.25,-7.5,-4.));
#99 = CIRCLE('',#100,0.7);
#100 = AXIS2_PLACEMENT_3D('',#101,#102,#103);
#101 = CARTESIAN_POINT('',(4.95,-7.5,-4.));
#102 = DIRECTION('',(2.22044604925E-16,1.,-2.240892098501E-16));
#103 = DIRECTION('',(-4.440892098501E-16,2.240892098501E-16,1.));
#104 = ORIENTED_EDGE('',*,*,#105,.F.);
#105 = EDGE_CURVE('',#106,#97,#108,.T.);
#106 = VERTEX_POINT('',#107);
#107 = CARTESIAN_POINT('',(4.25,-7.5,1.2));
#108 = LINE('',#109,#110);
#109 = CARTESIAN_POINT('',(4.25,-7.5,1.2));
#110 = VECTOR('',#111,1.);
#111 = DIRECTION('',(4.440892098501E-16,-4.440892098501E-16,-1.));
#112 = ORIENTED_EDGE('',*,*,#113,.F.);
#113 = EDGE_CURVE('',#114,#106,#116,.T.);
#114 = VERTEX_POINT('',#115);
#115 = CARTESIAN_POINT('',(0.75,-7.5,1.2));
#116 = LINE('',#117,#118);
#117 = CARTESIAN_POINT('',(0.75,-7.5,1.2));
#118 = VECTOR('',#119,1.);
#119 = DIRECTION('',(1.,-2.22044604925E-16,4.440892098501E-16));
#120 = ORIENTED_EDGE('',*,*,#121,.F.);
#121 = EDGE_CURVE('',#122,#114,#124,.T.);
#122 = VERTEX_POINT('',#123);
#123 = CARTESIAN_POINT('',(0.75,-7.5,-4.));
#124 = LINE('',#125,#126);
#125 = CARTESIAN_POINT('',(0.75,-7.5,-4.7));
#126 = VECTOR('',#127,1.);
#127 = DIRECTION('',(-4.440892098501E-16,4.440892098501E-16,1.));
#128 = ORIENTED_EDGE('',*,*,#129,.F.);
#129 = EDGE_CURVE('',#130,#122,#132,.T.);
#130 = VERTEX_POINT('',#131);
#131 = CARTESIAN_POINT('',(5.000000000001E-02,-7.5,-4.7));
#132 = CIRCLE('',#133,0.7);
#133 = AXIS2_PLACEMENT_3D('',#134,#135,#136);
#134 = CARTESIAN_POINT('',(5.000000000001E-02,-7.5,-4.));
#135 = DIRECTION('',(-2.22044604925E-16,-1.,2.240892098501E-16));
#136 = DIRECTION('',(-4.440892098501E-16,2.240892098501E-16,1.));
#137 = ORIENTED_EDGE('',*,*,#138,.F.);
#138 = EDGE_CURVE('',#139,#130,#141,.T.);
#139 = VERTEX_POINT('',#140);
#140 = CARTESIAN_POINT('',(-4.999999999999E-02,-7.5,-4.7));
#141 = LINE('',#142,#143);
#142 = CARTESIAN_POINT('',(-1.5,-7.5,-4.7));
#143 = VECTOR('',#144,1.);
#144 = DIRECTION('',(1.,-2.22044604925E-16,8.840892098501E-16));
#145 = ORIENTED_EDGE('',*,*,#146,.F.);
#146 = EDGE_CURVE('',#24,#139,#147,.T.);
#147 = CIRCLE('',#148,0.7);
#148 = AXIS2_PLACEMENT_3D('',#149,#150,#151);
#149 = CARTESIAN_POINT('',(-4.999999999999E-02,-7.5,-4.));
#150 = DIRECTION('',(-2.22044604925E-16,-1.,2.240892098501E-16));
#151 = DIRECTION('',(-4.440892098501E-16,2.240892098501E-16,1.));
#152 = PLANE('',#153);
#153 = AXIS2_PLACEMENT_3D('',#154,#155,#156);
#154 = CARTESIAN_POINT('',(-1.5,-7.5,6.5));
#155 = DIRECTION('',(2.22044604925E-16,1.,-4.440892098501E-16));
#156 = DIRECTION('',(8.840892098501E-16,-4.440892098501E-16,-1.));
#157 = ADVANCED_FACE('',(#158),#183,.T.);
#158 = FACE_BOUND('',#159,.T.);
#159 = EDGE_LOOP('',(#160,#161,#169,#177));
#160 = ORIENTED_EDGE('',*,*,#21,.F.);
#161 = ORIENTED_EDGE('',*,*,#162,.T.);
#162 = EDGE_CURVE('',#22,#163,#165,.T.);
#163 = VERTEX_POINT('',#164);
#164 = CARTESIAN_POINT('',(-0.75,-6.7,5.E-02));
#165 = LINE('',#166,#167);
#166 = CARTESIAN_POINT('',(-0.75,-7.5,5.E-02));
#167 = VECTOR('',#168,1.);
#168 = DIRECTION('',(2.22044604925E-16,1.,-2.240892098501E-16));
#169 = ORIENTED_EDGE('',*,*,#170,.T.);
#170 = EDGE_CURVE('',#163,#171,#173,.T.);
#171 = VERTEX_POINT('',#172);
#172 = CARTESIAN_POINT('',(-0.75,-6.7,-4.));
#173 = LINE('',#174,#175);
#174 = CARTESIAN_POINT('',(-0.75,-6.7,-2.325));
#175 = VECTOR('',#176,1.);
#176 = DIRECTION('',(6.640892098501E-16,-4.440892098501E-16,-1.));
#177 = ORIENTED_EDGE('',*,*,#178,.F.);
#178 = EDGE_CURVE('',#24,#171,#179,.T.);
#179 = LINE('',#180,#181);
#180 = CARTESIAN_POINT('',(-0.75,-7.5,-4.));
#181 = VECTOR('',#182,1.);
#182 = DIRECTION('',(2.22044604925E-16,1.,-2.240892098501E-16));
#183 = PLANE('',#184);
#184 = AXIS2_PLACEMENT_3D('',#185,#186,#187);
#185 = CARTESIAN_POINT('',(-0.75,-7.5,5.E-02));
#186 = DIRECTION('',(-1.,2.22044604925E-16,-6.640892098501E-16));
#187 = DIRECTION('',(6.640892098501E-16,-2.240892098501E-16,-1.));
#188 = ADVANCED_FACE('',(#189),#208,.T.);
#189 = FACE_BOUND('',#190,.F.);
#190 = EDGE_LOOP('',(#191,#192,#200,#207));
#191 = ORIENTED_EDGE('',*,*,#146,.T.);
#192 = ORIENTED_EDGE('',*,*,#193,.T.);
#193 = EDGE_CURVE('',#139,#194,#196,.T.);
#194 = VERTEX_POINT('',#195);
#195 = CARTESIAN_POINT('',(-4.999999999999E-02,-6.7,-4.7));
#196 = LINE('',#197,#198);
#197 = CARTESIAN_POINT('',(-4.999999999999E-02,-7.5,-4.7));
#198 = VECTOR('',#199,1.);
#199 = DIRECTION('',(2.22044604925E-16,1.,-2.240892098501E-16));
#200 = ORIENTED_EDGE('',*,*,#201,.F.);
#201 = EDGE_CURVE('',#171,#194,#202,.T.);
#202 = CIRCLE('',#203,0.7);
#203 = AXIS2_PLACEMENT_3D('',#204,#205,#206);
#204 = CARTESIAN_POINT('',(-4.999999999999E-02,-6.7,-4.));
#205 = DIRECTION('',(-2.22044604925E-16,-1.,2.240892098501E-16));
#206 = DIRECTION('',(-4.440892098501E-16,2.240892098501E-16,1.));
#207 = ORIENTED_EDGE('',*,*,#178,.F.);
#208 = CYLINDRICAL_SURFACE('',#209,0.7);
#209 = AXIS2_PLACEMENT_3D('',#210,#211,#212);
#210 = CARTESIAN_POINT('',(-4.999999999999E-02,-7.5,-4.));
#211 = DIRECTION('',(2.22044604925E-16,1.,-2.240892098501E-16));
#212 = DIRECTION('',(-1.,2.22044604925E-16,-6.640892098501E-16));
#213 = ADVANCED_FACE('',(#214),#232,.T.);
#214 = FACE_BOUND('',#215,.T.);
#215 = EDGE_LOOP('',(#216,#217,#225,#231));
#216 = ORIENTED_EDGE('',*,*,#31,.F.);
#217 = ORIENTED_EDGE('',*,*,#218,.T.);
#218 = EDGE_CURVE('',#32,#219,#221,.T.);
#219 = VERTEX_POINT('',#220);
#220 = CARTESIAN_POINT('',(-1.5,-6.7,5.E-02));
#221 = LINE('',#222,#223);
#222 = CARTESIAN_POINT('',(-1.5,-7.5,5.E-02));
#223 = VECTOR('',#224,1.);
#224 = DIRECTION('',(2.22044604925E-16,1.,-2.240892098501E-16));
#225 = ORIENTED_EDGE('',*,*,#226,.T.);
#226 = EDGE_CURVE('',#219,#163,#227,.T.);
#227 = LINE('',#228,#229);
#228 = CARTESIAN_POINT('',(-1.5,-6.7,5.E-02));
#229 = VECTOR('',#230,1.);
#230 = DIRECTION('',(1.,-2.22044604925E-16,6.640892098501E-16));
#231 = ORIENTED_EDGE('',*,*,#162,.F.);
#232 = PLANE('',#233);
#233 = AXIS2_PLACEMENT_3D('',#234,#235,#236);
#234 = CARTESIAN_POINT('',(-1.5,-7.5,5.E-02));
#235 = DIRECTION('',(6.640892098501E-16,-2.240892098501E-16,-1.));
#236 = DIRECTION('',(1.,-2.22044604925E-16,6.640892098501E-16));
#237 = ADVANCED_FACE('',(#238),#256,.F.);
#238 = FACE_BOUND('',#239,.F.);
#239 = EDGE_LOOP('',(#240,#248,#249,#250));
#240 = ORIENTED_EDGE('',*,*,#241,.F.);
#241 = EDGE_CURVE('',#194,#242,#244,.T.);
#242 = VERTEX_POINT('',#243);
#243 = CARTESIAN_POINT('',(5.000000000001E-02,-6.7,-4.7));
#244 = LINE('',#245,#246);
#245 = CARTESIAN_POINT('',(-1.5,-6.7,-4.7));
#246 = VECTOR('',#247,1.);
#247 = DIRECTION('',(1.,-2.22044604925E-16,8.840892098501E-16));
#248 = ORIENTED_EDGE('',*,*,#193,.F.);
#249 = ORIENTED_EDGE('',*,*,#138,.T.);
#250 = ORIENTED_EDGE('',*,*,#251,.T.);
#251 = EDGE_CURVE('',#130,#242,#252,.T.);
#252 = LINE('',#253,#254);
#253 = CARTESIAN_POINT('',(5.000000000001E-02,-7.5,-4.7));
#254 = VECTOR('',#255,1.);
#255 = DIRECTION('',(2.22044604925E-16,1.,-2.240892098501E-16));
#256 = PLANE('',#257);
#257 = AXIS2_PLACEMENT_3D('',#258,#259,#260);
#258 = CARTESIAN_POINT('',(-1.5,-7.5,-4.7));
#259 = DIRECTION('',(-8.840892098501E-16,4.440892098501E-16,1.));
#260 = DIRECTION('',(2.22044604925E-16,1.,-4.440892098501E-16));
#261 = ADVANCED_FACE('',(#262),#330,.T.);
#262 = FACE_BOUND('',#263,.T.);
#263 = EDGE_LOOP('',(#264,#265,#274,#282,#291,#299,#307,#315,#323,#329)
  );
#264 = ORIENTED_EDGE('',*,*,#39,.F.);
#265 = ORIENTED_EDGE('',*,*,#266,.F.);
#266 = EDGE_CURVE('',#267,#40,#269,.T.);
#267 = VERTEX_POINT('',#268);
#268 = CARTESIAN_POINT('',(-1.5,-6.75,6.5));
#269 = CIRCLE('',#270,0.75);
#270 = AXIS2_PLACEMENT_3D('',#271,#272,#273);
#271 = CARTESIAN_POINT('',(-1.5,-6.75,5.75));
#272 = DIRECTION('',(1.,-2.22044604925E-16,1.33408920985E-15));
#273 = DIRECTION('',(1.33408920985E-15,-4.440892098501E-16,-1.));
#274 = ORIENTED_EDGE('',*,*,#275,.T.);
#275 = EDGE_CURVE('',#267,#276,#278,.T.);
#276 = VERTEX_POINT('',#277);
#277 = CARTESIAN_POINT('',(-1.5,-0.25,6.5));
#278 = LINE('',#279,#280);
#279 = CARTESIAN_POINT('',(-1.5,-7.5,6.5));
#280 = VECTOR('',#281,1.);
#281 = DIRECTION('',(2.22044604925E-16,1.,-4.440892098501E-16));
#282 = ORIENTED_EDGE('',*,*,#283,.T.);
#283 = EDGE_CURVE('',#276,#284,#286,.T.);
#284 = VERTEX_POINT('',#285);
#285 = CARTESIAN_POINT('',(-1.5,0.5,5.75));
#286 = CIRCLE('',#287,0.75);
#287 = AXIS2_PLACEMENT_3D('',#288,#289,#290);
#288 = CARTESIAN_POINT('',(-1.5,-0.25,5.75));
#289 = DIRECTION('',(-1.,2.22044604925E-16,-1.33408920985E-15));
#290 = DIRECTION('',(1.33408920985E-15,-4.440892098501E-16,-1.));
#291 = ORIENTED_EDGE('',*,*,#292,.F.);
#292 = EDGE_CURVE('',#293,#284,#295,.T.);
#293 = VERTEX_POINT('',#294);
#294 = CARTESIAN_POINT('',(-1.5,0.5,5.E-02));
#295 = LINE('',#296,#297);
#296 = CARTESIAN_POINT('',(-1.5,0.5,-4.7));
#297 = VECTOR('',#298,1.);
#298 = DIRECTION('',(-4.440892098501E-16,4.440892098501E-16,1.));
#299 = ORIENTED_EDGE('',*,*,#300,.F.);
#300 = EDGE_CURVE('',#301,#293,#303,.T.);
#301 = VERTEX_POINT('',#302);
#302 = CARTESIAN_POINT('',(-1.5,-0.3,5.E-02));
#303 = LINE('',#304,#305);
#304 = CARTESIAN_POINT('',(-1.5,-7.5,5.E-02));
#305 = VECTOR('',#306,1.);
#306 = DIRECTION('',(2.22044604925E-16,1.,-2.240892098501E-16));
#307 = ORIENTED_EDGE('',*,*,#308,.F.);
#308 = EDGE_CURVE('',#309,#301,#311,.T.);
#309 = VERTEX_POINT('',#310);
#310 = CARTESIAN_POINT('',(-1.5,-0.3,5.7));
#311 = LINE('',#312,#313);
#312 = CARTESIAN_POINT('',(-1.5,-0.3,5.7));
#313 = VECTOR('',#314,1.);
#314 = DIRECTION('',(4.440892098501E-16,-4.440892098501E-16,-1.));
#315 = ORIENTED_EDGE('',*,*,#316,.F.);
#316 = EDGE_CURVE('',#317,#309,#319,.T.);
#317 = VERTEX_POINT('',#318);
#318 = CARTESIAN_POINT('',(-1.5,-6.7,5.7));
#319 = LINE('',#320,#321);
#320 = CARTESIAN_POINT('',(-1.5,-6.7,5.7));
#321 = VECTOR('',#322,1.);
#322 = DIRECTION('',(2.22044604925E-16,1.,-4.440892098501E-16));
#323 = ORIENTED_EDGE('',*,*,#324,.F.);
#324 = EDGE_CURVE('',#219,#317,#325,.T.);
#325 = LINE('',#326,#327);
#326 = CARTESIAN_POINT('',(-1.5,-6.7,-4.7));
#327 = VECTOR('',#328,1.);
#328 = DIRECTION('',(-4.440892098501E-16,4.440892098501E-16,1.));
#329 = ORIENTED_EDGE('',*,*,#218,.F.);
#330 = PLANE('',#331);
#331 = AXIS2_PLACEMENT_3D('',#332,#333,#334);
#332 = CARTESIAN_POINT('',(-1.5,-3.5,1.883783783784));
#333 = DIRECTION('',(-1.,2.22044604925E-16,-6.640892098501E-16));
#334 = DIRECTION('',(-6.640892098501E-16,4.440892098501E-16,1.));
#335 = ADVANCED_FACE('',(#336),#355,.T.);
#336 = FACE_BOUND('',#337,.F.);
#337 = EDGE_LOOP('',(#338,#339,#347,#354));
#338 = ORIENTED_EDGE('',*,*,#129,.T.);
#339 = ORIENTED_EDGE('',*,*,#340,.T.);
#340 = EDGE_CURVE('',#122,#341,#343,.T.);
#341 = VERTEX_POINT('',#342);
#342 = CARTESIAN_POINT('',(0.75,-6.7,-4.));
#343 = LINE('',#344,#345);
#344 = CARTESIAN_POINT('',(0.75,-7.5,-4.));
#345 = VECTOR('',#346,1.);
#346 = DIRECTION('',(2.22044604925E-16,1.,-2.240892098501E-16));
#347 = ORIENTED_EDGE('',*,*,#348,.F.);
#348 = EDGE_CURVE('',#242,#341,#349,.T.);
#349 = CIRCLE('',#350,0.7);
#350 = AXIS2_PLACEMENT_3D('',#351,#352,#353);
#351 = CARTESIAN_POINT('',(5.000000000001E-02,-6.7,-4.));
#352 = DIRECTION('',(-2.22044604925E-16,-1.,2.240892098501E-16));
#353 = DIRECTION('',(-4.440892098501E-16,2.240892098501E-16,1.));
#354 = ORIENTED_EDGE('',*,*,#251,.F.);
#355 = CYLINDRICAL_SURFACE('',#356,0.7);
#356 = AXIS2_PLACEMENT_3D('',#357,#358,#359);
#357 = CARTESIAN_POINT('',(5.000000000001E-02,-7.5,-4.));
#358 = DIRECTION('',(2.22044604925E-16,1.,-2.240892098501E-16));
#359 = DIRECTION('',(1.33408920985E-15,-2.240892098501E-16,-1.));
#360 = ADVANCED_FACE('',(#361),#380,.T.);
#361 = FACE_BOUND('',#362,.T.);
#362 = EDGE_LOOP('',(#363,#364,#365,#374));
#363 = ORIENTED_EDGE('',*,*,#266,.T.);
#364 = ORIENTED_EDGE('',*,*,#47,.T.);
#365 = ORIENTED_EDGE('',*,*,#366,.F.);
#366 = EDGE_CURVE('',#367,#48,#369,.T.);
#367 = VERTEX_POINT('',#368);
#368 = CARTESIAN_POINT('',(6.5,-6.75,6.5));
#369 = CIRCLE('',#370,0.75);
#370 = AXIS2_PLACEMENT_3D('',#371,#372,#373);
#371 = CARTESIAN_POINT('',(6.5,-6.75,5.75));
#372 = DIRECTION('',(1.,-2.22044604925E-16,1.33408920985E-15));
#373 = DIRECTION('',(1.33408920985E-15,-4.440892098501E-16,-1.));
#374 = ORIENTED_EDGE('',*,*,#375,.F.);
#375 = EDGE_CURVE('',#267,#367,#376,.T.);
#376 = LINE('',#377,#378);
#377 = CARTESIAN_POINT('',(-1.5,-6.75,6.5));
#378 = VECTOR('',#379,1.);
#379 = DIRECTION('',(1.,-2.22044604925E-16,1.33408920985E-15));
#380 = CYLINDRICAL_SURFACE('',#381,0.75);
#381 = AXIS2_PLACEMENT_3D('',#382,#383,#384);
#382 = CARTESIAN_POINT('',(-1.5,-6.75,5.75));
#383 = DIRECTION('',(1.,-2.22044604925E-16,1.33408920985E-15));
#384 = DIRECTION('',(-1.33408920985E-15,4.440892098501E-16,1.));
#385 = ADVANCED_FACE('',(#386),#404,.T.);
#386 = FACE_BOUND('',#387,.T.);
#387 = EDGE_LOOP('',(#388,#389,#390,#398));
#388 = ORIENTED_EDGE('',*,*,#121,.F.);
#389 = ORIENTED_EDGE('',*,*,#340,.T.);
#390 = ORIENTED_EDGE('',*,*,#391,.T.);
#391 = EDGE_CURVE('',#341,#392,#394,.T.);
#392 = VERTEX_POINT('',#393);
#393 = CARTESIAN_POINT('',(0.75,-6.7,1.2));
#394 = LINE('',#395,#396);
#395 = CARTESIAN_POINT('',(0.75,-6.7,-4.7));
#396 = VECTOR('',#397,1.);
#397 = DIRECTION('',(-6.640892098501E-16,4.440892098501E-16,1.));
#398 = ORIENTED_EDGE('',*,*,#399,.F.);
#399 = EDGE_CURVE('',#114,#392,#400,.T.);
#400 = LINE('',#401,#402);
#401 = CARTESIAN_POINT('',(0.75,-7.5,1.2));
#402 = VECTOR('',#403,1.);
#403 = DIRECTION('',(2.22044604925E-16,1.,-2.240892098501E-16));
#404 = PLANE('',#405);
#405 = AXIS2_PLACEMENT_3D('',#406,#407,#408);
#406 = CARTESIAN_POINT('',(0.75,-7.5,-4.7));
#407 = DIRECTION('',(1.,-2.22044604925E-16,6.640892098501E-16));
#408 = DIRECTION('',(-6.640892098501E-16,2.240892098501E-16,1.));
#409 = ADVANCED_FACE('',(#410),#477,.F.);
#410 = FACE_BOUND('',#411,.F.);
#411 = EDGE_LOOP('',(#412,#413,#414,#422,#431,#439,#447,#455,#463,#471)
  );
#412 = ORIENTED_EDGE('',*,*,#55,.F.);
#413 = ORIENTED_EDGE('',*,*,#366,.F.);
#414 = ORIENTED_EDGE('',*,*,#415,.T.);
#415 = EDGE_CURVE('',#367,#416,#418,.T.);
#416 = VERTEX_POINT('',#417);
#417 = CARTESIAN_POINT('',(6.5,-0.25,6.5));
#418 = LINE('',#419,#420);
#419 = CARTESIAN_POINT('',(6.5,-7.5,6.5));
#420 = VECTOR('',#421,1.);
#421 = DIRECTION('',(2.22044604925E-16,1.,-4.440892098501E-16));
#422 = ORIENTED_EDGE('',*,*,#423,.T.);
#423 = EDGE_CURVE('',#416,#424,#426,.T.);
#424 = VERTEX_POINT('',#425);
#425 = CARTESIAN_POINT('',(6.5,0.5,5.75));
#426 = CIRCLE('',#427,0.75);
#427 = AXIS2_PLACEMENT_3D('',#428,#429,#430);
#428 = CARTESIAN_POINT('',(6.5,-0.25,5.75));
#429 = DIRECTION('',(-1.,2.22044604925E-16,-1.33408920985E-15));
#430 = DIRECTION('',(1.33408920985E-15,-4.440892098501E-16,-1.));
#431 = ORIENTED_EDGE('',*,*,#432,.F.);
#432 = EDGE_CURVE('',#433,#424,#435,.T.);
#433 = VERTEX_POINT('',#434);
#434 = CARTESIAN_POINT('',(6.5,0.5,5.000000000001E-02));
#435 = LINE('',#436,#437);
#436 = CARTESIAN_POINT('',(6.5,0.5,-4.7));
#437 = VECTOR('',#438,1.);
#438 = DIRECTION('',(-4.440892098501E-16,4.440892098501E-16,1.));
#439 = ORIENTED_EDGE('',*,*,#440,.F.);
#440 = EDGE_CURVE('',#441,#433,#443,.T.);
#441 = VERTEX_POINT('',#442);
#442 = CARTESIAN_POINT('',(6.5,-0.3,5.000000000001E-02));
#443 = LINE('',#444,#445);
#444 = CARTESIAN_POINT('',(6.5,-7.5,5.000000000001E-02));
#445 = VECTOR('',#446,1.);
#446 = DIRECTION('',(2.22044604925E-16,1.,-2.240892098501E-16));
#447 = ORIENTED_EDGE('',*,*,#448,.F.);
#448 = EDGE_CURVE('',#449,#441,#451,.T.);
#449 = VERTEX_POINT('',#450);
#450 = CARTESIAN_POINT('',(6.5,-0.3,5.7));
#451 = LINE('',#452,#453);
#452 = CARTESIAN_POINT('',(6.5,-0.3,5.7));
#453 = VECTOR('',#454,1.);
#454 = DIRECTION('',(4.440892098501E-16,-4.440892098501E-16,-1.));
#455 = ORIENTED_EDGE('',*,*,#456,.F.);
#456 = EDGE_CURVE('',#457,#449,#459,.T.);
#457 = VERTEX_POINT('',#458);
#458 = CARTESIAN_POINT('',(6.5,-6.7,5.7));
#459 = LINE('',#460,#461);
#460 = CARTESIAN_POINT('',(6.5,-6.7,5.7));
#461 = VECTOR('',#462,1.);
#462 = DIRECTION('',(2.22044604925E-16,1.,-4.440892098501E-16));
#463 = ORIENTED_EDGE('',*,*,#464,.F.);
#464 = EDGE_CURVE('',#465,#457,#467,.T.);
#465 = VERTEX_POINT('',#466);
#466 = CARTESIAN_POINT('',(6.5,-6.7,5.000000000001E-02));
#467 = LINE('',#468,#469);
#468 = CARTESIAN_POINT('',(6.5,-6.7,-4.7));
#469 = VECTOR('',#470,1.);
#470 = DIRECTION('',(-4.440892098501E-16,4.440892098501E-16,1.));
#471 = ORIENTED_EDGE('',*,*,#472,.F.);
#472 = EDGE_CURVE('',#56,#465,#473,.T.);
#473 = LINE('',#474,#475);
#474 = CARTESIAN_POINT('',(6.5,-7.5,5.000000000001E-02));
#475 = VECTOR('',#476,1.);
#476 = DIRECTION('',(2.22044604925E-16,1.,-2.240892098501E-16));
#477 = PLANE('',#478);
#478 = AXIS2_PLACEMENT_3D('',#479,#480,#481);
#479 = CARTESIAN_POINT('',(6.5,-3.5,1.883783783784));
#480 = DIRECTION('',(-1.,2.22044604925E-16,-6.640892098501E-16));
#481 = DIRECTION('',(-6.640892098501E-16,4.440892098501E-16,1.));
#482 = ADVANCED_FACE('',(#483),#501,.T.);
#483 = FACE_BOUND('',#484,.T.);
#484 = EDGE_LOOP('',(#485,#486,#487,#495));
#485 = ORIENTED_EDGE('',*,*,#113,.F.);
#486 = ORIENTED_EDGE('',*,*,#399,.T.);
#487 = ORIENTED_EDGE('',*,*,#488,.T.);
#488 = EDGE_CURVE('',#392,#489,#491,.T.);
#489 = VERTEX_POINT('',#490);
#490 = CARTESIAN_POINT('',(4.25,-6.7,1.2));
#491 = LINE('',#492,#493);
#492 = CARTESIAN_POINT('',(-0.375,-6.7,1.2));
#493 = VECTOR('',#494,1.);
#494 = DIRECTION('',(1.,-2.22044604925E-16,6.640892098501E-16));
#495 = ORIENTED_EDGE('',*,*,#496,.F.);
#496 = EDGE_CURVE('',#106,#489,#497,.T.);
#497 = LINE('',#498,#499);
#498 = CARTESIAN_POINT('',(4.25,-7.5,1.2));
#499 = VECTOR('',#500,1.);
#500 = DIRECTION('',(2.22044604925E-16,1.,-2.240892098501E-16));
#501 = PLANE('',#502);
#502 = AXIS2_PLACEMENT_3D('',#503,#504,#505);
#503 = CARTESIAN_POINT('',(0.75,-7.5,1.2));
#504 = DIRECTION('',(6.640892098501E-16,-2.240892098501E-16,-1.));
#505 = DIRECTION('',(1.,-2.22044604925E-16,6.640892098501E-16));
#506 = ADVANCED_FACE('',(#507),#525,.F.);
#507 = FACE_BOUND('',#508,.F.);
#508 = EDGE_LOOP('',(#509,#510,#511,#519));
#509 = ORIENTED_EDGE('',*,*,#63,.F.);
#510 = ORIENTED_EDGE('',*,*,#472,.T.);
#511 = ORIENTED_EDGE('',*,*,#512,.T.);
#512 = EDGE_CURVE('',#465,#513,#515,.T.);
#513 = VERTEX_POINT('',#514);
#514 = CARTESIAN_POINT('',(5.75,-6.7,5.000000000001E-02));
#515 = LINE('',#516,#517);
#516 = CARTESIAN_POINT('',(2.5,-6.7,5.000000000001E-02));
#517 = VECTOR('',#518,1.);
#518 = DIRECTION('',(-1.,2.22044604925E-16,-6.640892098501E-16));
#519 = ORIENTED_EDGE('',*,*,#520,.F.);
#520 = EDGE_CURVE('',#64,#513,#521,.T.);
#521 = LINE('',#522,#523);
#522 = CARTESIAN_POINT('',(5.75,-7.5,5.000000000001E-02));
#523 = VECTOR('',#524,1.);
#524 = DIRECTION('',(2.22044604925E-16,1.,-2.240892098501E-16));
#525 = PLANE('',#526);
#526 = AXIS2_PLACEMENT_3D('',#527,#528,#529);
#527 = CARTESIAN_POINT('',(6.5,-7.5,5.000000000001E-02));
#528 = DIRECTION('',(-6.640892098501E-16,2.240892098501E-16,1.));
#529 = DIRECTION('',(-1.,2.22044604925E-16,-6.640892098501E-16));
#530 = ADVANCED_FACE('',(#531),#549,.T.);
#531 = FACE_BOUND('',#532,.T.);
#532 = EDGE_LOOP('',(#533,#534,#535,#543));
#533 = ORIENTED_EDGE('',*,*,#105,.F.);
#534 = ORIENTED_EDGE('',*,*,#496,.T.);
#535 = ORIENTED_EDGE('',*,*,#536,.T.);
#536 = EDGE_CURVE('',#489,#537,#539,.T.);
#537 = VERTEX_POINT('',#538);
#538 = CARTESIAN_POINT('',(4.25,-6.7,-4.));
#539 = LINE('',#540,#541);
#540 = CARTESIAN_POINT('',(4.25,-6.7,-1.75));
#541 = VECTOR('',#542,1.);
#542 = DIRECTION('',(6.640892098501E-16,-4.440892098501E-16,-1.));
#543 = ORIENTED_EDGE('',*,*,#544,.F.);
#544 = EDGE_CURVE('',#97,#537,#545,.T.);
#545 = LINE('',#546,#547);
#546 = CARTESIAN_POINT('',(4.25,-7.5,-4.));
#547 = VECTOR('',#548,1.);
#548 = DIRECTION('',(2.22044604925E-16,1.,-2.240892098501E-16));
#549 = PLANE('',#550);
#550 = AXIS2_PLACEMENT_3D('',#551,#552,#553);
#551 = CARTESIAN_POINT('',(4.25,-7.5,1.2));
#552 = DIRECTION('',(-1.,2.22044604925E-16,-6.640892098501E-16));
#553 = DIRECTION('',(6.640892098501E-16,-2.240892098501E-16,-1.));
#554 = ADVANCED_FACE('',(#555),#573,.F.);
#555 = FACE_BOUND('',#556,.F.);
#556 = EDGE_LOOP('',(#557,#558,#559,#567));
#557 = ORIENTED_EDGE('',*,*,#71,.F.);
#558 = ORIENTED_EDGE('',*,*,#520,.T.);
#559 = ORIENTED_EDGE('',*,*,#560,.T.);
#560 = EDGE_CURVE('',#513,#561,#563,.T.);
#561 = VERTEX_POINT('',#562);
#562 = CARTESIAN_POINT('',(5.75,-6.7,-4.));
#563 = LINE('',#564,#565);
#564 = CARTESIAN_POINT('',(5.75,-6.7,-2.325));
#565 = VECTOR('',#566,1.);
#566 = DIRECTION('',(6.640892098501E-16,-4.440892098501E-16,-1.));
#567 = ORIENTED_EDGE('',*,*,#568,.F.);
#568 = EDGE_CURVE('',#72,#561,#569,.T.);
#569 = LINE('',#570,#571);
#570 = CARTESIAN_POINT('',(5.75,-7.5,-4.));
#571 = VECTOR('',#572,1.);
#572 = DIRECTION('',(2.22044604925E-16,1.,-2.240892098501E-16));
#573 = PLANE('',#574);
#574 = AXIS2_PLACEMENT_3D('',#575,#576,#577);
#575 = CARTESIAN_POINT('',(5.75,-7.5,5.000000000001E-02));
#576 = DIRECTION('',(-1.,2.22044604925E-16,-6.640892098501E-16));
#577 = DIRECTION('',(6.640892098501E-16,-2.240892098501E-16,-1.));
#578 = ADVANCED_FACE('',(#579),#598,.T.);
#579 = FACE_BOUND('',#580,.T.);
#580 = EDGE_LOOP('',(#581,#582,#583,#592));
#581 = ORIENTED_EDGE('',*,*,#96,.T.);
#582 = ORIENTED_EDGE('',*,*,#544,.T.);
#583 = ORIENTED_EDGE('',*,*,#584,.F.);
#584 = EDGE_CURVE('',#585,#537,#587,.T.);
#585 = VERTEX_POINT('',#586);
#586 = CARTESIAN_POINT('',(4.95,-6.7,-4.7));
#587 = CIRCLE('',#588,0.7);
#588 = AXIS2_PLACEMENT_3D('',#589,#590,#591);
#589 = CARTESIAN_POINT('',(4.95,-6.7,-4.));
#590 = DIRECTION('',(2.22044604925E-16,1.,-2.240892098501E-16));
#591 = DIRECTION('',(-4.440892098501E-16,2.240892098501E-16,1.));
#592 = ORIENTED_EDGE('',*,*,#593,.F.);
#593 = EDGE_CURVE('',#89,#585,#594,.T.);
#594 = LINE('',#595,#596);
#595 = CARTESIAN_POINT('',(4.95,-7.5,-4.7));
#596 = VECTOR('',#597,1.);
#597 = DIRECTION('',(2.22044604925E-16,1.,-2.240892098501E-16));
#598 = CYLINDRICAL_SURFACE('',#599,0.7);
#599 = AXIS2_PLACEMENT_3D('',#600,#601,#602);
#600 = CARTESIAN_POINT('',(4.95,-7.5,-4.));
#601 = DIRECTION('',(2.22044604925E-16,1.,-2.240892098501E-16));
#602 = DIRECTION('',(1.33408920985E-15,-2.240892098501E-16,-1.));
#603 = ADVANCED_FACE('',(#604),#623,.T.);
#604 = FACE_BOUND('',#605,.T.);
#605 = EDGE_LOOP('',(#606,#607,#615,#622));
#606 = ORIENTED_EDGE('',*,*,#79,.T.);
#607 = ORIENTED_EDGE('',*,*,#608,.T.);
#608 = EDGE_CURVE('',#80,#609,#611,.T.);
#609 = VERTEX_POINT('',#610);
#610 = CARTESIAN_POINT('',(5.05,-6.7,-4.7));
#611 = LINE('',#612,#613);
#612 = CARTESIAN_POINT('',(5.05,-7.5,-4.7));
#613 = VECTOR('',#614,1.);
#614 = DIRECTION('',(2.22044604925E-16,1.,-2.240892098501E-16));
#615 = ORIENTED_EDGE('',*,*,#616,.F.);
#616 = EDGE_CURVE('',#561,#609,#617,.T.);
#617 = CIRCLE('',#618,0.7);
#618 = AXIS2_PLACEMENT_3D('',#619,#620,#621);
#619 = CARTESIAN_POINT('',(5.05,-6.7,-4.));
#620 = DIRECTION('',(2.22044604925E-16,1.,-2.240892098501E-16));
#621 = DIRECTION('',(-4.440892098501E-16,2.240892098501E-16,1.));
#622 = ORIENTED_EDGE('',*,*,#568,.F.);
#623 = CYLINDRICAL_SURFACE('',#624,0.7);
#624 = AXIS2_PLACEMENT_3D('',#625,#626,#627);
#625 = CARTESIAN_POINT('',(5.05,-7.5,-4.));
#626 = DIRECTION('',(2.22044604925E-16,1.,-2.240892098501E-16));
#627 = DIRECTION('',(1.,-2.22044604925E-16,6.640892098501E-16));
#628 = ADVANCED_FACE('',(#629),#640,.F.);
#629 = FACE_BOUND('',#630,.F.);
#630 = EDGE_LOOP('',(#631,#637,#638,#639));
#631 = ORIENTED_EDGE('',*,*,#632,.F.);
#632 = EDGE_CURVE('',#585,#609,#633,.T.);
#633 = LINE('',#634,#635);
#634 = CARTESIAN_POINT('',(-1.5,-6.7,-4.7));
#635 = VECTOR('',#636,1.);
#636 = DIRECTION('',(1.,-2.22044604925E-16,8.840892098501E-16));
#637 = ORIENTED_EDGE('',*,*,#593,.F.);
#638 = ORIENTED_EDGE('',*,*,#88,.T.);
#639 = ORIENTED_EDGE('',*,*,#608,.T.);
#640 = PLANE('',#641);
#641 = AXIS2_PLACEMENT_3D('',#642,#643,#644);
#642 = CARTESIAN_POINT('',(-1.5,-7.5,-4.7));
#643 = DIRECTION('',(-8.840892098501E-16,4.440892098501E-16,1.));
#644 = DIRECTION('',(2.22044604925E-16,1.,-4.440892098501E-16));
#645 = ADVANCED_FACE('',(#646),#669,.F.);
#646 = FACE_BOUND('',#647,.F.);
#647 = EDGE_LOOP('',(#648,#649,#650,#651,#652,#653,#654,#655,#656,#657,
    #658,#659,#660,#661,#667,#668));
#648 = ORIENTED_EDGE('',*,*,#170,.T.);
#649 = ORIENTED_EDGE('',*,*,#201,.T.);
#650 = ORIENTED_EDGE('',*,*,#241,.T.);
#651 = ORIENTED_EDGE('',*,*,#348,.T.);
#652 = ORIENTED_EDGE('',*,*,#391,.T.);
#653 = ORIENTED_EDGE('',*,*,#488,.T.);
#654 = ORIENTED_EDGE('',*,*,#536,.T.);
#655 = ORIENTED_EDGE('',*,*,#584,.F.);
#656 = ORIENTED_EDGE('',*,*,#632,.T.);
#657 = ORIENTED_EDGE('',*,*,#616,.F.);
#658 = ORIENTED_EDGE('',*,*,#560,.F.);
#659 = ORIENTED_EDGE('',*,*,#512,.F.);
#660 = ORIENTED_EDGE('',*,*,#464,.T.);
#661 = ORIENTED_EDGE('',*,*,#662,.F.);
#662 = EDGE_CURVE('',#317,#457,#663,.T.);
#663 = LINE('',#664,#665);
#664 = CARTESIAN_POINT('',(-1.5,-6.7,5.7));
#665 = VECTOR('',#666,1.);
#666 = DIRECTION('',(1.,-2.22044604925E-16,8.840892098501E-16));
#667 = ORIENTED_EDGE('',*,*,#324,.F.);
#668 = ORIENTED_EDGE('',*,*,#226,.T.);
#669 = PLANE('',#670);
#670 = AXIS2_PLACEMENT_3D('',#671,#672,#673);
#671 = CARTESIAN_POINT('',(-1.5,-6.7,-4.7));
#672 = DIRECTION('',(-2.22044604925E-16,-1.,4.440892098501E-16));
#673 = DIRECTION('',(-8.840892098501E-16,4.440892098501E-16,1.));
#674 = ADVANCED_FACE('',(#675,#686),#697,.T.);
#675 = FACE_BOUND('',#676,.T.);
#676 = EDGE_LOOP('',(#677,#678,#679,#680));
#677 = ORIENTED_EDGE('',*,*,#275,.F.);
#678 = ORIENTED_EDGE('',*,*,#375,.T.);
#679 = ORIENTED_EDGE('',*,*,#415,.T.);
#680 = ORIENTED_EDGE('',*,*,#681,.F.);
#681 = EDGE_CURVE('',#276,#416,#682,.T.);
#682 = LINE('',#683,#684);
#683 = CARTESIAN_POINT('',(-1.5,-0.25,6.5));
#684 = VECTOR('',#685,1.);
#685 = DIRECTION('',(1.,-2.22044604925E-16,1.33408920985E-15));
#686 = FACE_BOUND('',#687,.T.);
#687 = EDGE_LOOP('',(#688));
#688 = ORIENTED_EDGE('',*,*,#689,.F.);
#689 = EDGE_CURVE('',#690,#690,#692,.T.);
#690 = VERTEX_POINT('',#691);
#691 = CARTESIAN_POINT('',(2.5,-2.25,6.5));
#692 = CIRCLE('',#693,1.25);
#693 = AXIS2_PLACEMENT_3D('',#694,#695,#696);
#694 = CARTESIAN_POINT('',(2.5,-3.5,6.5));
#695 = DIRECTION('',(-1.77408920985E-15,4.440892098501E-16,1.));
#696 = DIRECTION('',(2.22044604925E-16,1.,-4.440892098501E-16));
#697 = PLANE('',#698);
#698 = AXIS2_PLACEMENT_3D('',#699,#700,#701);
#699 = CARTESIAN_POINT('',(-1.5,-7.5,6.5));
#700 = DIRECTION('',(-8.840892098501E-16,4.440892098501E-16,1.));
#701 = DIRECTION('',(2.22044604925E-16,1.,-4.440892098501E-16));
#702 = ADVANCED_FACE('',(#703),#714,.T.);
#703 = FACE_BOUND('',#704,.F.);
#704 = EDGE_LOOP('',(#705,#706,#712,#713));
#705 = ORIENTED_EDGE('',*,*,#283,.T.);
#706 = ORIENTED_EDGE('',*,*,#707,.T.);
#707 = EDGE_CURVE('',#284,#424,#708,.T.);
#708 = LINE('',#709,#710);
#709 = CARTESIAN_POINT('',(-1.5,0.5,5.75));
#710 = VECTOR('',#711,1.);
#711 = DIRECTION('',(1.,-2.22044604925E-16,1.33408920985E-15));
#712 = ORIENTED_EDGE('',*,*,#423,.F.);
#713 = ORIENTED_EDGE('',*,*,#681,.F.);
#714 = CYLINDRICAL_SURFACE('',#715,0.75);
#715 = AXIS2_PLACEMENT_3D('',#716,#717,#718);
#716 = CARTESIAN_POINT('',(-1.5,-0.25,5.75));
#717 = DIRECTION('',(1.,-2.22044604925E-16,1.33408920985E-15));
#718 = DIRECTION('',(-1.33408920985E-15,4.440892098501E-16,1.));
#719 = ADVANCED_FACE('',(#720,#731),#742,.F.);
#720 = FACE_BOUND('',#721,.F.);
#721 = EDGE_LOOP('',(#722,#723,#724,#730));
#722 = ORIENTED_EDGE('',*,*,#662,.T.);
#723 = ORIENTED_EDGE('',*,*,#456,.T.);
#724 = ORIENTED_EDGE('',*,*,#725,.F.);
#725 = EDGE_CURVE('',#309,#449,#726,.T.);
#726 = LINE('',#727,#728);
#727 = CARTESIAN_POINT('',(-1.5,-0.3,5.7));
#728 = VECTOR('',#729,1.);
#729 = DIRECTION('',(1.,-2.22044604925E-16,8.840892098501E-16));
#730 = ORIENTED_EDGE('',*,*,#316,.F.);
#731 = FACE_BOUND('',#732,.F.);
#732 = EDGE_LOOP('',(#733));
#733 = ORIENTED_EDGE('',*,*,#734,.T.);
#734 = EDGE_CURVE('',#735,#735,#737,.T.);
#735 = VERTEX_POINT('',#736);
#736 = CARTESIAN_POINT('',(2.5,-2.25,5.7));
#737 = CIRCLE('',#738,1.25);
#738 = AXIS2_PLACEMENT_3D('',#739,#740,#741);
#739 = CARTESIAN_POINT('',(2.5,-3.5,5.7));
#740 = DIRECTION('',(1.77408920985E-15,-4.440892098501E-16,-1.));
#741 = DIRECTION('',(2.22044604925E-16,1.,-4.440892098501E-16));
#742 = PLANE('',#743);
#743 = AXIS2_PLACEMENT_3D('',#744,#745,#746);
#744 = CARTESIAN_POINT('',(-1.5,-6.7,5.7));
#745 = DIRECTION('',(-8.840892098501E-16,4.440892098501E-16,1.));
#746 = DIRECTION('',(2.22044604925E-16,1.,-4.440892098501E-16));
#747 = ADVANCED_FACE('',(#748),#859,.F.);
#748 = FACE_BOUND('',#749,.F.);
#749 = EDGE_LOOP('',(#750,#760,#769,#777,#786,#794,#802,#810,#819,#827,
    #836,#844,#850,#851,#852,#853));
#750 = ORIENTED_EDGE('',*,*,#751,.T.);
#751 = EDGE_CURVE('',#752,#754,#756,.T.);
#752 = VERTEX_POINT('',#753);
#753 = CARTESIAN_POINT('',(-0.75,0.5,5.E-02));
#754 = VERTEX_POINT('',#755);
#755 = CARTESIAN_POINT('',(-0.75,0.5,-4.));
#756 = LINE('',#757,#758);
#757 = CARTESIAN_POINT('',(-0.75,0.5,-2.325));
#758 = VECTOR('',#759,1.);
#759 = DIRECTION('',(6.640892098501E-16,-4.440892098501E-16,-1.));
#760 = ORIENTED_EDGE('',*,*,#761,.T.);
#761 = EDGE_CURVE('',#754,#762,#764,.T.);
#762 = VERTEX_POINT('',#763);
#763 = CARTESIAN_POINT('',(-4.999999999998E-02,0.5,-4.7));
#764 = CIRCLE('',#765,0.7);
#765 = AXIS2_PLACEMENT_3D('',#766,#767,#768);
#766 = CARTESIAN_POINT('',(-4.999999999998E-02,0.5,-4.));
#767 = DIRECTION('',(-2.22044604925E-16,-1.,2.240892098501E-16));
#768 = DIRECTION('',(-4.440892098501E-16,2.240892098501E-16,1.));
#769 = ORIENTED_EDGE('',*,*,#770,.T.);
#770 = EDGE_CURVE('',#762,#771,#773,.T.);
#771 = VERTEX_POINT('',#772);
#772 = CARTESIAN_POINT('',(5.000000000002E-02,0.5,-4.7));
#773 = LINE('',#774,#775);
#774 = CARTESIAN_POINT('',(-1.5,0.5,-4.7));
#775 = VECTOR('',#776,1.);
#776 = DIRECTION('',(1.,-2.22044604925E-16,8.840892098501E-16));
#777 = ORIENTED_EDGE('',*,*,#778,.T.);
#778 = EDGE_CURVE('',#771,#779,#781,.T.);
#779 = VERTEX_POINT('',#780);
#780 = CARTESIAN_POINT('',(0.75,0.5,-4.));
#781 = CIRCLE('',#782,0.7);
#782 = AXIS2_PLACEMENT_3D('',#783,#784,#785);
#783 = CARTESIAN_POINT('',(5.000000000001E-02,0.5,-4.));
#784 = DIRECTION('',(-2.22044604925E-16,-1.,2.240892098501E-16));
#785 = DIRECTION('',(-4.440892098501E-16,2.240892098501E-16,1.));
#786 = ORIENTED_EDGE('',*,*,#787,.T.);
#787 = EDGE_CURVE('',#779,#788,#790,.T.);
#788 = VERTEX_POINT('',#789);
#789 = CARTESIAN_POINT('',(0.75,0.5,1.2));
#790 = LINE('',#791,#792);
#791 = CARTESIAN_POINT('',(0.75,0.5,-4.7));
#792 = VECTOR('',#793,1.);
#793 = DIRECTION('',(-6.640892098501E-16,4.440892098501E-16,1.));
#794 = ORIENTED_EDGE('',*,*,#795,.T.);
#795 = EDGE_CURVE('',#788,#796,#798,.T.);
#796 = VERTEX_POINT('',#797);
#797 = CARTESIAN_POINT('',(4.25,0.5,1.2));
#798 = LINE('',#799,#800);
#799 = CARTESIAN_POINT('',(-0.375,0.5,1.2));
#800 = VECTOR('',#801,1.);
#801 = DIRECTION('',(1.,-2.22044604925E-16,6.640892098501E-16));
#802 = ORIENTED_EDGE('',*,*,#803,.T.);
#803 = EDGE_CURVE('',#796,#804,#806,.T.);
#804 = VERTEX_POINT('',#805);
#805 = CARTESIAN_POINT('',(4.25,0.5,-4.));
#806 = LINE('',#807,#808);
#807 = CARTESIAN_POINT('',(4.25,0.5,-1.75));
#808 = VECTOR('',#809,1.);
#809 = DIRECTION('',(6.640892098501E-16,-4.440892098501E-16,-1.));
#810 = ORIENTED_EDGE('',*,*,#811,.F.);
#811 = EDGE_CURVE('',#812,#804,#814,.T.);
#812 = VERTEX_POINT('',#813);
#813 = CARTESIAN_POINT('',(4.95,0.5,-4.7));
#814 = CIRCLE('',#815,0.7);
#815 = AXIS2_PLACEMENT_3D('',#816,#817,#818);
#816 = CARTESIAN_POINT('',(4.95,0.5,-4.));
#817 = DIRECTION('',(2.22044604925E-16,1.,-2.240892098501E-16));
#818 = DIRECTION('',(-4.440892098501E-16,2.240892098501E-16,1.));
#819 = ORIENTED_EDGE('',*,*,#820,.T.);
#820 = EDGE_CURVE('',#812,#821,#823,.T.);
#821 = VERTEX_POINT('',#822);
#822 = CARTESIAN_POINT('',(5.05,0.5,-4.7));
#823 = LINE('',#824,#825);
#824 = CARTESIAN_POINT('',(-1.5,0.5,-4.7));
#825 = VECTOR('',#826,1.);
#826 = DIRECTION('',(1.,-2.22044604925E-16,8.840892098501E-16));
#827 = ORIENTED_EDGE('',*,*,#828,.F.);
#828 = EDGE_CURVE('',#829,#821,#831,.T.);
#829 = VERTEX_POINT('',#830);
#830 = CARTESIAN_POINT('',(5.75,0.5,-4.));
#831 = CIRCLE('',#832,0.7);
#832 = AXIS2_PLACEMENT_3D('',#833,#834,#835);
#833 = CARTESIAN_POINT('',(5.05,0.5,-4.));
#834 = DIRECTION('',(2.22044604925E-16,1.,-2.240892098501E-16));
#835 = DIRECTION('',(-4.440892098501E-16,2.240892098501E-16,1.));
#836 = ORIENTED_EDGE('',*,*,#837,.F.);
#837 = EDGE_CURVE('',#838,#829,#840,.T.);
#838 = VERTEX_POINT('',#839);
#839 = CARTESIAN_POINT('',(5.75,0.5,5.000000000001E-02));
#840 = LINE('',#841,#842);
#841 = CARTESIAN_POINT('',(5.75,0.5,-2.325));
#842 = VECTOR('',#843,1.);
#843 = DIRECTION('',(6.640892098501E-16,-4.440892098501E-16,-1.));
#844 = ORIENTED_EDGE('',*,*,#845,.F.);
#845 = EDGE_CURVE('',#433,#838,#846,.T.);
#846 = LINE('',#847,#848);
#847 = CARTESIAN_POINT('',(2.5,0.5,5.E-02));
#848 = VECTOR('',#849,1.);
#849 = DIRECTION('',(-1.,2.22044604925E-16,-6.640892098501E-16));
#850 = ORIENTED_EDGE('',*,*,#432,.T.);
#851 = ORIENTED_EDGE('',*,*,#707,.F.);
#852 = ORIENTED_EDGE('',*,*,#292,.F.);
#853 = ORIENTED_EDGE('',*,*,#854,.T.);
#854 = EDGE_CURVE('',#293,#752,#855,.T.);
#855 = LINE('',#856,#857);
#856 = CARTESIAN_POINT('',(-1.5,0.5,5.E-02));
#857 = VECTOR('',#858,1.);
#858 = DIRECTION('',(1.,-2.22044604925E-16,6.640892098501E-16));
#859 = PLANE('',#860);
#860 = AXIS2_PLACEMENT_3D('',#861,#862,#863);
#861 = CARTESIAN_POINT('',(-1.5,0.5,-4.7));
#862 = DIRECTION('',(-2.22044604925E-16,-1.,4.440892098501E-16));
#863 = DIRECTION('',(-8.840892098501E-16,4.440892098501E-16,1.));
#864 = ADVANCED_FACE('',(#865),#976,.F.);
#865 = FACE_BOUND('',#866,.F.);
#866 = EDGE_LOOP('',(#867,#877,#883,#884,#885,#886,#894,#902,#911,#919,
    #928,#936,#944,#952,#961,#969));
#867 = ORIENTED_EDGE('',*,*,#868,.T.);
#868 = EDGE_CURVE('',#869,#871,#873,.T.);
#869 = VERTEX_POINT('',#870);
#870 = CARTESIAN_POINT('',(-0.75,-0.3,-4.));
#871 = VERTEX_POINT('',#872);
#872 = CARTESIAN_POINT('',(-0.75,-0.3,5.E-02));
#873 = LINE('',#874,#875);
#874 = CARTESIAN_POINT('',(-0.75,-0.3,2.875));
#875 = VECTOR('',#876,1.);
#876 = DIRECTION('',(-6.640892098501E-16,4.440892098501E-16,1.));
#877 = ORIENTED_EDGE('',*,*,#878,.T.);
#878 = EDGE_CURVE('',#871,#301,#879,.T.);
#879 = LINE('',#880,#881);
#880 = CARTESIAN_POINT('',(-1.5,-0.3,5.E-02));
#881 = VECTOR('',#882,1.);
#882 = DIRECTION('',(-1.,2.22044604925E-16,-6.640892098501E-16));
#883 = ORIENTED_EDGE('',*,*,#308,.F.);
#884 = ORIENTED_EDGE('',*,*,#725,.T.);
#885 = ORIENTED_EDGE('',*,*,#448,.T.);
#886 = ORIENTED_EDGE('',*,*,#887,.F.);
#887 = EDGE_CURVE('',#888,#441,#890,.T.);
#888 = VERTEX_POINT('',#889);
#889 = CARTESIAN_POINT('',(5.75,-0.3,5.000000000001E-02));
#890 = LINE('',#891,#892);
#891 = CARTESIAN_POINT('',(2.5,-0.3,5.E-02));
#892 = VECTOR('',#893,1.);
#893 = DIRECTION('',(1.,-2.22044604925E-16,6.640892098501E-16));
#894 = ORIENTED_EDGE('',*,*,#895,.F.);
#895 = EDGE_CURVE('',#896,#888,#898,.T.);
#896 = VERTEX_POINT('',#897);
#897 = CARTESIAN_POINT('',(5.75,-0.3,-4.));
#898 = LINE('',#899,#900);
#899 = CARTESIAN_POINT('',(5.75,-0.3,2.875));
#900 = VECTOR('',#901,1.);
#901 = DIRECTION('',(-6.640892098501E-16,4.440892098501E-16,1.));
#902 = ORIENTED_EDGE('',*,*,#903,.T.);
#903 = EDGE_CURVE('',#896,#904,#906,.T.);
#904 = VERTEX_POINT('',#905);
#905 = CARTESIAN_POINT('',(5.05,-0.3,-4.7));
#906 = CIRCLE('',#907,0.7);
#907 = AXIS2_PLACEMENT_3D('',#908,#909,#910);
#908 = CARTESIAN_POINT('',(5.05,-0.3,-4.));
#909 = DIRECTION('',(2.22044604925E-16,1.,-2.240892098501E-16));
#910 = DIRECTION('',(-4.440892098501E-16,2.240892098501E-16,1.));
#911 = ORIENTED_EDGE('',*,*,#912,.F.);
#912 = EDGE_CURVE('',#913,#904,#915,.T.);
#913 = VERTEX_POINT('',#914);
#914 = CARTESIAN_POINT('',(4.95,-0.3,-4.7));
#915 = LINE('',#916,#917);
#916 = CARTESIAN_POINT('',(-1.5,-0.3,-4.7));
#917 = VECTOR('',#918,1.);
#918 = DIRECTION('',(1.,-2.22044604925E-16,8.840892098501E-16));
#919 = ORIENTED_EDGE('',*,*,#920,.T.);
#920 = EDGE_CURVE('',#913,#921,#923,.T.);
#921 = VERTEX_POINT('',#922);
#922 = CARTESIAN_POINT('',(4.25,-0.3,-4.));
#923 = CIRCLE('',#924,0.7);
#924 = AXIS2_PLACEMENT_3D('',#925,#926,#927);
#925 = CARTESIAN_POINT('',(4.95,-0.3,-4.));
#926 = DIRECTION('',(2.22044604925E-16,1.,-2.240892098501E-16));
#927 = DIRECTION('',(-4.440892098501E-16,2.240892098501E-16,1.));
#928 = ORIENTED_EDGE('',*,*,#929,.T.);
#929 = EDGE_CURVE('',#921,#930,#932,.T.);
#930 = VERTEX_POINT('',#931);
#931 = CARTESIAN_POINT('',(4.25,-0.3,1.2));
#932 = LINE('',#933,#934);
#933 = CARTESIAN_POINT('',(4.25,-0.3,3.45));
#934 = VECTOR('',#935,1.);
#935 = DIRECTION('',(-6.640892098501E-16,4.440892098501E-16,1.));
#936 = ORIENTED_EDGE('',*,*,#937,.T.);
#937 = EDGE_CURVE('',#930,#938,#940,.T.);
#938 = VERTEX_POINT('',#939);
#939 = CARTESIAN_POINT('',(0.75,-0.3,1.2));
#940 = LINE('',#941,#942);
#941 = CARTESIAN_POINT('',(-0.375,-0.3,1.2));
#942 = VECTOR('',#943,1.);
#943 = DIRECTION('',(-1.,2.22044604925E-16,-6.640892098501E-16));
#944 = ORIENTED_EDGE('',*,*,#945,.T.);
#945 = EDGE_CURVE('',#938,#946,#948,.T.);
#946 = VERTEX_POINT('',#947);
#947 = CARTESIAN_POINT('',(0.75,-0.3,-4.));
#948 = LINE('',#949,#950);
#949 = CARTESIAN_POINT('',(0.75,-0.3,0.5));
#950 = VECTOR('',#951,1.);
#951 = DIRECTION('',(6.640892098501E-16,-4.440892098501E-16,-1.));
#952 = ORIENTED_EDGE('',*,*,#953,.F.);
#953 = EDGE_CURVE('',#954,#946,#956,.T.);
#954 = VERTEX_POINT('',#955);
#955 = CARTESIAN_POINT('',(5.000000000002E-02,-0.3,-4.7));
#956 = CIRCLE('',#957,0.7);
#957 = AXIS2_PLACEMENT_3D('',#958,#959,#960);
#958 = CARTESIAN_POINT('',(5.000000000001E-02,-0.3,-4.));
#959 = DIRECTION('',(-2.22044604925E-16,-1.,2.240892098501E-16));
#960 = DIRECTION('',(-4.440892098501E-16,2.240892098501E-16,1.));
#961 = ORIENTED_EDGE('',*,*,#962,.F.);
#962 = EDGE_CURVE('',#963,#954,#965,.T.);
#963 = VERTEX_POINT('',#964);
#964 = CARTESIAN_POINT('',(-4.999999999998E-02,-0.3,-4.7));
#965 = LINE('',#966,#967);
#966 = CARTESIAN_POINT('',(-1.5,-0.3,-4.7));
#967 = VECTOR('',#968,1.);
#968 = DIRECTION('',(1.,-2.22044604925E-16,8.840892098501E-16));
#969 = ORIENTED_EDGE('',*,*,#970,.F.);
#970 = EDGE_CURVE('',#869,#963,#971,.T.);
#971 = CIRCLE('',#972,0.7);
#972 = AXIS2_PLACEMENT_3D('',#973,#974,#975);
#973 = CARTESIAN_POINT('',(-4.999999999998E-02,-0.3,-4.));
#974 = DIRECTION('',(-2.22044604925E-16,-1.,2.240892098501E-16));
#975 = DIRECTION('',(-4.440892098501E-16,2.240892098501E-16,1.));
#976 = PLANE('',#977);
#977 = AXIS2_PLACEMENT_3D('',#978,#979,#980);
#978 = CARTESIAN_POINT('',(-1.5,-0.3,5.7));
#979 = DIRECTION('',(2.22044604925E-16,1.,-4.440892098501E-16));
#980 = DIRECTION('',(8.840892098501E-16,-4.440892098501E-16,-1.));
#981 = ADVANCED_FACE('',(#982),#993,.T.);
#982 = FACE_BOUND('',#983,.T.);
#983 = EDGE_LOOP('',(#984,#985,#986,#987));
#984 = ORIENTED_EDGE('',*,*,#878,.T.);
#985 = ORIENTED_EDGE('',*,*,#300,.T.);
#986 = ORIENTED_EDGE('',*,*,#854,.T.);
#987 = ORIENTED_EDGE('',*,*,#988,.F.);
#988 = EDGE_CURVE('',#871,#752,#989,.T.);
#989 = LINE('',#990,#991);
#990 = CARTESIAN_POINT('',(-0.75,-7.5,5.E-02));
#991 = VECTOR('',#992,1.);
#992 = DIRECTION('',(2.22044604925E-16,1.,-2.240892098501E-16));
#993 = PLANE('',#994);
#994 = AXIS2_PLACEMENT_3D('',#995,#996,#997);
#995 = CARTESIAN_POINT('',(-1.5,-7.5,5.E-02));
#996 = DIRECTION('',(6.640892098501E-16,-2.240892098501E-16,-1.));
#997 = DIRECTION('',(1.,-2.22044604925E-16,6.640892098501E-16));
#998 = ADVANCED_FACE('',(#999),#1010,.F.);
#999 = FACE_BOUND('',#1000,.F.);
#1000 = EDGE_LOOP('',(#1001,#1002,#1003,#1004));
#1001 = ORIENTED_EDGE('',*,*,#887,.T.);
#1002 = ORIENTED_EDGE('',*,*,#440,.T.);
#1003 = ORIENTED_EDGE('',*,*,#845,.T.);
#1004 = ORIENTED_EDGE('',*,*,#1005,.F.);
#1005 = EDGE_CURVE('',#888,#838,#1006,.T.);
#1006 = LINE('',#1007,#1008);
#1007 = CARTESIAN_POINT('',(5.75,-7.5,5.000000000001E-02));
#1008 = VECTOR('',#1009,1.);
#1009 = DIRECTION('',(2.22044604925E-16,1.,-2.240892098501E-16));
#1010 = PLANE('',#1011);
#1011 = AXIS2_PLACEMENT_3D('',#1012,#1013,#1014);
#1012 = CARTESIAN_POINT('',(6.5,-7.5,5.000000000001E-02));
#1013 = DIRECTION('',(-6.640892098501E-16,2.240892098501E-16,1.));
#1014 = DIRECTION('',(-1.,2.22044604925E-16,-6.640892098501E-16));
#1015 = ADVANCED_FACE('',(#1016),#1027,.F.);
#1016 = FACE_BOUND('',#1017,.T.);
#1017 = EDGE_LOOP('',(#1018,#1024,#1025,#1026));
#1018 = ORIENTED_EDGE('',*,*,#1019,.F.);
#1019 = EDGE_CURVE('',#690,#735,#1020,.T.);
#1020 = LINE('',#1021,#1022);
#1021 = CARTESIAN_POINT('',(2.5,-2.25,6.5));
#1022 = VECTOR('',#1023,1.);
#1023 = DIRECTION('',(1.77408920985E-15,-5.040892098501E-16,-1.));
#1024 = ORIENTED_EDGE('',*,*,#689,.T.);
#1025 = ORIENTED_EDGE('',*,*,#1019,.T.);
#1026 = ORIENTED_EDGE('',*,*,#734,.T.);
#1027 = CYLINDRICAL_SURFACE('',#1028,1.25);
#1028 = AXIS2_PLACEMENT_3D('',#1029,#1030,#1031);
#1029 = CARTESIAN_POINT('',(2.5,-3.5,6.5));
#1030 = DIRECTION('',(1.77408920985E-15,-4.440892098501E-16,-1.));
#1031 = DIRECTION('',(2.22044604925E-16,1.,-4.440892098501E-16));
#1032 = ADVANCED_FACE('',(#1033),#1044,.T.);
#1033 = FACE_BOUND('',#1034,.T.);
#1034 = EDGE_LOOP('',(#1035,#1036,#1037,#1038));
#1035 = ORIENTED_EDGE('',*,*,#868,.T.);
#1036 = ORIENTED_EDGE('',*,*,#988,.T.);
#1037 = ORIENTED_EDGE('',*,*,#751,.T.);
#1038 = ORIENTED_EDGE('',*,*,#1039,.F.);
#1039 = EDGE_CURVE('',#869,#754,#1040,.T.);
#1040 = LINE('',#1041,#1042);
#1041 = CARTESIAN_POINT('',(-0.75,-0.3,-4.));
#1042 = VECTOR('',#1043,1.);
#1043 = DIRECTION('',(2.22044604925E-16,1.,-2.240892098501E-16));
#1044 = PLANE('',#1045);
#1045 = AXIS2_PLACEMENT_3D('',#1046,#1047,#1048);
#1046 = CARTESIAN_POINT('',(-0.75,-7.5,5.E-02));
#1047 = DIRECTION('',(-1.,2.22044604925E-16,-6.640892098501E-16));
#1048 = DIRECTION('',(6.640892098501E-16,-2.240892098501E-16,-1.));
#1049 = ADVANCED_FACE('',(#1050),#1061,.T.);
#1050 = FACE_BOUND('',#1051,.F.);
#1051 = EDGE_LOOP('',(#1052,#1053,#1059,#1060));
#1052 = ORIENTED_EDGE('',*,*,#970,.T.);
#1053 = ORIENTED_EDGE('',*,*,#1054,.T.);
#1054 = EDGE_CURVE('',#963,#762,#1055,.T.);
#1055 = LINE('',#1056,#1057);
#1056 = CARTESIAN_POINT('',(-4.999999999998E-02,-0.3,-4.7));
#1057 = VECTOR('',#1058,1.);
#1058 = DIRECTION('',(2.22044604925E-16,1.,-2.240892098501E-16));
#1059 = ORIENTED_EDGE('',*,*,#761,.F.);
#1060 = ORIENTED_EDGE('',*,*,#1039,.F.);
#1061 = CYLINDRICAL_SURFACE('',#1062,0.7);
#1062 = AXIS2_PLACEMENT_3D('',#1063,#1064,#1065);
#1063 = CARTESIAN_POINT('',(-4.999999999998E-02,-0.3,-4.));
#1064 = DIRECTION('',(2.22044604925E-16,1.,-2.240892098501E-16));
#1065 = DIRECTION('',(-1.,2.22044604925E-16,-6.640892098501E-16));
#1066 = ADVANCED_FACE('',(#1067),#1078,.F.);
#1067 = FACE_BOUND('',#1068,.F.);
#1068 = EDGE_LOOP('',(#1069,#1070,#1071,#1072));
#1069 = ORIENTED_EDGE('',*,*,#770,.F.);
#1070 = ORIENTED_EDGE('',*,*,#1054,.F.);
#1071 = ORIENTED_EDGE('',*,*,#962,.T.);
#1072 = ORIENTED_EDGE('',*,*,#1073,.T.);
#1073 = EDGE_CURVE('',#954,#771,#1074,.T.);
#1074 = LINE('',#1075,#1076);
#1075 = CARTESIAN_POINT('',(5.000000000002E-02,-0.3,-4.7));
#1076 = VECTOR('',#1077,1.);
#1077 = DIRECTION('',(2.22044604925E-16,1.,-2.240892098501E-16));
#1078 = PLANE('',#1079);
#1079 = AXIS2_PLACEMENT_3D('',#1080,#1081,#1082);
#1080 = CARTESIAN_POINT('',(-1.5,-0.3,-4.7));
#1081 = DIRECTION('',(-8.840892098501E-16,4.440892098501E-16,1.));
#1082 = DIRECTION('',(2.22044604925E-16,1.,-4.440892098501E-16));
#1083 = ADVANCED_FACE('',(#1084),#1095,.T.);
#1084 = FACE_BOUND('',#1085,.F.);
#1085 = EDGE_LOOP('',(#1086,#1087,#1093,#1094));
#1086 = ORIENTED_EDGE('',*,*,#953,.T.);
#1087 = ORIENTED_EDGE('',*,*,#1088,.T.);
#1088 = EDGE_CURVE('',#946,#779,#1089,.T.);
#1089 = LINE('',#1090,#1091);
#1090 = CARTESIAN_POINT('',(0.75,-0.3,-4.));
#1091 = VECTOR('',#1092,1.);
#1092 = DIRECTION('',(2.22044604925E-16,1.,-2.240892098501E-16));
#1093 = ORIENTED_EDGE('',*,*,#778,.F.);
#1094 = ORIENTED_EDGE('',*,*,#1073,.F.);
#1095 = CYLINDRICAL_SURFACE('',#1096,0.7);
#1096 = AXIS2_PLACEMENT_3D('',#1097,#1098,#1099);
#1097 = CARTESIAN_POINT('',(5.000000000001E-02,-0.3,-4.));
#1098 = DIRECTION('',(2.22044604925E-16,1.,-2.240892098501E-16));
#1099 = DIRECTION('',(1.33408920985E-15,-2.240892098501E-16,-1.));
#1100 = ADVANCED_FACE('',(#1101),#1112,.T.);
#1101 = FACE_BOUND('',#1102,.T.);
#1102 = EDGE_LOOP('',(#1103,#1104,#1105,#1106));
#1103 = ORIENTED_EDGE('',*,*,#945,.T.);
#1104 = ORIENTED_EDGE('',*,*,#1088,.T.);
#1105 = ORIENTED_EDGE('',*,*,#787,.T.);
#1106 = ORIENTED_EDGE('',*,*,#1107,.F.);
#1107 = EDGE_CURVE('',#938,#788,#1108,.T.);
#1108 = LINE('',#1109,#1110);
#1109 = CARTESIAN_POINT('',(0.75,-7.5,1.2));
#1110 = VECTOR('',#1111,1.);
#1111 = DIRECTION('',(2.22044604925E-16,1.,-2.240892098501E-16));
#1112 = PLANE('',#1113);
#1113 = AXIS2_PLACEMENT_3D('',#1114,#1115,#1116);
#1114 = CARTESIAN_POINT('',(0.75,-7.5,-4.7));
#1115 = DIRECTION('',(1.,-2.22044604925E-16,6.640892098501E-16));
#1116 = DIRECTION('',(-6.640892098501E-16,2.240892098501E-16,1.));
#1117 = ADVANCED_FACE('',(#1118),#1129,.T.);
#1118 = FACE_BOUND('',#1119,.T.);
#1119 = EDGE_LOOP('',(#1120,#1121,#1122,#1123));
#1120 = ORIENTED_EDGE('',*,*,#937,.T.);
#1121 = ORIENTED_EDGE('',*,*,#1107,.T.);
#1122 = ORIENTED_EDGE('',*,*,#795,.T.);
#1123 = ORIENTED_EDGE('',*,*,#1124,.F.);
#1124 = EDGE_CURVE('',#930,#796,#1125,.T.);
#1125 = LINE('',#1126,#1127);
#1126 = CARTESIAN_POINT('',(4.25,-7.5,1.2));
#1127 = VECTOR('',#1128,1.);
#1128 = DIRECTION('',(2.22044604925E-16,1.,-2.240892098501E-16));
#1129 = PLANE('',#1130);
#1130 = AXIS2_PLACEMENT_3D('',#1131,#1132,#1133);
#1131 = CARTESIAN_POINT('',(0.75,-7.5,1.2));
#1132 = DIRECTION('',(6.640892098501E-16,-2.240892098501E-16,-1.));
#1133 = DIRECTION('',(1.,-2.22044604925E-16,6.640892098501E-16));
#1134 = ADVANCED_FACE('',(#1135),#1146,.T.);
#1135 = FACE_BOUND('',#1136,.T.);
#1136 = EDGE_LOOP('',(#1137,#1138,#1139,#1140));
#1137 = ORIENTED_EDGE('',*,*,#929,.T.);
#1138 = ORIENTED_EDGE('',*,*,#1124,.T.);
#1139 = ORIENTED_EDGE('',*,*,#803,.T.);
#1140 = ORIENTED_EDGE('',*,*,#1141,.F.);
#1141 = EDGE_CURVE('',#921,#804,#1142,.T.);
#1142 = LINE('',#1143,#1144);
#1143 = CARTESIAN_POINT('',(4.25,-0.3,-4.));
#1144 = VECTOR('',#1145,1.);
#1145 = DIRECTION('',(2.22044604925E-16,1.,-2.240892098501E-16));
#1146 = PLANE('',#1147);
#1147 = AXIS2_PLACEMENT_3D('',#1148,#1149,#1150);
#1148 = CARTESIAN_POINT('',(4.25,-7.5,1.2));
#1149 = DIRECTION('',(-1.,2.22044604925E-16,-6.640892098501E-16));
#1150 = DIRECTION('',(6.640892098501E-16,-2.240892098501E-16,-1.));
#1151 = ADVANCED_FACE('',(#1152),#1163,.F.);
#1152 = FACE_BOUND('',#1153,.F.);
#1153 = EDGE_LOOP('',(#1154,#1155,#1156,#1157));
#1154 = ORIENTED_EDGE('',*,*,#895,.T.);
#1155 = ORIENTED_EDGE('',*,*,#1005,.T.);
#1156 = ORIENTED_EDGE('',*,*,#837,.T.);
#1157 = ORIENTED_EDGE('',*,*,#1158,.F.);
#1158 = EDGE_CURVE('',#896,#829,#1159,.T.);
#1159 = LINE('',#1160,#1161);
#1160 = CARTESIAN_POINT('',(5.75,-0.3,-4.));
#1161 = VECTOR('',#1162,1.);
#1162 = DIRECTION('',(2.22044604925E-16,1.,-2.240892098501E-16));
#1163 = PLANE('',#1164);
#1164 = AXIS2_PLACEMENT_3D('',#1165,#1166,#1167);
#1165 = CARTESIAN_POINT('',(5.75,-7.5,5.000000000001E-02));
#1166 = DIRECTION('',(-1.,2.22044604925E-16,-6.640892098501E-16));
#1167 = DIRECTION('',(6.640892098501E-16,-2.240892098501E-16,-1.));
#1168 = ADVANCED_FACE('',(#1169),#1180,.T.);
#1169 = FACE_BOUND('',#1170,.T.);
#1170 = EDGE_LOOP('',(#1171,#1172,#1173,#1174));
#1171 = ORIENTED_EDGE('',*,*,#920,.T.);
#1172 = ORIENTED_EDGE('',*,*,#1141,.T.);
#1173 = ORIENTED_EDGE('',*,*,#811,.F.);
#1174 = ORIENTED_EDGE('',*,*,#1175,.F.);
#1175 = EDGE_CURVE('',#913,#812,#1176,.T.);
#1176 = LINE('',#1177,#1178);
#1177 = CARTESIAN_POINT('',(4.95,-0.3,-4.7));
#1178 = VECTOR('',#1179,1.);
#1179 = DIRECTION('',(2.22044604925E-16,1.,-2.240892098501E-16));
#1180 = CYLINDRICAL_SURFACE('',#1181,0.7);
#1181 = AXIS2_PLACEMENT_3D('',#1182,#1183,#1184);
#1182 = CARTESIAN_POINT('',(4.95,-0.3,-4.));
#1183 = DIRECTION('',(2.22044604925E-16,1.,-2.240892098501E-16));
#1184 = DIRECTION('',(1.33408920985E-15,-2.240892098501E-16,-1.));
#1185 = ADVANCED_FACE('',(#1186),#1197,.T.);
#1186 = FACE_BOUND('',#1187,.T.);
#1187 = EDGE_LOOP('',(#1188,#1189,#1195,#1196));
#1188 = ORIENTED_EDGE('',*,*,#903,.T.);
#1189 = ORIENTED_EDGE('',*,*,#1190,.T.);
#1190 = EDGE_CURVE('',#904,#821,#1191,.T.);
#1191 = LINE('',#1192,#1193);
#1192 = CARTESIAN_POINT('',(5.05,-0.3,-4.7));
#1193 = VECTOR('',#1194,1.);
#1194 = DIRECTION('',(2.22044604925E-16,1.,-2.240892098501E-16));
#1195 = ORIENTED_EDGE('',*,*,#828,.F.);
#1196 = ORIENTED_EDGE('',*,*,#1158,.F.);
#1197 = CYLINDRICAL_SURFACE('',#1198,0.7);
#1198 = AXIS2_PLACEMENT_3D('',#1199,#1200,#1201);
#1199 = CARTESIAN_POINT('',(5.05,-0.3,-4.));
#1200 = DIRECTION('',(2.22044604925E-16,1.,-2.240892098501E-16));
#1201 = DIRECTION('',(1.,-2.22044604925E-16,6.640892098501E-16));
#1202 = ADVANCED_FACE('',(#1203),#1209,.F.);
#1203 = FACE_BOUND('',#1204,.F.);
#1204 = EDGE_LOOP('',(#1205,#1206,#1207,#1208));
#1205 = ORIENTED_EDGE('',*,*,#820,.F.);
#1206 = ORIENTED_EDGE('',*,*,#1175,.F.);
#1207 = ORIENTED_EDGE('',*,*,#912,.T.);
#1208 = ORIENTED_EDGE('',*,*,#1190,.T.);
#1209 = PLANE('',#1210);
#1210 = AXIS2_PLACEMENT_3D('',#1211,#1212,#1213);
#1211 = CARTESIAN_POINT('',(-1.5,-0.3,-4.7));
#1212 = DIRECTION('',(-8.840892098501E-16,4.440892098501E-16,1.));
#1213 = DIRECTION('',(2.22044604925E-16,1.,-4.440892098501E-16));
#1214 = ( GEOMETRIC_REPRESENTATION_CONTEXT(3) 
GLOBAL_UNCERTAINTY_ASSIGNED_CONTEXT((#1218)) 
GLOBAL_UNIT_ASSIGNED_CONTEXT((#1215,#1216,#1217)) REPRESENTATION_CONTEXT
('Context #1','3D Context with UNIT and UNCERTAINTY') );
#1215 = ( LENGTH_UNIT() NAMED_UNIT(*) SI_UNIT(.MILLI.,.METRE.) );
#1216 = ( NAMED_UNIT(*) PLANE_ANGLE_UNIT() SI_UNIT($,.RADIAN.) );
#1217 = ( NAMED_UNIT(*) SI_UNIT($,.STERADIAN.) SOLID_ANGLE_UNIT() );
#1218 = UNCERTAINTY_MEASURE_WITH_UNIT(LENGTH_MEASURE(1.E-07),#1215,
  'distance_accuracy_value','confusion accuracy');
#1219 = PRODUCT_RELATED_PRODUCT_CATEGORY('part',$,(#7));
#1220 = MECHANICAL_DESIGN_GEOMETRIC_PRESENTATION_REPRESENTATION('',(
    #1221),#1214);
#1221 = STYLED_ITEM('color',(#1222),#15);
#1222 = PRESENTATION_STYLE_ASSIGNMENT((#1223,#1229));
#1223 = SURFACE_STYLE_USAGE(.BOTH.,#1224);
#1224 = SURFACE_SIDE_STYLE('',(#1225));
#1225 = SURFACE_STYLE_FILL_AREA(#1226);
#1226 = FILL_AREA_STYLE('',(#1227));
#1227 = FILL_AREA_STYLE_COLOUR('',#1228);
#1228 = COLOUR_RGB('',0.85900002718,0.737999975681,0.495999991894);
#1229 = CURVE_STYLE('',#1230,POSITIVE_LENGTH_MEASURE(0.1),#1228);
#1230 = DRAUGHTING_PRE_DEFINED_CURVE_FONT('continuous');
ENDSEC;
END-ISO-10303-21;
