#VRML V2.0 utf8
#kicad StepUp wrl exported

Shape {
    appearance Appearance {material DEF PIN-01 Material {
        ambientIntensity 0.271
        diffuseColor 0.824 0.820 0.781
        specularColor 0.328 0.258 0.172
        emissiveColor 0.0 0.0 0.0
        shininess 0.70
        transparency 0.0
        }
    }
}
Shape {
    appearance Appearance {material DEF MET-01 Material {
        ambientIntensity 0.249999
        diffuseColor 0.298 0.298 0.298
        specularColor 0.398 0.398 0.398
        emissiveColor 0.0 0.0 0.0
        shininess 0.056122
        transparency 0.0
        }
    }
}
Shape {
    appearance Appearance {material DEF PIN-02 Material {
        ambientIntensity 0.379
        diffuseColor 0.859 0.738 0.496
        specularColor 0.137 0.145 0.184
        emissiveColor 0.0 0.0 0.0
        shininess 0.40
        transparency 0.0
        }
    }
}
Shape {
    appearance Appearance {material DEF IC-BODY-EPOXY-04 Material {
        ambientIntensity 0.293
        diffuseColor 0.148 0.145 0.145
        specularColor 0.180 0.168 0.160
        emissiveColor 0.0 0.0 0.0
        shininess 0.35
        transparency 0.0
        }
    }
}
Shape {
    appearance Appearance {material DEF RES-SMD-01 Material {
        diffuseColor 0.082 0.086 0.094
        emissiveColor 0.000 0.000 0.000
        specularColor 0.066 0.063 0.063
        ambientIntensity 0.638
        transparency 0.0
        shininess 0.3
        }
    }
}
Shape {
    appearance Appearance {material DEF IC-BODY-EPOXY-01 Material {
        ambientIntensity 0.117
        diffuseColor 0.250 0.262 0.281
        specularColor 0.316 0.281 0.176
        emissiveColor 0.0 0.0 0.0
        shininess 0.25
        transparency 0.0
        }
    }
}
Shape {
    appearance Appearance {material DEF CAP-CERAMIC-05 Material {
        ambientIntensity 0.179
        diffuseColor 0.273 0.273 0.273
        specularColor 0.203 0.188 0.176
        emissiveColor 0.0 0.0 0.0
        shininess 0.15
        transparency 0.0
        }
    }
}
Shape {
    appearance Appearance {material DEF CAP-CERAMIC-06 Material {
        ambientIntensity 0.453
        diffuseColor 0.379 0.270 0.215
        specularColor 0.223 0.223 0.223
        emissiveColor 0.0 0.0 0.0
        shininess 0.15
        transparency 0.0
        }
    }
}
Shape {
    appearance Appearance {material DEF RES-THT-01 Material {
        ambientIntensity 0.149
        diffuseColor 0.883 0.711 0.492
        specularColor 0.043 0.121 0.281
        emissiveColor 0.0 0.0 0.0
        shininess 0.40
        transparency 0.0
        }
    }
}
Shape {
    appearance Appearance {material DEF PLASTIC-BLUE-01 Material {
        ambientIntensity 0.565
        diffuseColor 0.137 0.402 0.727
        specularColor 0.359 0.379 0.270
        emissiveColor 0.0 0.0 0.0
        shininess 0.25
        transparency 0.0
        }
    }
}
Shape {
    appearance Appearance {material DEF PLASTIC-GREEN-01 Material {
        ambientIntensity 0.315
        diffuseColor 0.340 0.680 0.445
        specularColor 0.176 0.105 0.195
        emissiveColor 0.0 0.0 0.0
        shininess 0.25
        transparency 0.0
        }
    }
}
Shape {
    appearance Appearance {material DEF PLASTIC-ORANGE-01 Material {
        ambientIntensity 0.284
        diffuseColor 0.809 0.426 0.148
        specularColor 0.039 0.102 0.145
        emissiveColor 0.0 0.0 0.0
        shininess 0.25
        transparency 0.0
        }
    }
}
Shape {
    appearance Appearance {material DEF RED-BODY Material {
        ambientIntensity 0.683
        diffuseColor 0.700 0.100 0.050
        emissiveColor 0.000 0.000 0.000
        specularColor 0.300 0.400 0.150
        shininess 0.25
        transparency 0.0
        }
    }
}
Shape {
    appearance Appearance {material DEF CAP-CERAMIC-02 Material {
        ambientIntensity 0.683
        diffuseColor 0.578 0.336 0.352
        specularColor 0.105 0.273 0.270
        emissiveColor 0.0 0.0 0.0
        shininess 0.25
        transparency 0.0
        }
    }
}
Shape {
    appearance Appearance {material DEF PLASTIC-YELLOW-01 Material {
        ambientIntensity 0.522
        diffuseColor 0.832 0.680 0.066
        specularColor 0.160 0.203 0.320
        emissiveColor 0.0 0.0 0.0
        shininess 0.25
        transparency 0.0
        }
    }
}
Shape {
    appearance Appearance {material DEF PLASTIC-WHITE-01 Material {
        ambientIntensity 0.494
        diffuseColor 0.895 0.891 0.813
        specularColor 0.047 0.055 0.109
        emissiveColor 0.0 0.0 0.0
        shininess 0.25
        transparency 0.0
        }
    }
}
Shape {
    appearance Appearance {material DEF IC-LABEL-01 Material {
        ambientIntensity 0.082
        diffuseColor 0.691 0.664 0.598
        specularColor 0.000 0.000 0.000
        emissiveColor 0.0 0.0 0.0
        shininess 0.01
        transparency 0.0
        }
    }
}
Shape {
    appearance Appearance {material DEF LED-RED Material {
        ambientIntensity 0.789
        diffuseColor 0.700 0.100 0.050
        emissiveColor 0.000 0.000 0.000
        specularColor 0.300 0.400 0.150
        shininess 0.125
        transparency 0.10
        }
    }
}
Shape {
    appearance Appearance {material DEF LED-GREEN Material {
        ambientIntensity 0.789
        diffuseColor 0.400 0.700 0.150
        emissiveColor 0.000 0.000 0.000
        specularColor 0.600 0.300 0.100
        shininess 0.05
        transparency 0.10
        }
    }
}
Shape {
    appearance Appearance {material DEF LED-BLUE Material {
        ambientIntensity 0.789
        diffuseColor 0.100 0.250 0.700
        emissiveColor 0.000 0.000 0.000
        specularColor 0.500 0.600 0.300
        shininess 0.125
        transparency 0.10
        }
    }
}
Shape {
    appearance Appearance {material DEF LED-YELLOW Material {
        ambientIntensity 0.522
        diffuseColor 0.98 0.840 0.066
        specularColor 0.160 0.203 0.320
        emissiveColor 0.0 0.0 0.0
        shininess 0.125
        transparency 0.10
        }
    }
}
Shape {
    appearance Appearance {material DEF LED-WHITE Material {
        ambientIntensity 0.494
        diffuseColor 0.895 0.891 0.813
        specularColor 0.047 0.055 0.109
        emissiveColor 0.0 0.0 0.0
        shininess 0.125
        transparency 0.10
        }
    }
}
Shape {
    appearance Appearance {material DEF LED-GREY Material {
        ambientIntensity 0.494
        diffuseColor 0.27 0.25 0.27
        specularColor 0.5 0.5 0.6
        emissiveColor 0.0 0.0 0.0
        shininess 0.35
        transparency 0.10
        }
    }
}
Shape {
    appearance Appearance {material DEF LED-BLACK Material {
        ambientIntensity 0.494
        diffuseColor 0.1 0.05 0.1
        specularColor 0.6 0.5 0.6
        emissiveColor 0.0 0.0 0.0
        shininess 0.5
        transparency 0.0
        }
    }
}
Shape {
    appearance Appearance {material DEF GLASS-19 Material {
        ambientIntensity 2.018212
        diffuseColor 0.400769 0.441922 0.459091
        specularColor 0.573887 0.649271 0.810811
        emissiveColor 0.000000 0.000000 0.000000
        shininess 0.127273
        transparency 0.37
        }
    }
}
Shape {
    appearance Appearance {material DEF GLASS-29 Material {
        ambientIntensity 0.234375
        diffuseColor 0.566681 0.580872 0.580874
        specularColor 0.617761 0.429816 0.400140
        emissiveColor 0.000000 0.000000 0.000000
        shininess 0.072727
        transparency 0.38
        }
    }
}
Shape {
    appearance Appearance {material DEF GLASS-13 Material {
        ambientIntensity 0.250000
        diffuseColor 0.000000 0.631244 0.748016
        specularColor 0.915152 0.915152 0.915152
        emissiveColor 0.000000 0.000000 0.000000
        shininess 0.642424
        transparency 0.39
        }
    }
}
Shape {
    appearance Appearance {material DEF GLASS-GREEN Material {
        ambientIntensity 0.250000
        diffuseColor 0.000000 0.75 0.44
        specularColor 0.915152 0.915152 0.915152
        emissiveColor 0.000000 0.000000 0.000000
        shininess 0.642424
        transparency 0.39
        }
    }
}
Shape {
    appearance Appearance {material DEF GLASS-ORANGE Material {
        ambientIntensity 0.250000
        diffuseColor 0.75 0.44 0.000000
        specularColor 0.915152 0.915152 0.915152
        emissiveColor 0.000000 0.000000 0.000000
        shininess 0.642424
        transparency 0.39
        }
    }
}
Shape {
    appearance Appearance {material DEF BOARD-GREEN-02 Material {
        ambientIntensity 1
        diffuseColor 0.07 0.3 0.12
        specularColor 0.07 0.3 0.12
        emissiveColor 0.0 0.0 0.0
        shininess 0.40
        transparency 0.0
        }
    }
}
Shape {
    appearance Appearance {material DEF BOARD-BLUE-01 Material {
        ambientIntensity 1
        diffuseColor 0.07 0.12 0.3
        specularColor 0.07 0.12 0.3
        emissiveColor 0.0 0.0 0.0
        shininess 0.40
        transparency 0.0
        }
    }
}
Shape {
    appearance Appearance {material DEF BOARD-BLACK-03 Material {
        ambientIntensity 1
        diffuseColor 0.16 0.16 0.16
        specularColor 0.16 0.16 0.16
        emissiveColor 0.0 0.0 0.0
        shininess 0.40
        transparency 0.0
        }
    }
}
Shape {
    appearance Appearance {material DEF MET-ALUMINUM Material {
        ambientIntensity 0.256000
        diffuseColor 0.372322 0.371574 0.373173
        specularColor 0.556122 0.554201 0.556122
        emissiveColor 0.0 0.0 0.0
        shininess 0.127551
        transparency 0.0
        }
    }
}
Shape {
    appearance Appearance {material DEF MET-BRONZE Material {
        ambientIntensity 0.022727
        diffuseColor 0.714 0.4284 0.18144
        specularColor 0.393548 0.271906 0.166721
        emissiveColor 0.000000 0.000000 0.000000
        shininess 0.2
        transparency 0.0
        }
    }
}
Shape {
    appearance Appearance {material DEF MET-SILVER Material {
        ambientIntensity 0.022727
        diffuseColor 0.50754 0.50754 0.50754
        specularColor 0.508273 0.508273 0.508273
        emissiveColor 0.000000 0.000000 0.000000
        shininess 0.4
        transparency 0.0
        }
    }
}
Shape {
    appearance Appearance {material DEF MET-COPPER Material {
        ambientIntensity 0.022727
        diffuseColor 0.7038 0.27048 0.0828
        specularColor 0.780612 0.37 0.000000
        emissiveColor 0.000000 0.000000 0.000000
        shininess 0.2
        transparency 0.0
        }
    }
}
Shape { geometry IndexedFaceSet 
{ creaseAngle 0.50 coordIndex [0,1,2,-1,0,3,1,-1,4,3,0,-1,5,6,7,-1,7,6,8,-1,9,10,3,-1,11,12,5,-1,1,10,13,-1,5,12,6,-1,3,10,1,-1,14,15,9,-1,9,16,10,-1,15,16,9,-1,17,18,19,-1,19,18,20,-1,18,21,22,-1,21,23,24,-1,17,23,18,-1,18,23,21,-1,8,25,17,-1,6,25,8,-1,25,26,17,-1,17,26,23,-1,26,27,28,-1,29,27,25,-1,25,27,26,-1,27,30,31,-1,32,30,29,-1,29,30,27,-1,11,33,12,-1,12,33,4,-1,4,0,12,-1,0,34,35,-1,36,37,38,-1,34,37,36,-1,0,37,34,-1,0,39,37,-1,0,2,39,-1]
coord Coordinate { point [0.295275 -2.95275 -1.5748,-0.019685 -2.95275 -1.85039,0.019685 -2.95275 -1.85039,-0.295275 -2.95275 -1.5748,-0.295275 -2.95275 0.019685,2.55905 -2.95275 2.26378,1.67323 -2.95275 0.47244,2.55905 -2.95275 0.019685,2.26378 -2.95275 0.019685,-0.288365 -2.95275 -1.63612,-0.139259 -2.95275 -1.8231,-0.59055 -2.95275 2.26377,0.295275 -2.95275 0.47244,-0.0810095 -2.95275 -1.84348,-0.267983 -2.95275 -1.69437,-0.23515 -2.95275 -1.74663,-0.191513 -2.95275 -1.79026,2.26378 -2.95275 -1.5748,2.20365 -2.95275 -1.74663,2.25687 -2.95275 -1.63612,2.23648 -2.95275 -1.69437,2.10776 -2.95275 -1.8231,2.16001 -2.95275 -1.79026,1.98819 -2.95275 -1.85039,2.04951 -2.95275 -1.84348,1.67323 -2.95275 -1.5748,1.94882 -2.95275 -1.85039,1.82924 -2.95275 -1.8231,1.88749 -2.95275 -1.84348,1.68013 -2.95275 -1.63612,1.73335 -2.95275 -1.74663,1.77699 -2.95275 -1.79026,1.70052 -2.95275 -1.69437,-0.59055 -2.95275 0.019685,0.267983 -2.95275 -1.69437,0.288365 -2.95275 -1.63612,0.23515 -2.95275 -1.74663,0.139259 -2.95275 -1.8231,0.191513 -2.95275 -1.79026,0.0810095 -2.95275 -1.84348]
}}
appearance Appearance{material USE PIN-02 }}
Shape { geometry IndexedFaceSet 
{ creaseAngle 0.50 coordIndex [0,1,2,-1,0,2,3,-1]
coord Coordinate { point [-0.295275 -2.95275 -1.5748,-0.295275 -2.95275 0.019685,-0.295275 -2.63779 0.019685,-0.295275 -2.63779 -1.5748]
}}
appearance Appearance{material USE PIN-02 }}
Shape { geometry IndexedFaceSet 
{ creaseAngle 0.50 coordIndex [0,1,2,-1,3,1,0,-1,2,4,5,-1,1,4,2,-1,5,6,7,-1,4,6,5,-1,7,8,9,-1,6,8,7,-1,9,10,11,-1,8,10,9,-1,11,12,13,-1,10,12,11,-1,13,14,15,-1,12,14,13,-1]
coord Coordinate { point [-0.295275 -2.95275 -1.5748,-0.288365 -2.63779 -1.63612,-0.288365 -2.95275 -1.63612,-0.295275 -2.63779 -1.5748,-0.267983 -2.63779 -1.69437,-0.267983 -2.95275 -1.69437,-0.23515 -2.63779 -1.74663,-0.23515 -2.95275 -1.74663,-0.191513 -2.63779 -1.79026,-0.191513 -2.95275 -1.79026,-0.139259 -2.63779 -1.8231,-0.139259 -2.95275 -1.8231,-0.0810095 -2.63779 -1.84348,-0.0810095 -2.95275 -1.84348,-0.019685 -2.63779 -1.85039,-0.019685 -2.95275 -1.85039]
}}
appearance Appearance{material USE PIN-02 }}
Shape { geometry IndexedFaceSet 
{ creaseAngle 0.50 coordIndex [0,1,2,-1,0,3,1,-1]
coord Coordinate { point [-0.295275 -2.95275 0.019685,-0.59055 -2.63779 0.019685,-0.295275 -2.63779 0.019685,-0.59055 -2.95275 0.019685]
}}
appearance Appearance{material USE PIN-02 }}
Shape { geometry IndexedFaceSet 
{ creaseAngle 0.50 coordIndex [0,1,2,-1,3,1,0,-1]
coord Coordinate { point [0.019685 -2.95275 -1.85039,-0.019685 -2.63779 -1.85039,0.019685 -2.63779 -1.85039,-0.019685 -2.95275 -1.85039]
}}
appearance Appearance{material USE PIN-02 }}
Shape { geometry IndexedFaceSet 
{ creaseAngle 0.50 coordIndex [0,1,2,-1,0,3,4,-1,0,5,3,-1,0,2,5,-1,0,6,1,-1,7,0,4,-1,8,0,7,-1,9,0,8,-1,10,0,9,-1,11,12,13,-1,14,12,11,-1,15,11,0,-1,15,0,10,-1,16,14,11,-1,17,11,15,-1,18,16,11,-1,19,11,17,-1,20,11,19,-1,21,18,11,-1,21,11,20,-1]
coord Coordinate { point [-0.59055 -2.63779 2.24409,-0.59055 -2.95275 0.019685,-0.59055 -2.95275 2.26377,-0.59055 -2.92351 2.39189,-0.59055 -2.88833 2.44788,-0.59055 -2.94535 2.32948,-0.59055 -2.63779 0.019685,-0.59055 -2.84158 2.49463,-0.59055 -2.78559 2.52981,-0.59055 -2.72318 2.55165,-0.59055 -2.65747 2.55905,-0.59055 -0.11811 2.24409,-0.59055 0.19685 0.019685,-0.59055 -0.11811 0.019685,-0.59055 0.19685 2.26377,-0.59055 -0.098425 2.55905,-0.59055 0.189447 2.32948,-0.59055 -0.0327201 2.55165,-0.59055 0.167609 2.39189,-0.59055 0.02969 2.52981,-0.59055 0.085676 2.49463,-0.59055 0.13243 2.44788]
}}
appearance Appearance{material USE PIN-02 }}
Shape { geometry IndexedFaceSet 
{ creaseAngle 0.50 coordIndex [0,1,2,-1,3,1,0,-1,2,4,5,-1,1,4,2,-1,5,6,7,-1,4,6,5,-1,7,8,9,-1,6,8,7,-1,9,10,11,-1,8,10,9,-1,11,12,13,-1,10,12,11,-1,13,14,15,-1,12,14,13,-1]
coord Coordinate { point [0.019685 -2.95275 -1.85039,0.0810095 -2.63779 -1.84348,0.0810095 -2.95275 -1.84348,0.019685 -2.63779 -1.85039,0.139259 -2.63779 -1.8231,0.139259 -2.95275 -1.8231,0.191513 -2.63779 -1.79026,0.191513 -2.95275 -1.79026,0.23515 -2.63779 -1.74663,0.23515 -2.95275 -1.74663,0.267983 -2.63779 -1.69437,0.267983 -2.95275 -1.69437,0.288365 -2.63779 -1.63612,0.288365 -2.95275 -1.63612,0.295275 -2.63779 -1.5748,0.295275 -2.95275 -1.5748]
}}
appearance Appearance{material USE PIN-02 }}
Shape { geometry IndexedFaceSet 
{ creaseAngle 0.50 coordIndex [0,1,2,-1,0,3,1,-1,4,2,5,-1,4,0,2,-1,6,5,7,-1,6,4,5,-1,8,7,9,-1,8,6,7,-1,10,9,11,-1,10,8,9,-1,12,11,13,-1,12,10,11,-1,14,13,15,-1,14,12,13,-1]
coord Coordinate { point [2.55905 -2.72318 2.55165,-0.59055 -2.65747 2.55905,-0.59055 -2.72318 2.55165,2.55905 -2.65747 2.55905,2.55905 -2.78559 2.52981,-0.59055 -2.78559 2.52981,2.55905 -2.84158 2.49463,-0.59055 -2.84158 2.49463,2.55905 -2.88833 2.44788,-0.59055 -2.88833 2.44788,2.55905 -2.92351 2.39189,-0.59055 -2.92351 2.39189,2.55905 -2.94535 2.32948,-0.59055 -2.94535 2.32948,2.55905 -2.95275 2.26378,-0.59055 -2.95275 2.26377]
}}
appearance Appearance{material USE PIN-02 }}
Shape { geometry IndexedFaceSet 
{ creaseAngle 0.50 coordIndex [0,1,2,-1,0,2,3,-1]
coord Coordinate { point [0.295275 -2.95275 0.47244,0.295275 -2.95275 -1.5748,0.295275 -2.63779 -1.5748,0.295275 -2.63779 0.47244]
}}
appearance Appearance{material USE PIN-02 }}
Shape { geometry IndexedFaceSet 
{ creaseAngle 0.50 coordIndex [0,1,2,-1,3,1,4,-1,5,1,3,-1,2,1,5,-1,6,1,0,-1,1,7,4,-1,1,8,7,-1,1,9,8,-1,1,10,9,-1,11,12,13,-1,11,14,12,-1,12,15,1,-1,1,15,10,-1,14,16,12,-1,12,17,15,-1,16,18,12,-1,12,19,17,-1,12,20,19,-1,18,21,12,-1,12,21,20,-1]
coord Coordinate { point [2.55905 -2.95275 0.019685,2.55905 -2.63779 2.24409,2.55905 -2.95275 2.26378,2.55905 -2.92351 2.39189,2.55905 -2.88833 2.44788,2.55905 -2.94535 2.32948,2.55905 -2.63779 0.019685,2.55905 -2.84158 2.49463,2.55905 -2.78559 2.52981,2.55905 -2.72318 2.55165,2.55905 -2.65747 2.55905,2.55905 0.19685 0.019685,2.55905 -0.11811 2.24409,2.55905 -0.11811 0.019685,2.55905 0.19685 2.26378,2.55905 -0.098425 2.55905,2.55905 0.189447 2.32948,2.55905 -0.0327201 2.55165,2.55905 0.167609 2.39189,2.55905 0.02969 2.52981,2.55905 0.085676 2.49463,2.55905 0.13243 2.44788]
}}
appearance Appearance{material USE PIN-02 }}
Shape { geometry IndexedFaceSet 
{ creaseAngle 0.50 coordIndex [0,1,2,-1,0,3,1,-1]
coord Coordinate { point [1.67323 -2.95275 0.47244,0.295275 -2.63779 0.47244,1.67323 -2.63779 0.47244,0.295275 -2.95275 0.47244]
}}
appearance Appearance{material USE PIN-02 }}
Shape { geometry IndexedFaceSet 
{ creaseAngle 0.50 coordIndex [0,1,2,-1,3,1,0,-1]
coord Coordinate { point [2.55905 -2.63779 0.019685,2.26378 -2.95275 0.019685,2.26378 -2.63779 0.019685,2.55905 -2.95275 0.019685]
}}
appearance Appearance{material USE PIN-02 }}
Shape { geometry IndexedFaceSet 
{ creaseAngle 0.50 coordIndex [0,1,2,-1,0,2,3,-1]
coord Coordinate { point [1.67323 -2.95275 -1.5748,1.67323 -2.95275 0.47244,1.67323 -2.63779 0.47244,1.67323 -2.63779 -1.5748]
}}
appearance Appearance{material USE PIN-02 }}
Shape { geometry IndexedFaceSet 
{ creaseAngle 0.50 coordIndex [0,1,2,-1,2,1,3,-1]
coord Coordinate { point [2.26378 -2.95275 0.019685,2.26378 -2.95275 -1.5748,2.26378 -2.63779 0.019685,2.26378 -2.63779 -1.5748]
}}
appearance Appearance{material USE PIN-02 }}
Shape { geometry IndexedFaceSet 
{ creaseAngle 0.50 coordIndex [0,1,2,-1,0,3,1,-1,4,2,5,-1,4,0,2,-1,6,5,7,-1,6,4,5,-1,8,7,9,-1,8,6,7,-1,10,9,11,-1,10,8,9,-1,12,11,13,-1,12,10,11,-1,14,13,15,-1,14,12,13,-1]
coord Coordinate { point [1.88749 -2.63779 -1.84348,1.94882 -2.95275 -1.85039,1.88749 -2.95275 -1.84348,1.94882 -2.63779 -1.85039,1.82924 -2.63779 -1.8231,1.82924 -2.95275 -1.8231,1.77699 -2.63779 -1.79026,1.77699 -2.95275 -1.79026,1.73335 -2.63779 -1.74663,1.73335 -2.95275 -1.74663,1.70052 -2.63779 -1.69437,1.70052 -2.95275 -1.69437,1.68013 -2.63779 -1.63612,1.68013 -2.95275 -1.63612,1.67323 -2.63779 -1.5748,1.67323 -2.95275 -1.5748]
}}
appearance Appearance{material USE PIN-02 }}
Shape { geometry IndexedFaceSet 
{ creaseAngle 0.50 coordIndex [0,1,2,-1,0,3,1,-1,4,2,5,-1,4,0,2,-1,6,5,7,-1,6,4,5,-1,8,7,9,-1,8,6,7,-1,10,9,11,-1,10,8,9,-1,12,11,13,-1,12,10,11,-1,14,13,15,-1,14,12,13,-1]
coord Coordinate { point [2.25687 -2.63779 -1.63612,2.26378 -2.95275 -1.5748,2.25687 -2.95275 -1.63612,2.26378 -2.63779 -1.5748,2.23648 -2.63779 -1.69437,2.23648 -2.95275 -1.69437,2.20365 -2.63779 -1.74663,2.20365 -2.95275 -1.74663,2.16001 -2.63779 -1.79026,2.16001 -2.95275 -1.79026,2.10776 -2.63779 -1.8231,2.10776 -2.95275 -1.8231,2.04951 -2.63779 -1.84348,2.04951 -2.95275 -1.84348,1.98819 -2.63779 -1.85039,1.98819 -2.95275 -1.85039]
}}
appearance Appearance{material USE PIN-02 }}
Shape { geometry IndexedFaceSet 
{ creaseAngle 0.50 coordIndex [0,1,2,-1,3,1,0,-1]
coord Coordinate { point [1.98819 -2.95275 -1.85039,1.94882 -2.63779 -1.85039,1.98819 -2.63779 -1.85039,1.94882 -2.95275 -1.85039]
}}
appearance Appearance{material USE PIN-02 }}
Shape { geometry IndexedFaceSet 
{ creaseAngle 0.50 coordIndex [0,1,2,-1,2,1,3,-1,3,1,4,-1,4,1,5,-1,6,7,8,-1,9,7,6,-1,7,10,8,-1,7,11,10,-1,1,12,5,-1,5,12,11,-1,12,13,11,-1,13,14,11,-1,11,14,10,-1,15,16,17,-1,18,16,15,-1,19,16,18,-1,20,16,19,-1,21,16,20,-1,22,16,21,-1,16,23,17,-1,24,25,23,-1,26,27,25,-1,28,9,27,-1,29,9,28,-1,23,9,17,-1,25,9,23,-1,27,9,25,-1,9,6,17,-1,30,31,32,-1,33,5,30,-1,31,5,34,-1,30,5,31,-1,35,36,33,-1,33,36,5,-1,36,4,5,-1,37,3,38,-1,38,3,4,-1,39,1,0,-1]
coord Coordinate { point [-0.267983 -2.63779 -1.69437,-0.295275 -2.63779 -1.5748,-0.23515 -2.63779 -1.74663,-0.191513 -2.63779 -1.79026,-0.019685 -2.63779 -1.85039,0.295275 -2.63779 -1.5748,2.26378 -2.63779 0.019685,1.67323 -2.63779 0.47244,2.55905 -2.63779 0.019685,1.67323 -2.63779 -1.5748,2.55905 -2.63779 2.24409,0.295275 -2.63779 0.47244,-0.295275 -2.63779 0.019685,-0.59055 -2.63779 0.019685,-0.59055 -2.63779 2.24409,2.25687 -2.63779 -1.63612,1.98819 -2.63779 -1.85039,2.26378 -2.63779 -1.5748,2.23648 -2.63779 -1.69437,2.20365 -2.63779 -1.74663,2.16001 -2.63779 -1.79026,2.10776 -2.63779 -1.8231,2.04951 -2.63779 -1.84348,1.94882 -2.63779 -1.85039,1.88749 -2.63779 -1.84348,1.82924 -2.63779 -1.8231,1.77699 -2.63779 -1.79026,1.73335 -2.63779 -1.74663,1.70052 -2.63779 -1.69437,1.68013 -2.63779 -1.63612,0.191513 -2.63779 -1.79026,0.267983 -2.63779 -1.69437,0.23515 -2.63779 -1.74663,0.139259 -2.63779 -1.8231,0.288365 -2.63779 -1.63612,0.0810095 -2.63779 -1.84348,0.019685 -2.63779 -1.85039,-0.139259 -2.63779 -1.8231,-0.0810095 -2.63779 -1.84348,-0.288365 -2.63779 -1.63612]
}}
appearance Appearance{material USE PIN-02 }}
Shape { geometry IndexedFaceSet 
{ creaseAngle 0.50 coordIndex [0,1,2,-1,3,4,5,-1,0,6,1,-1,0,7,6,-1,0,8,7,-1,0,9,8,-1,10,5,4,-1,0,11,9,-1,0,12,11,-1,0,13,12,-1,0,2,14,-1,15,3,5,-1,16,5,10,-1,17,15,5,-1,18,5,16,-1,19,17,5,-1,14,19,5,-1,20,19,14,-1,21,20,14,-1,22,21,14,-1,23,22,14,-1,13,24,25,-1,13,26,24,-1,13,27,26,-1,13,28,27,-1,13,18,28,-1,13,5,18,-1,29,23,14,-1,12,13,25,-1,2,29,14,-1]
coord Coordinate { point [-0.59055 -0.098425 2.55905,0.866477 -0.900125 2.55905,0.98425 -0.885825 2.55905,1.38926 -1.65751 2.55905,1.31059 -1.74631 2.55905,2.55905 -2.65747 2.55905,0.755548 -0.942195 2.55905,0.657911 -1.00959 2.55905,0.579239 -1.09839 2.55905,0.524105 -1.20344 2.55905,1.21295 -1.81371 2.55905,0.495713 -1.31863 2.55905,0.495713 -1.43727 2.55905,-0.59055 -2.65747 2.55905,2.55905 -0.098425 2.55905,1.44439 -1.55246 2.55905,1.10202 -1.85577 2.55905,1.47279 -1.43727 2.55905,0.98425 -1.87007 2.55905,1.47279 -1.31863 2.55905,1.44439 -1.20344 2.55905,1.38926 -1.09839 2.55905,1.31059 -1.00959 2.55905,1.21295 -0.942195 2.55905,0.579239 -1.65751 2.55905,0.524105 -1.55246 2.55905,0.657911 -1.74631 2.55905,0.755548 -1.81371 2.55905,0.866477 -1.85577 2.55905,1.10202 -0.900125 2.55905]
}}
appearance Appearance{material USE PIN-02 }}
Shape { geometry IndexedFaceSet 
{ creaseAngle 0.50 coordIndex [0,1,2,-1,3,1,0,-1,2,4,5,-1,1,4,2,-1,5,6,7,-1,4,6,5,-1,7,8,9,-1,6,8,7,-1,9,10,11,-1,8,10,9,-1,11,12,13,-1,10,12,11,-1,13,14,15,-1,12,14,13,-1]
coord Coordinate { point [-0.59055 -0.098425 2.55905,2.55905 -0.0327201 2.55165,-0.59055 -0.0327201 2.55165,2.55905 -0.098425 2.55905,2.55905 0.02969 2.52981,-0.59055 0.02969 2.52981,2.55905 0.085676 2.49463,-0.59055 0.085676 2.49463,2.55905 0.13243 2.44788,-0.59055 0.13243 2.44788,2.55905 0.167609 2.39189,-0.59055 0.167609 2.39189,2.55905 0.189447 2.32948,-0.59055 0.189447 2.32948,2.55905 0.19685 2.26378,-0.59055 0.19685 2.26377]
}}
appearance Appearance{material USE PIN-02 }}
Shape { geometry IndexedFaceSet 
{ creaseAngle 0.50 coordIndex [0,1,2,-1,2,3,0,-1,1,4,2,-1,2,5,3,-1,4,6,2,-1,2,7,5,-1,6,8,2,-1,8,9,2,-1,8,10,9,-1,10,11,9,-1,11,12,9,-1,12,13,9,-1,7,14,15,-1,15,14,16,-1,16,14,17,-1,17,14,18,-1,18,14,19,-1,2,14,7,-1,13,20,9,-1,14,21,19,-1,20,22,9,-1,14,23,21,-1,23,24,25,-1,25,24,26,-1,26,24,27,-1,27,24,28,-1,28,24,29,-1,29,24,22,-1,22,24,9,-1,14,24,23,-1]
coord Coordinate { point [1.31059 -1.74631 2.24409,1.38926 -1.65751 2.24409,2.55905 -2.63779 2.24409,1.21295 -1.81371 2.24409,1.44439 -1.55246 2.24409,1.10202 -1.85577 2.24409,1.47279 -1.43727 2.24409,0.98425 -1.87007 2.24409,1.47279 -1.31863 2.24409,2.55905 -0.11811 2.24409,1.44439 -1.20344 2.24409,1.38926 -1.09839 2.24409,1.31059 -1.00959 2.24409,1.21295 -0.942195 2.24409,-0.59055 -2.63779 2.24409,0.866477 -1.85577 2.24409,0.755548 -1.81371 2.24409,0.657911 -1.74631 2.24409,0.579239 -1.65751 2.24409,0.524105 -1.55246 2.24409,1.10202 -0.900125 2.24409,0.495713 -1.43727 2.24409,0.98425 -0.885825 2.24409,0.495713 -1.31863 2.24409,-0.59055 -0.11811 2.24409,0.524105 -1.20344 2.24409,0.579239 -1.09839 2.24409,0.657911 -1.00959 2.24409,0.755548 -0.942195 2.24409,0.866477 -0.900125 2.24409]
}}
appearance Appearance{material USE PIN-02 }}
Shape { geometry IndexedFaceSet 
{ creaseAngle 0.50 coordIndex [0,1,2,-1,2,1,3,-1,3,1,4,-1,5,6,7,-1,8,6,5,-1,6,9,7,-1,6,10,9,-1,1,11,4,-1,4,11,10,-1,11,12,10,-1,12,13,10,-1,10,13,9,-1,14,15,16,-1,17,15,14,-1,18,15,17,-1,19,15,18,-1,20,15,19,-1,21,15,20,-1,15,22,16,-1,23,24,22,-1,25,26,24,-1,27,8,26,-1,28,8,27,-1,22,8,16,-1,24,8,22,-1,26,8,24,-1,8,5,16,-1,29,30,31,-1,31,32,33,-1,30,32,31,-1,33,4,34,-1,33,35,4,-1,32,35,33,-1,35,3,4,-1,36,2,37,-1,37,2,3,-1,38,1,39,-1,39,1,0,-1]
coord Coordinate { point [-0.23515 0.19685 -1.74663,-0.295275 0.19685 -1.5748,-0.191513 0.19685 -1.79026,-0.019685 0.19685 -1.85039,0.295275 0.19685 -1.5748,2.26378 0.19685 0.019685,1.67323 0.19685 0.47244,2.55905 0.19685 0.019685,1.67323 0.19685 -1.5748,2.55905 0.19685 2.26378,0.295275 0.19685 0.47244,-0.295275 0.19685 0.019685,-0.59055 0.19685 0.019685,-0.59055 0.19685 2.26377,2.25687 0.19685 -1.63612,1.98819 0.19685 -1.85039,2.26378 0.19685 -1.5748,2.23648 0.19685 -1.69437,2.20365 0.19685 -1.74663,2.16001 0.19685 -1.79026,2.10776 0.19685 -1.8231,2.04951 0.19685 -1.84348,1.94882 0.19685 -1.85039,1.88749 0.19685 -1.84348,1.82924 0.19685 -1.8231,1.77699 0.19685 -1.79026,1.73335 0.19685 -1.74663,1.70052 0.19685 -1.69437,1.68013 0.19685 -1.63612,0.191513 0.19685 -1.79026,0.139259 0.19685 -1.8231,0.23515 0.19685 -1.74663,0.0810095 0.19685 -1.84348,0.267983 0.19685 -1.69437,0.288365 0.19685 -1.63612,0.019685 0.19685 -1.85039,-0.139259 0.19685 -1.8231,-0.0810095 0.19685 -1.84348,-0.288365 0.19685 -1.63612,-0.267983 0.19685 -1.69437]
}}
appearance Appearance{material USE PIN-02 }}
Shape { geometry IndexedFaceSet 
{ creaseAngle 0.50 coordIndex [0,1,2,-1,3,4,0,-1,0,5,1,-1,6,7,8,-1,4,5,0,-1,8,7,9,-1,10,11,6,-1,6,11,7,-1,5,12,13,-1,14,15,16,-1,17,18,19,-1,16,20,4,-1,4,20,5,-1,5,20,12,-1,15,20,16,-1,18,21,22,-1,22,21,23,-1,17,21,18,-1,21,24,25,-1,17,24,21,-1,9,26,17,-1,7,26,9,-1,26,27,17,-1,17,27,24,-1,27,28,29,-1,28,30,31,-1,32,30,33,-1,33,30,26,-1,26,30,27,-1,27,30,28,-1,10,34,11,-1,11,34,3,-1,3,0,11,-1,0,35,36,-1,37,38,39,-1,35,38,37,-1,0,38,35,-1,0,2,38,-1]
coord Coordinate { point [0.295275 -0.11811 -1.5748,0.019685 -0.11811 -1.85039,0.0810095 -0.11811 -1.84348,-0.295275 -0.11811 0.019685,-0.295275 -0.11811 -1.5748,-0.019685 -0.11811 -1.85039,2.55905 -0.11811 2.24409,1.67323 -0.11811 0.47244,2.55905 -0.11811 0.019685,2.26378 -0.11811 0.019685,-0.59055 -0.11811 2.24409,0.295275 -0.11811 0.47244,-0.139259 -0.11811 -1.8231,-0.0810095 -0.11811 -1.84348,-0.267983 -0.11811 -1.69437,-0.23515 -0.11811 -1.74663,-0.288365 -0.11811 -1.63612,2.26378 -0.11811 -1.5748,2.23648 -0.11811 -1.69437,2.25687 -0.11811 -1.63612,-0.191513 -0.11811 -1.79026,2.10776 -0.11811 -1.8231,2.20365 -0.11811 -1.74663,2.16001 -0.11811 -1.79026,1.98819 -0.11811 -1.85039,2.04951 -0.11811 -1.84348,1.67323 -0.11811 -1.5748,1.94882 -0.11811 -1.85039,1.82924 -0.11811 -1.8231,1.88749 -0.11811 -1.84348,1.73335 -0.11811 -1.74663,1.77699 -0.11811 -1.79026,1.70052 -0.11811 -1.69437,1.68013 -0.11811 -1.63612,-0.59055 -0.11811 0.019685,0.267983 -0.11811 -1.69437,0.288365 -0.11811 -1.63612,0.23515 -0.11811 -1.74663,0.139259 -0.11811 -1.8231,0.191513 -0.11811 -1.79026]
}}
appearance Appearance{material USE PIN-02 }}
Shape { geometry IndexedFaceSet 
{ creaseAngle 0.50 coordIndex [0,1,2,-1,0,3,1,-1]
coord Coordinate { point [-0.295275 -0.11811 0.019685,-0.59055 0.19685 0.019685,-0.295275 0.19685 0.019685,-0.59055 -0.11811 0.019685]
}}
appearance Appearance{material USE PIN-02 }}
Shape { geometry IndexedFaceSet 
{ creaseAngle 0.50 coordIndex [0,1,2,-1,3,1,0,-1]
coord Coordinate { point [2.55905 0.19685 0.019685,2.26378 -0.11811 0.019685,2.26378 0.19685 0.019685,2.55905 -0.11811 0.019685]
}}
appearance Appearance{material USE PIN-02 }}
Shape { geometry IndexedFaceSet 
{ creaseAngle 0.50 coordIndex [0,1,2,-1,0,2,3,-1,4,0,3,-1,4,3,5,-1,6,7,8,-1,9,4,5,-1,9,5,10,-1,11,8,12,-1,11,6,8,-1,13,10,14,-1,13,9,10,-1,15,12,16,-1,15,11,12,-1,17,14,7,-1,17,13,14,-1,18,16,19,-1,6,17,7,-1,18,15,16,-1,20,19,21,-1,20,18,19,-1,22,21,23,-1,22,20,21,-1,24,23,25,-1,24,22,23,-1,26,25,27,-1,26,24,25,-1,28,27,29,-1,28,26,27,-1,30,29,31,-1,30,28,29,-1,32,31,33,-1,32,30,31,-1,34,32,33,-1,34,33,35,-1,36,34,35,-1,36,35,37,-1,38,36,37,-1,38,37,39,-1,40,38,39,-1,40,39,41,-1,42,40,41,-1,42,41,43,-1,44,42,43,-1,44,43,45,-1,46,44,45,-1,46,45,47,-1,48,46,47,-1,48,47,49,-1,50,48,49,-1,50,49,51,-1,1,50,51,-1,1,51,2,-1]
coord Coordinate { point [1.44439 -1.20344 2.24409,1.47279 -1.31863 2.24409,1.44439 -1.20344 2.55905,1.38926 -1.09839 2.55905,1.38926 -1.09839 2.24409,1.31059 -1.00959 2.55905,0.98425 -0.885825 2.24409,0.98425 -0.885825 2.55905,0.866477 -0.900125 2.55905,1.31059 -1.00959 2.24409,1.21295 -0.942195 2.55905,0.866477 -0.900125 2.24409,0.755548 -0.942195 2.55905,1.21295 -0.942195 2.24409,1.10202 -0.900125 2.55905,0.755548 -0.942195 2.24409,0.657911 -1.00959 2.55905,1.10202 -0.900125 2.24409,0.657911 -1.00959 2.24409,0.579239 -1.09839 2.55905,0.579239 -1.09839 2.24409,0.524105 -1.20344 2.55905,0.524105 -1.20344 2.24409,0.495713 -1.31863 2.55905,0.495713 -1.31863 2.24409,0.495713 -1.43727 2.55905,0.495713 -1.43727 2.24409,0.524105 -1.55246 2.55905,0.524105 -1.55246 2.24409,0.579239 -1.65751 2.55905,0.579239 -1.65751 2.24409,0.657911 -1.74631 2.55905,0.657911 -1.74631 2.24409,0.755548 -1.81371 2.55905,0.755548 -1.81371 2.24409,0.866477 -1.85577 2.55905,0.866477 -1.85577 2.24409,0.98425 -1.87007 2.55905,0.98425 -1.87007 2.24409,1.10202 -1.85577 2.55905,1.10202 -1.85577 2.24409,1.21295 -1.81371 2.55905,1.21295 -1.81371 2.24409,1.31059 -1.74631 2.55905,1.31059 -1.74631 2.24409,1.38926 -1.65751 2.55905,1.38926 -1.65751 2.24409,1.44439 -1.55246 2.55905,1.44439 -1.55246 2.24409,1.47279 -1.43727 2.55905,1.47279 -1.43727 2.24409,1.47279 -1.31863 2.55905]
}}
appearance Appearance{material USE PIN-02 }}
Shape { geometry IndexedFaceSet 
{ creaseAngle 0.50 coordIndex [0,1,2,-1,0,2,3,-1]
coord Coordinate { point [-0.295275 -0.11811 -1.5748,-0.295275 -0.11811 0.019685,-0.295275 0.19685 0.019685,-0.295275 0.19685 -1.5748]
}}
appearance Appearance{material USE PIN-02 }}
Shape { geometry IndexedFaceSet 
{ creaseAngle 0.50 coordIndex [0,1,2,-1,3,1,0,-1,2,4,5,-1,1,4,2,-1,5,6,7,-1,4,6,5,-1,7,8,9,-1,6,8,7,-1,9,10,11,-1,8,10,9,-1,11,12,13,-1,10,12,11,-1,13,14,15,-1,12,14,13,-1]
coord Coordinate { point [-0.295275 -0.11811 -1.5748,-0.288365 0.19685 -1.63612,-0.288365 -0.11811 -1.63612,-0.295275 0.19685 -1.5748,-0.267983 0.19685 -1.69437,-0.267983 -0.11811 -1.69437,-0.23515 0.19685 -1.74663,-0.23515 -0.11811 -1.74663,-0.191513 0.19685 -1.79026,-0.191513 -0.11811 -1.79026,-0.139259 0.19685 -1.8231,-0.139259 -0.11811 -1.8231,-0.0810095 0.19685 -1.84348,-0.0810095 -0.11811 -1.84348,-0.019685 0.19685 -1.85039,-0.019685 -0.11811 -1.85039]
}}
appearance Appearance{material USE PIN-02 }}
Shape { geometry IndexedFaceSet 
{ creaseAngle 0.50 coordIndex [0,1,2,-1,3,1,0,-1]
coord Coordinate { point [0.019685 -0.11811 -1.85039,-0.019685 0.19685 -1.85039,0.019685 0.19685 -1.85039,-0.019685 -0.11811 -1.85039]
}}
appearance Appearance{material USE PIN-02 }}
Shape { geometry IndexedFaceSet 
{ creaseAngle 0.50 coordIndex [0,1,2,-1,3,1,0,-1,2,4,5,-1,1,4,2,-1,5,6,7,-1,4,6,5,-1,7,8,9,-1,6,8,7,-1,9,10,11,-1,8,10,9,-1,11,12,13,-1,10,12,11,-1,13,14,15,-1,12,14,13,-1]
coord Coordinate { point [0.019685 -0.11811 -1.85039,0.0810095 0.19685 -1.84348,0.0810095 -0.11811 -1.84348,0.019685 0.19685 -1.85039,0.139259 0.19685 -1.8231,0.139259 -0.11811 -1.8231,0.191513 0.19685 -1.79026,0.191513 -0.11811 -1.79026,0.23515 0.19685 -1.74663,0.23515 -0.11811 -1.74663,0.267983 0.19685 -1.69437,0.267983 -0.11811 -1.69437,0.288365 0.19685 -1.63612,0.288365 -0.11811 -1.63612,0.295275 0.19685 -1.5748,0.295275 -0.11811 -1.5748]
}}
appearance Appearance{material USE PIN-02 }}
Shape { geometry IndexedFaceSet 
{ creaseAngle 0.50 coordIndex [0,1,2,-1,0,2,3,-1]
coord Coordinate { point [0.295275 -0.11811 0.47244,0.295275 -0.11811 -1.5748,0.295275 0.19685 -1.5748,0.295275 0.19685 0.47244]
}}
appearance Appearance{material USE PIN-02 }}
Shape { geometry IndexedFaceSet 
{ creaseAngle 0.50 coordIndex [0,1,2,-1,3,1,0,-1]
coord Coordinate { point [1.67323 0.19685 0.47244,0.295275 -0.11811 0.47244,0.295275 0.19685 0.47244,1.67323 -0.11811 0.47244]
}}
appearance Appearance{material USE PIN-02 }}
Shape { geometry IndexedFaceSet 
{ creaseAngle 0.50 coordIndex [0,1,2,-1,3,1,0,-1]
coord Coordinate { point [1.67323 0.19685 -1.5748,1.67323 -0.11811 0.47244,1.67323 0.19685 0.47244,1.67323 -0.11811 -1.5748]
}}
appearance Appearance{material USE PIN-02 }}
Shape { geometry IndexedFaceSet 
{ creaseAngle 0.50 coordIndex [0,1,2,-1,0,3,1,-1]
coord Coordinate { point [2.26378 -0.11811 0.019685,2.26378 0.19685 -1.5748,2.26378 0.19685 0.019685,2.26378 -0.11811 -1.5748]
}}
appearance Appearance{material USE PIN-02 }}
Shape { geometry IndexedFaceSet 
{ creaseAngle 0.50 coordIndex [0,1,2,-1,0,3,1,-1,4,2,5,-1,4,0,2,-1,6,5,7,-1,6,4,5,-1,8,7,9,-1,8,6,7,-1,10,9,11,-1,10,8,9,-1,12,11,13,-1,12,10,11,-1,14,13,15,-1,14,12,13,-1]
coord Coordinate { point [1.88749 0.19685 -1.84348,1.94882 -0.11811 -1.85039,1.88749 -0.11811 -1.84348,1.94882 0.19685 -1.85039,1.82924 0.19685 -1.8231,1.82924 -0.11811 -1.8231,1.77699 0.19685 -1.79026,1.77699 -0.11811 -1.79026,1.73335 0.19685 -1.74663,1.73335 -0.11811 -1.74663,1.70052 0.19685 -1.69437,1.70052 -0.11811 -1.69437,1.68013 0.19685 -1.63612,1.68013 -0.11811 -1.63612,1.67323 0.19685 -1.5748,1.67323 -0.11811 -1.5748]
}}
appearance Appearance{material USE PIN-02 }}
Shape { geometry IndexedFaceSet 
{ creaseAngle 0.50 coordIndex [0,1,2,-1,0,3,1,-1,4,2,5,-1,4,0,2,-1,6,5,7,-1,6,4,5,-1,8,7,9,-1,8,6,7,-1,10,9,11,-1,10,8,9,-1,12,11,13,-1,12,10,11,-1,14,13,15,-1,14,12,13,-1]
coord Coordinate { point [2.25687 0.19685 -1.63612,2.26378 -0.11811 -1.5748,2.25687 -0.11811 -1.63612,2.26378 0.19685 -1.5748,2.23648 0.19685 -1.69437,2.23648 -0.11811 -1.69437,2.20365 0.19685 -1.74663,2.20365 -0.11811 -1.74663,2.16001 0.19685 -1.79026,2.16001 -0.11811 -1.79026,2.10776 0.19685 -1.8231,2.10776 -0.11811 -1.8231,2.04951 0.19685 -1.84348,2.04951 -0.11811 -1.84348,1.98819 0.19685 -1.85039,1.98819 -0.11811 -1.85039]
}}
appearance Appearance{material USE PIN-02 }}
Shape { geometry IndexedFaceSet 
{ creaseAngle 0.50 coordIndex [0,1,2,-1,3,1,0,-1]
coord Coordinate { point [1.98819 -0.11811 -1.85039,1.94882 0.19685 -1.85039,1.98819 0.19685 -1.85039,1.94882 -0.11811 -1.85039]
}}
appearance Appearance{material USE PIN-02 }}
